<?xml version="1.0"?>
<COLLADA xmlns="http://www.collada.org/2005/11/COLLADASchema" version="1.4.1">
	<asset>
		<contributor>
			<author>Tim</author>
			<authoring_tool>NVIDIA FX Composer 2.5</authoring_tool>
			<comments/>
			<copyright/>
		</contributor>
		<created>2010-09-22T01:12:18Z</created>
		<keywords>FXComposer, NVIDIA</keywords>
		<modified>2010-10-04T17:42:23Z</modified>
		<subject/>
		<title/>
		<unit/>
		<up_axis>Y_UP</up_axis>
	</asset>
	<library_effects>
		<effect id="Effect5" name="UntexturedColour">
			<profile_COMMON>
				<technique sid="__fxc_remove_profile_COMMON">
					<constant/>
				</technique>
			</profile_COMMON>
			<extra type="import">
				<technique profile="NVIDIA_FXCOMPOSER">
					<import url="hlsl/UntexturedColour.fx" compiler_options="" profile="fx"/>
				</technique>
			</extra>
		</effect>
		<effect id="Effect6" name="UntexturedPlain">
			<profile_COMMON>
				<technique sid="__fxc_remove_profile_COMMON">
					<constant/>
				</technique>
			</profile_COMMON>
			<extra type="import">
				<technique profile="NVIDIA_FXCOMPOSER">
					<import url="hlsl/UntexturedPlain.fx" compiler_options="" profile="fx"/>
				</technique>
			</extra>
		</effect>
		<effect id="Effect7" name="PositionOnly">
			<profile_COMMON>
				<technique sid="__fxc_remove_profile_COMMON">
					<constant/>
				</technique>
			</profile_COMMON>
			<extra type="import">
				<technique profile="NVIDIA_FXCOMPOSER">
					<import url="hlsl/PositionOnly.fx" compiler_options="" profile="fx"/>
				</technique>
			</extra>
		</effect>
	</library_effects>
	<library_materials>
		<material id="Material1" name="UntexturedPlain_Material">
			<instance_effect url="#Effect6">
				<technique_hint platform="PC-D3D" ref="main"/>
				<setparam ref="g_world">
					<float4x4>0.730969 0 -0.682411 -0.399621 0 1 0 -0.0733626 0.682411 0 0.730969 0.310918 0 0 0 1</float4x4>
				</setparam>
				<setparam ref="g_worldInverseTranspose">
					<float4x4>0.730969 0 -0.682411 0 0 1 0 0 0.682411 0 0.730969 0 0.0799367 0.0733626 -0.499977 1</float4x4>
				</setparam>
				<setparam ref="g_worldViewProjection">
					<float4x4>-2.86315 0.412653 -2.26391 -0.100559 0.821886 -2.19151 -1.43889 -1.20998 0.644175 0.693491 -0.688278 4.59759 0.550433 0.592572 -0.588117 5.38179</float4x4>
				</setparam>
				<setparam ref="g_ambientMaterial">
					<float4>1 1 1 1</float4>
				</setparam>
				<setparam ref="g_diffuseMaterial">
					<float4>0.155041 0.123797 0.5 1</float4>
				</setparam>
				<setparam ref="g_specularMaterial">
					<float4>1 1 1 1</float4>
				</setparam>
				<setparam ref="g_ambientLight">
					<float4>0.1 0.1 0.1 1</float4>
				</setparam>
				<setparam ref="g_diffuseLight">
					<float4>1 1 1 1</float4>
				</setparam>
				<setparam ref="g_specularLight">
					<float4>1 1 1 1</float4>
				</setparam>
				<setparam ref="g_specularPower">
					<float>0.75</float>
				</setparam>
				<setparam ref="g_lightDirectionW">
					<float3>0 0 1</float3>
				</setparam>
				<setparam ref="g_eyePosW">
					<float3>0 1 -2</float3>
				</setparam>
			</instance_effect>
		</material>
	</library_materials>
	<library_geometries>
		<geometry id="Sphere1" name="Sphere">
			<mesh>
				<source id="FXStream11" name="FXStream">
					<float_array id="FXStream11-array" count="2268">0 -1 0 0 -1 0 0 -1 0 0 -1 0 0 -1 0 0 -1 0 0 -1 0 0 -1 0 0 -1 0 0 -1 0 0 -1 0 0 -1 0 0 -1 0 -0 -1 -0 -0 -1 -0 -0 -1 -0 -0 -1 -0 -0 -1 -0 -0 -1 -0 -0 -1 -0 0 -1 0 0 -1 0 0 -1 0 0 -1 0 0 -1 0 0 -1 0 0 -1 0 0.116093 -0.993238 0 0.112719 -0.993238 0.0277828 0.102795 -0.993238 0.0539509 0.0868966 -0.993238 0.0769837 0.0659481 -0.993238 0.0955424 0.041167 -0.993238 0.108549 0.0139934 -0.993238 0.115246 -0.0139934 -0.993238 0.115246 -0.041167 -0.993238 0.108549 -0.0659481 -0.993238 0.0955424 -0.0868966 -0.993238 0.0769837 -0.102795 -0.993238 0.0539509 -0.112719 -0.993238 0.0277828 -0.116093 -0.993238 -1.01491e-008 -0.112719 -0.993238 -0.0277828 -0.102795 -0.993238 -0.053951 -0.0868966 -0.993238 -0.0769837 -0.0659481 -0.993238 -0.0955424 -0.041167 -0.993238 -0.108549 -0.0139934 -0.993238 -0.115246 0.0139934 -0.993238 -0.115246 0.041167 -0.993238 -0.108549 0.0659482 -0.993238 -0.0955424 0.0868966 -0.993238 -0.0769837 0.102795 -0.993238 -0.0539509 0.112719 -0.993238 -0.0277828 0.116093 -0.993238 2.02983e-008 0.230616 -0.973045 0 0.223915 -0.973045 0.05519 0.2042 -0.973045 0.107173 0.172618 -0.973045 0.152927 0.131005 -0.973045 0.189793 0.0817775 -0.973045 0.21563 0.0277977 -0.973045 0.228934 -0.0277977 -0.973045 0.228934 -0.0817775 -0.973045 0.21563 -0.131005 -0.973045 0.189793 -0.172618 -0.973045 0.152927 -0.2042 -0.973045 0.107173 -0.223915 -0.973045 0.05519 -0.230616 -0.973045 -2.01611e-008 -0.223915 -0.973045 -0.05519 -0.2042 -0.973045 -0.107173 -0.172618 -0.973045 -0.152927 -0.131005 -0.973045 -0.189793 -0.0817775 -0.973045 -0.21563 -0.0277977 -0.973045 -0.228934 0.0277977 -0.973045 -0.228934 0.0817775 -0.973045 -0.21563 0.131005 -0.973045 -0.189793 0.172618 -0.973045 -0.152927 0.2042 -0.973045 -0.107173 0.223915 -0.973045 -0.05519 0.230616 -0.973045 4.03222e-008 0.34202 -0.939693 0 0.332082 -0.939693 0.0818508 0.302844 -0.939693 0.158945 0.256006 -0.939693 0.226801 0.19429 -0.939693 0.281477 0.121282 -0.939693 0.319794 0.041226 -0.939693 0.339526 -0.041226 -0.939693 0.339526 -0.121282 -0.939693 0.319794 -0.19429 -0.939693 0.281477 -0.256006 -0.939693 0.226801 -0.302844 -0.939693 0.158945 -0.332082 -0.939693 0.0818508 -0.34202 -0.939693 -2.99004e-008 -0.332082 -0.939693 -0.0818508 -0.302844 -0.939693 -0.158945 -0.256006 -0.939693 -0.226801 -0.19429 -0.939693 -0.281477 -0.121282 -0.939693 -0.319794 -0.041226 -0.939693 -0.339526 0.041226 -0.939693 -0.339526 0.121282 -0.939693 -0.319794 0.19429 -0.939693 -0.281477 0.256006 -0.939693 -0.226801 0.302844 -0.939693 -0.158945 0.332082 -0.939693 -0.0818508 0.34202 -0.939693 5.98007e-008 0.448799 -0.893633 0 0.435758 -0.893633 0.107405 0.397392 -0.893633 0.208567 0.335931 -0.893633 0.297609 0.254947 -0.893633 0.369354 0.159146 -0.893633 0.419634 0.0540968 -0.893633 0.445527 -0.0540968 -0.893633 0.445527 -0.159146 -0.893633 0.419634 -0.254947 -0.893633 0.369354 -0.335931 -0.893633 0.297609 -0.397392 -0.893633 0.208567 -0.435758 -0.893633 0.107405 -0.448799 -0.893633 -3.92353e-008 -0.435758 -0.893633 -0.107405 -0.397392 -0.893633 -0.208567 -0.335931 -0.893633 -0.297609 -0.254947 -0.893633 -0.369354 -0.159146 -0.893633 -0.419634 -0.0540968 -0.893633 -0.445527 0.0540968 -0.893633 -0.445527 0.159146 -0.893633 -0.419634 0.254947 -0.893633 -0.369354 0.335931 -0.893633 -0.297609 0.397392 -0.893633 -0.208567 0.435758 -0.893633 -0.107405 0.448799 -0.893633 7.84705e-008 0.549509 -0.835488 0 0.533541 -0.835488 0.131506 0.486566 -0.835488 0.25537 0.411313 -0.835488 0.364392 0.312157 -0.835488 0.452237 0.194859 -0.835488 0.5138 0.066236 -0.835488 0.545502 -0.066236 -0.835488 0.545502 -0.194859 -0.835488 0.5138 -0.312157 -0.835488 0.452237 -0.411313 -0.835488 0.364392 -0.486566 -0.835488 0.255369 -0.533541 -0.835488 0.131506 -0.549509 -0.835488 -4.80396e-008 -0.533541 -0.835488 -0.131506 -0.486566 -0.835488 -0.25537 -0.411313 -0.835488 -0.364392 -0.312157 -0.835488 -0.452237 -0.194859 -0.835488 -0.5138 -0.066236 -0.835488 -0.545502 0.066236 -0.835488 -0.545502 0.194859 -0.835488 -0.5138 0.312157 -0.835488 -0.452237 0.411313 -0.835488 -0.364392 0.486566 -0.835488 -0.25537 0.533541 -0.835488 -0.131506 0.549509 -0.835488 9.60792e-008 0.642788 -0.766044 0 0.624109 -0.766044 0.153829 0.56916 -0.766044 0.298718 0.481133 -0.766044 0.426247 0.365145 -0.766044 0.529004 0.227936 -0.766044 0.601017 0.0774795 -0.766044 0.638101 -0.0774795 -0.766044 0.638101 -0.227936 -0.766044 0.601017 -0.365145 -0.766044 0.529004 -0.481133 -0.766044 0.426247 -0.56916 -0.766044 0.298718 -0.624109 -0.766044 0.153829 -0.642788 -0.766044 -5.61943e-008 -0.624109 -0.766044 -0.153829 -0.56916 -0.766044 -0.298718 -0.481133 -0.766044 -0.426247 -0.365145 -0.766044 -0.529004 -0.227936 -0.766044 -0.601017 -0.0774795 -0.766044 -0.638101 0.0774795 -0.766044 -0.638101 0.227936 -0.766044 -0.601017 0.365145 -0.766044 -0.529004 0.481133 -0.766044 -0.426247 0.56916 -0.766044 -0.298718 0.624109 -0.766044 -0.153829 0.642788 -0.766044 1.12389e-007 0.727374 -0.686242 0 0.706237 -0.686242 0.174072 0.644057 -0.686242 0.338027 0.544447 -0.686242 0.482338 0.413195 -0.686242 0.598617 0.25793 -0.686242 0.680106 0.0876752 -0.686242 0.72207 -0.0876753 -0.686242 0.72207 -0.25793 -0.686242 0.680106 -0.413195 -0.686242 0.598617 -0.544447 -0.686242 0.482338 -0.644057 -0.686242 0.338027 -0.706237 -0.686242 0.174072 -0.727374 -0.686242 -6.3589e-008 -0.706237 -0.686242 -0.174072 -0.644057 -0.686242 -0.338027 -0.544447 -0.686242 -0.482338 -0.413195 -0.686242 -0.598617 -0.25793 -0.686242 -0.680106 -0.0876752 -0.686242 -0.72207 0.0876753 -0.686242 -0.72207 0.25793 -0.686242 -0.680106 0.413195 -0.686242 -0.598617 0.544447 -0.686242 -0.482338 0.644057 -0.686242 -0.338027 0.706237 -0.686242 -0.174072 0.727374 -0.686242 1.27178e-007 0.802123 -0.597159 0 0.778815 -0.597159 0.191961 0.710245 -0.597159 0.372765 0.600398 -0.597159 0.531906 0.455658 -0.597159 0.660134 0.284437 -0.597159 0.749998 0.0966853 -0.597159 0.796275 -0.0966853 -0.597159 0.796275 -0.284437 -0.597159 0.749998 -0.455658 -0.597159 0.660134 -0.600398 -0.597159 0.531906 -0.710245 -0.597159 0.372765 -0.778815 -0.597159 0.191961 -0.802123 -0.597159 -7.01238e-008 -0.778815 -0.597159 -0.191961 -0.710245 -0.597159 -0.372765 -0.600398 -0.597159 -0.531906 -0.455658 -0.597159 -0.660135 -0.284437 -0.597159 -0.749998 -0.0966853 -0.597159 -0.796275 0.0966853 -0.597159 -0.796275 0.284437 -0.597159 -0.749998 0.455658 -0.597159 -0.660134 0.600398 -0.597159 -0.531906 0.710245 -0.597159 -0.372765 0.778815 -0.597159 -0.191961 0.802123 -0.597159 1.40248e-007 0.866025 -0.5 0 0.84086 -0.5 0.207253 0.766827 -0.5 0.402462 0.648229 -0.5 0.574281 0.491958 -0.5 0.712725 0.307097 -0.5 0.809748 0.104388 -0.5 0.859711 -0.104388 -0.5 0.859711 -0.307097 -0.5 0.809748 -0.491958 -0.5 0.712725 -0.648229 -0.5 0.574281 -0.766827 -0.5 0.402462 -0.84086 -0.5 0.207253 -0.866025 -0.5 -7.57103e-008 -0.84086 -0.5 -0.207254 -0.766827 -0.5 -0.402462 -0.648229 -0.5 -0.574281 -0.491958 -0.5 -0.712725 -0.307097 -0.5 -0.809748 -0.104388 -0.5 -0.859711 0.104388 -0.5 -0.859711 0.307097 -0.5 -0.809748 0.491959 -0.5 -0.712725 0.648229 -0.5 -0.574281 0.766827 -0.5 -0.402462 0.84086 -0.5 -0.207253 0.866025 -0.5 1.51421e-007 0.918216 -0.39608 0 0.891534 -0.39608 0.219744 0.81304 -0.39608 0.426716 0.687295 -0.39608 0.60889 0.521606 -0.39608 0.755677 0.325604 -0.39608 0.858547 0.110679 -0.39608 0.911521 -0.110679 -0.39608 0.911521 -0.325604 -0.39608 0.858547 -0.521606 -0.39608 0.755677 -0.687295 -0.39608 0.60889 -0.81304 -0.39608 0.426716 -0.891534 -0.39608 0.219744 -0.918216 -0.39608 -8.0273e-008 -0.891534 -0.39608 -0.219744 -0.81304 -0.39608 -0.426716 -0.687295 -0.39608 -0.60889 -0.521606 -0.39608 -0.755677 -0.325604 -0.39608 -0.858547 -0.110679 -0.39608 -0.911521 0.110679 -0.39608 -0.911521 0.325604 -0.39608 -0.858547 0.521606 -0.39608 -0.755677 0.687295 -0.39608 -0.60889 0.81304 -0.39608 -0.426716 0.891534 -0.39608 -0.219743 0.918216 -0.39608 1.60546e-007 0.95799 -0.286803 0 0.930152 -0.286803 0.229262 0.848258 -0.286803 0.4452 0.717065 -0.286803 0.635265 0.5442 -0.286803 0.78841 0.339708 -0.286803 0.895736 0.115473 -0.286803 0.951005 -0.115473 -0.286803 0.951005 -0.339708 -0.286803 0.895736 -0.5442 -0.286803 0.78841 -0.717065 -0.286803 0.635265 -0.848258 -0.286803 0.4452 -0.930152 -0.286803 0.229262 -0.95799 -0.286803 -8.37501e-008 -0.930152 -0.286803 -0.229262 -0.848258 -0.286803 -0.4452 -0.717065 -0.286803 -0.635265 -0.5442 -0.286803 -0.78841 -0.339708 -0.286803 -0.895736 -0.115473 -0.286803 -0.951005 0.115473 -0.286803 -0.951005 0.339708 -0.286803 -0.895736 0.5442 -0.286803 -0.78841 0.717065 -0.286803 -0.635265 0.848258 -0.286803 -0.4452 0.930152 -0.286803 -0.229262 0.95799 -0.286803 1.675e-007 0.984808 -0.173648 0 0.956191 -0.173648 0.23568 0.872004 -0.173648 0.457663 0.737139 -0.173648 0.653048 0.559435 -0.173648 0.810481 0.349218 -0.173648 0.920811 0.118705 -0.173648 0.977627 -0.118706 -0.173648 0.977627 -0.349218 -0.173648 0.920811 -0.559434 -0.173648 0.810481 -0.737139 -0.173648 0.653048 -0.872004 -0.173648 0.457663 -0.956191 -0.173648 0.23568 -0.984808 -0.173648 -8.60946e-008 -0.956191 -0.173648 -0.23568 -0.872004 -0.173648 -0.457663 -0.737139 -0.173648 -0.653048 -0.559434 -0.173648 -0.810481 -0.349218 -0.173648 -0.920811 -0.118705 -0.173648 -0.977627 0.118706 -0.173648 -0.977627 0.349218 -0.173648 -0.920811 0.559435 -0.173648 -0.810481 0.737139 -0.173648 -0.653048 0.872004 -0.173648 -0.457663 0.956191 -0.173648 -0.23568 0.984808 -0.173648 1.72189e-007 0.998308 -0.0581448 0 0.969299 -0.0581448 0.238911 0.883958 -0.0581448 0.463937 0.747244 -0.0581448 0.662001 0.567104 -0.0581448 0.821591 0.354005 -0.0581448 0.933434 0.120333 -0.0581448 0.991029 -0.120333 -0.0581448 0.991029 -0.354005 -0.0581448 0.933434 -0.567104 -0.0581448 0.821591 -0.747244 -0.0581448 0.662001 -0.883958 -0.0581448 0.463937 -0.969299 -0.0581448 0.238911 -0.998308 -0.0581448 -8.72749e-008 -0.969299 -0.0581448 -0.238911 -0.883958 -0.0581448 -0.463937 -0.747244 -0.0581448 -0.662001 -0.567103 -0.0581448 -0.821592 -0.354005 -0.0581448 -0.933434 -0.120333 -0.0581448 -0.991029 0.120333 -0.0581448 -0.991029 0.354005 -0.0581448 -0.933434 0.567104 -0.0581448 -0.821591 0.747244 -0.0581448 -0.662001 0.883958 -0.0581448 -0.463937 0.969299 -0.0581448 -0.238911 0.998308 -0.0581448 1.7455e-007 0.998308 0.0581449 0 0.969299 0.0581449 0.238911 0.883958 0.0581449 0.463937 0.747244 0.0581449 0.662001 0.567104 0.0581449 0.821591 0.354005 0.0581449 0.933434 0.120333 0.0581449 0.991029 -0.120333 0.0581449 0.991029 -0.354005 0.0581449 0.933434 -0.567104 0.0581449 0.821591 -0.747244 0.0581449 0.662001 -0.883958 0.0581449 0.463937 -0.969299 0.0581449 0.238911 -0.998308 0.0581449 -8.72749e-008 -0.969299 0.0581449 -0.238911 -0.883958 0.0581449 -0.463937 -0.747244 0.0581449 -0.662001 -0.567103 0.0581449 -0.821592 -0.354005 0.0581449 -0.933434 -0.120333 0.0581449 -0.991029 0.120333 0.0581449 -0.991029 0.354005 0.0581449 -0.933434 0.567104 0.0581449 -0.821591 0.747244 0.0581449 -0.662001 0.883958 0.0581449 -0.463937 0.969299 0.0581449 -0.238911 0.998308 0.0581449 1.7455e-007 0.984808 0.173648 0 0.956191 0.173648 0.23568 0.872004 0.173648 0.457663 0.737139 0.173648 0.653048 0.559435 0.173648 0.810481 0.349218 0.173648 0.920811 0.118705 0.173648 0.977627 -0.118706 0.173648 0.977627 -0.349218 0.173648 0.920811 -0.559434 0.173648 0.810481 -0.737139 0.173648 0.653048 -0.872004 0.173648 0.457663 -0.956191 0.173648 0.23568 -0.984808 0.173648 -8.60946e-008 -0.956191 0.173648 -0.23568 -0.872004 0.173648 -0.457663 -0.737139 0.173648 -0.653048 -0.559434 0.173648 -0.810481 -0.349218 0.173648 -0.920811 -0.118705 0.173648 -0.977627 0.118706 0.173648 -0.977627 0.349218 0.173648 -0.920811 0.559435 0.173648 -0.810481 0.737139 0.173648 -0.653048 0.872004 0.173648 -0.457663 0.956191 0.173648 -0.23568 0.984808 0.173648 1.72189e-007 0.95799 0.286803 0 0.930152 0.286803 0.229262 0.848258 0.286803 0.4452 0.717065 0.286803 0.635265 0.5442 0.286803 0.78841 0.339708 0.286803 0.895736 0.115473 0.286803 0.951005 -0.115473 0.286803 0.951005 -0.339708 0.286803 0.895736 -0.5442 0.286803 0.78841 -0.717065 0.286803 0.635265 -0.848258 0.286803 0.4452 -0.930152 0.286803 0.229262 -0.95799 0.286803 -8.37501e-008 -0.930152 0.286803 -0.229262 -0.848258 0.286803 -0.4452 -0.717065 0.286803 -0.635265 -0.5442 0.286803 -0.78841 -0.339708 0.286803 -0.895736 -0.115473 0.286803 -0.951005 0.115473 0.286803 -0.951005 0.339708 0.286803 -0.895736 0.5442 0.286803 -0.78841 0.717065 0.286803 -0.635265 0.848258 0.286803 -0.4452 0.930152 0.286803 -0.229262 0.95799 0.286803 1.675e-007 0.918216 0.39608 0 0.891534 0.39608 0.219744 0.81304 0.39608 0.426716 0.687295 0.39608 0.60889 0.521606 0.39608 0.755677 0.325604 0.39608 0.858547 0.110679 0.39608 0.911521 -0.110679 0.39608 0.911521 -0.325604 0.39608 0.858547 -0.521606 0.39608 0.755677 -0.687295 0.39608 0.60889 -0.81304 0.39608 0.426716 -0.891534 0.39608 0.219744 -0.918216 0.39608 -8.0273e-008 -0.891534 0.39608 -0.219744 -0.81304 0.39608 -0.426716 -0.687295 0.39608 -0.60889 -0.521606 0.39608 -0.755677 -0.325604 0.39608 -0.858547 -0.110679 0.39608 -0.911521 0.110679 0.39608 -0.911521 0.325604 0.39608 -0.858547 0.521606 0.39608 -0.755677 0.687295 0.39608 -0.60889 0.81304 0.39608 -0.426716 0.891534 0.39608 -0.219743 0.918216 0.39608 1.60546e-007 0.866025 0.5 0 0.84086 0.5 0.207253 0.766827 0.5 0.402462 0.648229 0.5 0.574281 0.491958 0.5 0.712725 0.307097 0.5 0.809748 0.104388 0.5 0.859711 -0.104388 0.5 0.859711 -0.307097 0.5 0.809748 -0.491958 0.5 0.712725 -0.648229 0.5 0.574281 -0.766827 0.5 0.402462 -0.84086 0.5 0.207253 -0.866025 0.5 -7.57103e-008 -0.84086 0.5 -0.207254 -0.766827 0.5 -0.402462 -0.648229 0.5 -0.574281 -0.491958 0.5 -0.712725 -0.307097 0.5 -0.809748 -0.104388 0.5 -0.859711 0.104388 0.5 -0.859711 0.307097 0.5 -0.809748 0.491959 0.5 -0.712725 0.648229 0.5 -0.574281 0.766827 0.5 -0.402462 0.84086 0.5 -0.207253 0.866025 0.5 1.51421e-007 0.802123 0.597158 0 0.778815 0.597158 0.191961 0.710245 0.597158 0.372765 0.600398 0.597158 0.531906 0.455658 0.597158 0.660134 0.284437 0.597158 0.749998 0.0966853 0.597158 0.796275 -0.0966853 0.597158 0.796275 -0.284437 0.597158 0.749998 -0.455658 0.597158 0.660134 -0.600398 0.597158 0.531906 -0.710245 0.597158 0.372765 -0.778815 0.597158 0.191961 -0.802123 0.597158 -7.01238e-008 -0.778815 0.597158 -0.191961 -0.710245 0.597158 -0.372765 -0.600398 0.597158 -0.531906 -0.455658 0.597158 -0.660135 -0.284437 0.597158 -0.749998 -0.0966853 0.597158 -0.796275 0.0966853 0.597158 -0.796275 0.284437 0.597158 -0.749998 0.455658 0.597158 -0.660134 0.600398 0.597158 -0.531906 0.710245 0.597158 -0.372765 0.778815 0.597158 -0.191961 0.802123 0.597158 1.40248e-007 0.727374 0.686242 0 0.706237 0.686242 0.174072 0.644057 0.686242 0.338027 0.544447 0.686242 0.482338 0.413195 0.686242 0.598617 0.25793 0.686242 0.680106 0.0876752 0.686242 0.72207 -0.0876753 0.686242 0.72207 -0.25793 0.686242 0.680106 -0.413195 0.686242 0.598617 -0.544447 0.686242 0.482338 -0.644057 0.686242 0.338027 -0.706237 0.686242 0.174072 -0.727374 0.686242 -6.3589e-008 -0.706237 0.686242 -0.174072 -0.644057 0.686242 -0.338027 -0.544447 0.686242 -0.482338 -0.413195 0.686242 -0.598617 -0.25793 0.686242 -0.680106 -0.0876752 0.686242 -0.72207 0.0876752 0.686242 -0.72207 0.25793 0.686242 -0.680106 0.413195 0.686242 -0.598617 0.544447 0.686242 -0.482338 0.644057 0.686242 -0.338027 0.706237 0.686242 -0.174072 0.727374 0.686242 1.27178e-007 0.642788 0.766045 0 0.624109 0.766045 0.153829 0.56916 0.766045 0.298718 0.481133 0.766045 0.426247 0.365145 0.766045 0.529004 0.227936 0.766045 0.601017 0.0774795 0.766045 0.638101 -0.0774795 0.766045 0.638101 -0.227936 0.766045 0.601017 -0.365145 0.766045 0.529004 -0.481133 0.766045 0.426247 -0.56916 0.766045 0.298718 -0.624109 0.766045 0.153829 -0.642788 0.766045 -5.61943e-008 -0.624109 0.766045 -0.153829 -0.56916 0.766045 -0.298718 -0.481133 0.766045 -0.426247 -0.365145 0.766045 -0.529004 -0.227936 0.766045 -0.601017 -0.0774795 0.766045 -0.638101 0.0774795 0.766045 -0.638101 0.227936 0.766045 -0.601017 0.365145 0.766045 -0.529004 0.481133 0.766045 -0.426247 0.56916 0.766045 -0.298718 0.624109 0.766045 -0.153829 0.642788 0.766045 1.12389e-007 0.549509 0.835488 0 0.533541 0.835488 0.131506 0.486566 0.835488 0.25537 0.411313 0.835488 0.364392 0.312157 0.835488 0.452237 0.194859 0.835488 0.5138 0.066236 0.835488 0.545502 -0.066236 0.835488 0.545502 -0.194859 0.835488 0.5138 -0.312157 0.835488 0.452237 -0.411313 0.835488 0.364392 -0.486566 0.835488 0.255369 -0.533541 0.835488 0.131506 -0.549509 0.835488 -4.80396e-008 -0.533541 0.835488 -0.131506 -0.486566 0.835488 -0.25537 -0.411313 0.835488 -0.364392 -0.312157 0.835488 -0.452237 -0.194859 0.835488 -0.5138 -0.066236 0.835488 -0.545502 0.066236 0.835488 -0.545502 0.194859 0.835488 -0.5138 0.312157 0.835488 -0.452237 0.411313 0.835488 -0.364392 0.486566 0.835488 -0.25537 0.533541 0.835488 -0.131506 0.549509 0.835488 9.60792e-008 0.448799 0.893633 0 0.435758 0.893633 0.107405 0.397392 0.893633 0.208567 0.335931 0.893633 0.297609 0.254947 0.893633 0.369354 0.159146 0.893633 0.419634 0.0540968 0.893633 0.445527 -0.0540968 0.893633 0.445527 -0.159146 0.893633 0.419634 -0.254947 0.893633 0.369354 -0.335931 0.893633 0.297609 -0.397392 0.893633 0.208567 -0.435758 0.893633 0.107405 -0.448799 0.893633 -3.92353e-008 -0.435758 0.893633 -0.107405 -0.397392 0.893633 -0.208567 -0.335931 0.893633 -0.297609 -0.254947 0.893633 -0.369355 -0.159146 0.893633 -0.419634 -0.0540968 0.893633 -0.445527 0.0540968 0.893633 -0.445527 0.159146 0.893633 -0.419634 0.254947 0.893633 -0.369354 0.335931 0.893633 -0.297609 0.397392 0.893633 -0.208567 0.435758 0.893633 -0.107405 0.448799 0.893633 7.84705e-008 0.34202 0.939693 0 0.332082 0.939693 0.0818508 0.302844 0.939693 0.158945 0.256006 0.939693 0.226801 0.19429 0.939693 0.281477 0.121282 0.939693 0.319795 0.041226 0.939693 0.339527 -0.041226 0.939693 0.339527 -0.121282 0.939693 0.319795 -0.19429 0.939693 0.281477 -0.256006 0.939693 0.226801 -0.302844 0.939693 0.158945 -0.332082 0.939693 0.0818508 -0.34202 0.939693 -2.99004e-008 -0.332082 0.939693 -0.0818509 -0.302844 0.939693 -0.158945 -0.256006 0.939693 -0.226801 -0.19429 0.939693 -0.281477 -0.121282 0.939693 -0.319795 -0.041226 0.939693 -0.339527 0.041226 0.939693 -0.339527 0.121282 0.939693 -0.319795 0.19429 0.939693 -0.281477 0.256006 0.939693 -0.226801 0.302844 0.939693 -0.158945 0.332082 0.939693 -0.0818508 0.34202 0.939693 5.98007e-008 0.230616 0.973045 0 0.223915 0.973045 0.05519 0.2042 0.973045 0.107173 0.172618 0.973045 0.152927 0.131005 0.973045 0.189793 0.0817775 0.973045 0.21563 0.0277977 0.973045 0.228934 -0.0277977 0.973045 0.228934 -0.0817775 0.973045 0.21563 -0.131005 0.973045 0.189793 -0.172618 0.973045 0.152927 -0.2042 0.973045 0.107173 -0.223915 0.973045 0.05519 -0.230616 0.973045 -2.01611e-008 -0.223915 0.973045 -0.05519 -0.2042 0.973045 -0.107173 -0.172618 0.973045 -0.152927 -0.131005 0.973045 -0.189793 -0.0817775 0.973045 -0.21563 -0.0277977 0.973045 -0.228934 0.0277977 0.973045 -0.228934 0.0817775 0.973045 -0.21563 0.131005 0.973045 -0.189793 0.172618 0.973045 -0.152927 0.2042 0.973045 -0.107173 0.223915 0.973045 -0.05519 0.230616 0.973045 4.03222e-008 0.116093 0.993238 0 0.112719 0.993238 0.0277828 0.102795 0.993238 0.0539509 0.0868966 0.993238 0.0769837 0.0659481 0.993238 0.0955424 0.041167 0.993238 0.108549 0.0139934 0.993238 0.115246 -0.0139934 0.993238 0.115246 -0.041167 0.993238 0.108549 -0.0659481 0.993238 0.0955424 -0.0868966 0.993238 0.0769837 -0.102795 0.993238 0.0539509 -0.112719 0.993238 0.0277828 -0.116093 0.993238 -1.01491e-008 -0.112719 0.993238 -0.0277828 -0.102795 0.993238 -0.053951 -0.0868966 0.993238 -0.0769837 -0.0659481 0.993238 -0.0955424 -0.041167 0.993238 -0.108549 -0.0139934 0.993238 -0.115246 0.0139934 0.993238 -0.115246 0.041167 0.993238 -0.108549 0.0659482 0.993238 -0.0955424 0.0868966 0.993238 -0.0769837 0.102795 0.993238 -0.0539509 0.112719 0.993238 -0.0277828 0.116093 0.993238 2.02983e-008 0 1 0 0 1 0 0 1 0 0 1 0 0 1 0 0 1 0 0 1 0 0 1 0 0 1 0 0 1 0 0 1 0 0 1 0 0 1 0 0 1 0 0 1 0 0 1 0 0 1 0 0 1 0 0 1 0 0 1 0 0 1 0 0 1 0 0 1 0 0 1 0 0 1 0 0 1 0 0 1 0</float_array>
					<technique_common>
						<accessor count="756" source="#FXStream11-array" stride="3">
							<param name="X" type="float"/>
							<param name="Y" type="float"/>
							<param name="Z" type="float"/>
						</accessor>
					</technique_common>
				</source>
				<source id="FXStream13" name="FXStream">
					<float_array id="FXStream13-array" count="2268">0 -1 0 0 -1 0 0 -1 0 0 -1 0 0 -1 0 0 -1 0 0 -1 0 0 -1 0 0 -1 0 0 -1 0 0 -1 0 0 -1 0 0 -1 0 -0 -1 -0 -0 -1 -0 -0 -1 -0 -0 -1 -0 -0 -1 -0 -0 -1 -0 -0 -1 -0 0 -1 0 0 -1 0 0 -1 0 0 -1 0 0 -1 0 0 -1 0 0 -1 0 0.116093 -0.993238 0 0.112719 -0.993238 0.0277828 0.102795 -0.993238 0.0539509 0.0868966 -0.993238 0.0769837 0.0659481 -0.993238 0.0955424 0.041167 -0.993238 0.108549 0.0139934 -0.993238 0.115246 -0.0139934 -0.993238 0.115246 -0.041167 -0.993238 0.108549 -0.0659481 -0.993238 0.0955424 -0.0868966 -0.993238 0.0769837 -0.102795 -0.993239 0.0539509 -0.112719 -0.993238 0.0277828 -0.116093 -0.993238 -1.01491e-008 -0.112719 -0.993238 -0.0277828 -0.102795 -0.993238 -0.053951 -0.0868966 -0.993238 -0.0769837 -0.0659481 -0.993238 -0.0955424 -0.041167 -0.993238 -0.108549 -0.0139934 -0.993238 -0.115246 0.0139934 -0.993238 -0.115246 0.041167 -0.993238 -0.108549 0.0659482 -0.993238 -0.0955424 0.0868966 -0.993238 -0.0769837 0.102795 -0.993238 -0.0539509 0.112719 -0.993238 -0.0277828 0.116093 -0.993238 2.02983e-008 0.230616 -0.973045 0 0.223915 -0.973045 0.05519 0.2042 -0.973045 0.107173 0.172618 -0.973045 0.152927 0.131005 -0.973045 0.189793 0.0817775 -0.973045 0.21563 0.0277977 -0.973045 0.228934 -0.0277977 -0.973045 0.228934 -0.0817775 -0.973045 0.21563 -0.131005 -0.973045 0.189793 -0.172618 -0.973045 0.152927 -0.2042 -0.973045 0.107173 -0.223915 -0.973045 0.05519 -0.230616 -0.973045 -2.01611e-008 -0.223915 -0.973045 -0.05519 -0.2042 -0.973045 -0.107173 -0.172618 -0.973045 -0.152927 -0.131005 -0.973045 -0.189793 -0.0817775 -0.973045 -0.21563 -0.0277977 -0.973045 -0.228934 0.0277977 -0.973045 -0.228934 0.0817775 -0.973045 -0.21563 0.131005 -0.973045 -0.189793 0.172618 -0.973045 -0.152927 0.2042 -0.973045 -0.107173 0.223915 -0.973045 -0.05519 0.230616 -0.973045 4.03222e-008 0.34202 -0.939693 0 0.332082 -0.939693 0.0818508 0.302844 -0.939693 0.158945 0.256006 -0.939693 0.226801 0.19429 -0.939693 0.281477 0.121282 -0.939693 0.319794 0.041226 -0.939693 0.339526 -0.041226 -0.939693 0.339526 -0.121282 -0.939693 0.319794 -0.19429 -0.939693 0.281477 -0.256006 -0.939693 0.226801 -0.302844 -0.939693 0.158945 -0.332082 -0.939693 0.0818508 -0.34202 -0.939693 -2.99004e-008 -0.332082 -0.939693 -0.0818508 -0.302844 -0.939693 -0.158945 -0.256006 -0.939693 -0.226801 -0.19429 -0.939693 -0.281477 -0.121282 -0.939693 -0.319794 -0.041226 -0.939693 -0.339526 0.041226 -0.939693 -0.339526 0.121282 -0.939693 -0.319794 0.19429 -0.939693 -0.281477 0.256006 -0.939693 -0.226801 0.302844 -0.939693 -0.158945 0.332082 -0.939693 -0.0818508 0.34202 -0.939693 5.98007e-008 0.448799 -0.893633 0 0.435758 -0.893633 0.107405 0.397392 -0.893633 0.208567 0.335931 -0.893633 0.297609 0.254947 -0.893633 0.369354 0.159146 -0.893633 0.419634 0.0540968 -0.893633 0.445527 -0.0540968 -0.893633 0.445527 -0.159146 -0.893633 0.419634 -0.254947 -0.893633 0.369354 -0.335931 -0.893633 0.297609 -0.397392 -0.893633 0.208567 -0.435758 -0.893633 0.107405 -0.448799 -0.893633 -3.92353e-008 -0.435758 -0.893633 -0.107405 -0.397392 -0.893633 -0.208567 -0.335931 -0.893633 -0.297609 -0.254947 -0.893633 -0.369354 -0.159146 -0.893633 -0.419634 -0.0540968 -0.893633 -0.445527 0.0540968 -0.893633 -0.445527 0.159146 -0.893633 -0.419634 0.254947 -0.893633 -0.369354 0.335931 -0.893633 -0.297609 0.397392 -0.893633 -0.208567 0.435758 -0.893633 -0.107405 0.448799 -0.893633 7.84705e-008 0.549509 -0.835488 0 0.533541 -0.835488 0.131506 0.486566 -0.835488 0.25537 0.411313 -0.835488 0.364392 0.312157 -0.835488 0.452237 0.194859 -0.835488 0.5138 0.066236 -0.835488 0.545502 -0.066236 -0.835488 0.545502 -0.194859 -0.835488 0.5138 -0.312157 -0.835488 0.452237 -0.411313 -0.835488 0.364392 -0.486566 -0.835488 0.255369 -0.533541 -0.835488 0.131506 -0.549509 -0.835488 -4.80396e-008 -0.533541 -0.835488 -0.131506 -0.486566 -0.835488 -0.25537 -0.411313 -0.835488 -0.364392 -0.312157 -0.835488 -0.452237 -0.194859 -0.835488 -0.5138 -0.066236 -0.835488 -0.545502 0.066236 -0.835488 -0.545502 0.194859 -0.835488 -0.5138 0.312157 -0.835488 -0.452237 0.411313 -0.835488 -0.364392 0.486566 -0.835488 -0.25537 0.533541 -0.835488 -0.131506 0.549509 -0.835488 9.60792e-008 0.642788 -0.766044 0 0.624109 -0.766044 0.153829 0.56916 -0.766045 0.298718 0.481133 -0.766045 0.426247 0.365145 -0.766044 0.529004 0.227936 -0.766045 0.601017 0.0774795 -0.766044 0.638101 -0.0774795 -0.766044 0.638101 -0.227936 -0.766045 0.601017 -0.365145 -0.766044 0.529004 -0.481133 -0.766045 0.426247 -0.56916 -0.766044 0.298718 -0.624109 -0.766044 0.153829 -0.642788 -0.766044 -5.61943e-008 -0.624109 -0.766044 -0.153829 -0.56916 -0.766045 -0.298718 -0.481133 -0.766044 -0.426247 -0.365145 -0.766044 -0.529004 -0.227936 -0.766044 -0.601017 -0.0774795 -0.766044 -0.638101 0.0774795 -0.766044 -0.638101 0.227936 -0.766044 -0.601017 0.365145 -0.766044 -0.529004 0.481133 -0.766044 -0.426247 0.56916 -0.766045 -0.298718 0.624109 -0.766044 -0.153829 0.642788 -0.766044 1.12389e-007 0.727374 -0.686242 0 0.706237 -0.686242 0.174072 0.644057 -0.686242 0.338027 0.544447 -0.686242 0.482338 0.413195 -0.686242 0.598617 0.25793 -0.686242 0.680106 0.0876752 -0.686242 0.72207 -0.0876753 -0.686242 0.72207 -0.25793 -0.686242 0.680106 -0.413195 -0.686242 0.598617 -0.544447 -0.686242 0.482338 -0.644057 -0.686242 0.338027 -0.706237 -0.686242 0.174072 -0.727374 -0.686242 -6.3589e-008 -0.706237 -0.686242 -0.174072 -0.644057 -0.686242 -0.338027 -0.544447 -0.686242 -0.482338 -0.413195 -0.686242 -0.598617 -0.25793 -0.686242 -0.680106 -0.0876752 -0.686242 -0.72207 0.0876753 -0.686242 -0.72207 0.25793 -0.686242 -0.680106 0.413195 -0.686242 -0.598617 0.544447 -0.686242 -0.482338 0.644057 -0.686242 -0.338027 0.706237 -0.686242 -0.174072 0.727374 -0.686242 1.27178e-007 0.802123 -0.597159 0 0.778815 -0.597159 0.191961 0.710245 -0.597159 0.372765 0.600398 -0.597159 0.531906 0.455658 -0.597159 0.660134 0.284437 -0.597159 0.749998 0.0966853 -0.597159 0.796275 -0.0966853 -0.597159 0.796275 -0.284437 -0.597159 0.749998 -0.455658 -0.597159 0.660134 -0.600398 -0.597159 0.531906 -0.710245 -0.597159 0.372765 -0.778815 -0.597159 0.191961 -0.802123 -0.597159 -7.01238e-008 -0.778815 -0.597159 -0.191961 -0.710245 -0.597159 -0.372765 -0.600398 -0.597159 -0.531906 -0.455658 -0.597159 -0.660135 -0.284437 -0.597159 -0.749998 -0.0966853 -0.597159 -0.796275 0.0966853 -0.597159 -0.796275 0.284437 -0.597159 -0.749998 0.455658 -0.597159 -0.660134 0.600398 -0.597159 -0.531906 0.710245 -0.597159 -0.372765 0.778815 -0.597159 -0.191961 0.802123 -0.597159 1.40248e-007 0.866025 -0.5 0 0.84086 -0.5 0.207253 0.766827 -0.5 0.402462 0.648229 -0.5 0.574281 0.491958 -0.5 0.712725 0.307097 -0.5 0.809748 0.104388 -0.5 0.859711 -0.104388 -0.5 0.859711 -0.307097 -0.5 0.809748 -0.491958 -0.5 0.712725 -0.648229 -0.5 0.574281 -0.766827 -0.5 0.402462 -0.84086 -0.5 0.207253 -0.866025 -0.5 -7.57103e-008 -0.84086 -0.5 -0.207254 -0.766827 -0.5 -0.402462 -0.648229 -0.5 -0.574281 -0.491958 -0.5 -0.712725 -0.307097 -0.5 -0.809748 -0.104388 -0.5 -0.859711 0.104388 -0.5 -0.859711 0.307097 -0.5 -0.809748 0.491959 -0.5 -0.712725 0.648229 -0.5 -0.574281 0.766827 -0.5 -0.402462 0.84086 -0.5 -0.207253 0.866025 -0.5 1.51421e-007 0.918216 -0.39608 0 0.891535 -0.39608 0.219744 0.81304 -0.39608 0.426716 0.687295 -0.39608 0.60889 0.521606 -0.39608 0.755677 0.325604 -0.39608 0.858547 0.110679 -0.39608 0.911521 -0.110679 -0.39608 0.911521 -0.325604 -0.39608 0.858547 -0.521606 -0.39608 0.755677 -0.687295 -0.39608 0.60889 -0.81304 -0.39608 0.426716 -0.891535 -0.39608 0.219744 -0.918216 -0.39608 -8.0273e-008 -0.891534 -0.39608 -0.219744 -0.81304 -0.39608 -0.426716 -0.687295 -0.39608 -0.60889 -0.521606 -0.39608 -0.755677 -0.325604 -0.39608 -0.858547 -0.110679 -0.39608 -0.911521 0.110679 -0.39608 -0.911521 0.325604 -0.39608 -0.858547 0.521606 -0.39608 -0.755677 0.687295 -0.39608 -0.60889 0.81304 -0.39608 -0.426716 0.891534 -0.39608 -0.219743 0.918216 -0.39608 1.60546e-007 0.95799 -0.286803 0 0.930152 -0.286803 0.229262 0.848258 -0.286803 0.4452 0.717065 -0.286803 0.635265 0.5442 -0.286803 0.78841 0.339708 -0.286803 0.895736 0.115473 -0.286803 0.951005 -0.115473 -0.286803 0.951005 -0.339708 -0.286803 0.895736 -0.5442 -0.286803 0.78841 -0.717066 -0.286803 0.635265 -0.848258 -0.286803 0.4452 -0.930152 -0.286803 0.229262 -0.95799 -0.286803 -8.37501e-008 -0.930152 -0.286803 -0.229262 -0.848258 -0.286803 -0.4452 -0.717065 -0.286803 -0.635265 -0.5442 -0.286803 -0.78841 -0.339708 -0.286803 -0.895736 -0.115473 -0.286803 -0.951005 0.115473 -0.286803 -0.951005 0.339708 -0.286803 -0.895736 0.5442 -0.286803 -0.78841 0.717065 -0.286803 -0.635265 0.848258 -0.286803 -0.4452 0.930152 -0.286803 -0.229262 0.95799 -0.286803 1.675e-007 0.984808 -0.173648 0 0.956191 -0.173648 0.23568 0.872004 -0.173648 0.457663 0.737139 -0.173648 0.653048 0.559435 -0.173648 0.810481 0.349218 -0.173648 0.920811 0.118705 -0.173648 0.977627 -0.118706 -0.173648 0.977627 -0.349218 -0.173648 0.920811 -0.559434 -0.173648 0.810481 -0.737139 -0.173648 0.653048 -0.872004 -0.173648 0.457663 -0.956191 -0.173648 0.23568 -0.984808 -0.173648 -8.60946e-008 -0.956191 -0.173648 -0.23568 -0.872004 -0.173648 -0.457663 -0.737139 -0.173648 -0.653048 -0.559434 -0.173648 -0.810481 -0.349218 -0.173648 -0.920811 -0.118705 -0.173648 -0.977627 0.118706 -0.173648 -0.977627 0.349218 -0.173648 -0.920811 0.559435 -0.173648 -0.810481 0.737139 -0.173648 -0.653048 0.872004 -0.173648 -0.457663 0.956191 -0.173648 -0.23568 0.984808 -0.173648 1.72189e-007 0.998308 -0.0581448 0 0.969299 -0.0581448 0.238911 0.883958 -0.0581448 0.463937 0.747244 -0.0581448 0.662001 0.567104 -0.0581448 0.821592 0.354005 -0.0581448 0.933434 0.120333 -0.0581448 0.991029 -0.120333 -0.0581448 0.991029 -0.354005 -0.0581448 0.933434 -0.567104 -0.0581448 0.821592 -0.747244 -0.0581448 0.662001 -0.883958 -0.0581448 0.463937 -0.969299 -0.0581448 0.238911 -0.998308 -0.0581448 -8.72749e-008 -0.969299 -0.0581448 -0.238911 -0.883958 -0.0581448 -0.463937 -0.747244 -0.0581448 -0.662001 -0.567104 -0.0581448 -0.821592 -0.354005 -0.0581448 -0.933434 -0.120333 -0.0581448 -0.991029 0.120333 -0.0581448 -0.991029 0.354005 -0.0581448 -0.933434 0.567104 -0.0581448 -0.821591 0.747244 -0.0581448 -0.662001 0.883958 -0.0581448 -0.463937 0.969299 -0.0581448 -0.238911 0.998308 -0.0581448 1.7455e-007 0.998308 0.0581449 0 0.969299 0.0581449 0.238911 0.883958 0.0581449 0.463937 0.747244 0.0581449 0.662001 0.567104 0.0581449 0.821592 0.354005 0.0581449 0.933434 0.120333 0.0581449 0.991029 -0.120333 0.0581449 0.991029 -0.354005 0.0581449 0.933434 -0.567104 0.0581449 0.821592 -0.747244 0.0581449 0.662001 -0.883958 0.0581449 0.463937 -0.969299 0.0581449 0.238911 -0.998308 0.0581449 -8.72749e-008 -0.969299 0.0581449 -0.238911 -0.883958 0.0581449 -0.463937 -0.747244 0.0581449 -0.662001 -0.567104 0.0581449 -0.821592 -0.354005 0.0581449 -0.933434 -0.120333 0.0581449 -0.991029 0.120333 0.0581449 -0.991029 0.354005 0.0581449 -0.933434 0.567104 0.0581449 -0.821591 0.747244 0.0581449 -0.662001 0.883958 0.0581449 -0.463937 0.969299 0.0581449 -0.238911 0.998308 0.0581449 1.7455e-007 0.984808 0.173648 0 0.956191 0.173648 0.23568 0.872004 0.173648 0.457663 0.737139 0.173648 0.653048 0.559435 0.173648 0.810481 0.349218 0.173648 0.920811 0.118705 0.173648 0.977627 -0.118706 0.173648 0.977627 -0.349218 0.173648 0.920811 -0.559435 0.173648 0.810481 -0.737139 0.173648 0.653048 -0.872004 0.173648 0.457663 -0.956191 0.173648 0.23568 -0.984808 0.173648 -8.60946e-008 -0.956191 0.173648 -0.23568 -0.872004 0.173648 -0.457663 -0.737139 0.173648 -0.653048 -0.559434 0.173648 -0.810481 -0.349218 0.173648 -0.920811 -0.118705 0.173648 -0.977627 0.118706 0.173648 -0.977627 0.349218 0.173648 -0.920811 0.559435 0.173648 -0.810481 0.737139 0.173648 -0.653048 0.872004 0.173648 -0.457663 0.956191 0.173648 -0.23568 0.984808 0.173648 1.72189e-007 0.95799 0.286803 0 0.930152 0.286803 0.229262 0.848258 0.286803 0.4452 0.717065 0.286803 0.635265 0.5442 0.286803 0.78841 0.339708 0.286803 0.895736 0.115473 0.286803 0.951005 -0.115473 0.286803 0.951005 -0.339708 0.286803 0.895736 -0.5442 0.286803 0.78841 -0.717066 0.286803 0.635265 -0.848258 0.286803 0.4452 -0.930152 0.286803 0.229262 -0.95799 0.286803 -8.37501e-008 -0.930152 0.286803 -0.229262 -0.848258 0.286803 -0.4452 -0.717065 0.286803 -0.635265 -0.5442 0.286803 -0.78841 -0.339708 0.286803 -0.895736 -0.115473 0.286803 -0.951005 0.115473 0.286803 -0.951005 0.339708 0.286803 -0.895736 0.5442 0.286803 -0.78841 0.717065 0.286803 -0.635265 0.848258 0.286803 -0.4452 0.930152 0.286803 -0.229262 0.95799 0.286803 1.675e-007 0.918216 0.39608 0 0.891535 0.39608 0.219744 0.81304 0.39608 0.426716 0.687295 0.39608 0.60889 0.521606 0.39608 0.755677 0.325604 0.39608 0.858547 0.110679 0.39608 0.911521 -0.110679 0.39608 0.911521 -0.325604 0.39608 0.858547 -0.521606 0.39608 0.755677 -0.687295 0.39608 0.60889 -0.81304 0.39608 0.426716 -0.891535 0.39608 0.219744 -0.918216 0.39608 -8.0273e-008 -0.891534 0.39608 -0.219744 -0.81304 0.39608 -0.426716 -0.687295 0.39608 -0.60889 -0.521606 0.39608 -0.755677 -0.325604 0.39608 -0.858547 -0.110679 0.39608 -0.911521 0.110679 0.39608 -0.911521 0.325604 0.39608 -0.858547 0.521606 0.39608 -0.755677 0.687295 0.39608 -0.60889 0.81304 0.39608 -0.426716 0.891534 0.39608 -0.219743 0.918216 0.39608 1.60546e-007 0.866025 0.5 0 0.84086 0.5 0.207253 0.766827 0.5 0.402462 0.648229 0.5 0.574281 0.491958 0.5 0.712725 0.307097 0.5 0.809748 0.104388 0.5 0.859711 -0.104388 0.5 0.859711 -0.307097 0.5 0.809748 -0.491958 0.5 0.712725 -0.648229 0.5 0.574281 -0.766827 0.5 0.402462 -0.84086 0.5 0.207253 -0.866025 0.5 -7.57103e-008 -0.84086 0.5 -0.207254 -0.766827 0.5 -0.402462 -0.648229 0.5 -0.574281 -0.491958 0.5 -0.712725 -0.307097 0.5 -0.809748 -0.104388 0.5 -0.859711 0.104388 0.5 -0.859711 0.307097 0.5 -0.809748 0.491959 0.5 -0.712725 0.648229 0.5 -0.574281 0.766827 0.5 -0.402462 0.84086 0.5 -0.207253 0.866025 0.5 1.51421e-007 0.802123 0.597159 0 0.778815 0.597158 0.191961 0.710245 0.597159 0.372765 0.600398 0.597158 0.531906 0.455658 0.597159 0.660135 0.284437 0.597158 0.749998 0.0966853 0.597159 0.796275 -0.0966853 0.597158 0.796275 -0.284437 0.597158 0.749998 -0.455658 0.597159 0.660135 -0.600398 0.597159 0.531906 -0.710245 0.597159 0.372765 -0.778815 0.597158 0.191961 -0.802123 0.597159 -7.01239e-008 -0.778815 0.597158 -0.191961 -0.710245 0.597159 -0.372765 -0.600398 0.597158 -0.531906 -0.455658 0.597158 -0.660135 -0.284437 0.597159 -0.749998 -0.0966853 0.597159 -0.796275 0.0966853 0.597158 -0.796275 0.284437 0.597159 -0.749998 0.455658 0.597158 -0.660134 0.600398 0.597158 -0.531906 0.710245 0.597159 -0.372765 0.778815 0.597158 -0.191961 0.802123 0.597159 1.40248e-007 0.727374 0.686242 0 0.706237 0.686242 0.174072 0.644057 0.686242 0.338027 0.544447 0.686242 0.482338 0.413195 0.686242 0.598617 0.25793 0.686242 0.680106 0.0876752 0.686242 0.72207 -0.0876753 0.686242 0.72207 -0.25793 0.686242 0.680106 -0.413195 0.686242 0.598617 -0.544447 0.686242 0.482338 -0.644057 0.686242 0.338027 -0.706237 0.686242 0.174072 -0.727374 0.686242 -6.3589e-008 -0.706237 0.686242 -0.174072 -0.644057 0.686242 -0.338027 -0.544447 0.686242 -0.482338 -0.413195 0.686242 -0.598617 -0.25793 0.686242 -0.680106 -0.0876752 0.686242 -0.72207 0.0876752 0.686242 -0.72207 0.25793 0.686242 -0.680106 0.413195 0.686242 -0.598617 0.544447 0.686242 -0.482338 0.644057 0.686242 -0.338027 0.706237 0.686242 -0.174072 0.727374 0.686242 1.27178e-007 0.642788 0.766045 0 0.624109 0.766045 0.153829 0.56916 0.766045 0.298718 0.481133 0.766045 0.426247 0.365145 0.766045 0.529004 0.227936 0.766045 0.601017 0.0774795 0.766045 0.638101 -0.0774795 0.766045 0.638101 -0.227936 0.766045 0.601017 -0.365145 0.766045 0.529004 -0.481133 0.766045 0.426247 -0.56916 0.766045 0.298718 -0.624109 0.766045 0.153829 -0.642788 0.766045 -5.61943e-008 -0.624109 0.766045 -0.153829 -0.56916 0.766045 -0.298718 -0.481133 0.766045 -0.426247 -0.365145 0.766045 -0.529004 -0.227936 0.766045 -0.601017 -0.0774795 0.766045 -0.638101 0.0774795 0.766045 -0.638101 0.227936 0.766045 -0.601017 0.365145 0.766045 -0.529004 0.481133 0.766045 -0.426247 0.56916 0.766045 -0.298718 0.624109 0.766045 -0.153829 0.642788 0.766045 1.12389e-007 0.549509 0.835488 0 0.533541 0.835488 0.131506 0.486566 0.835488 0.25537 0.411313 0.835488 0.364392 0.312157 0.835488 0.452237 0.194859 0.835488 0.5138 0.066236 0.835488 0.545502 -0.066236 0.835488 0.545502 -0.194859 0.835488 0.5138 -0.312157 0.835488 0.452237 -0.411313 0.835488 0.364392 -0.486566 0.835488 0.255369 -0.533541 0.835488 0.131506 -0.549509 0.835488 -4.80396e-008 -0.533541 0.835488 -0.131506 -0.486566 0.835488 -0.25537 -0.411313 0.835488 -0.364392 -0.312157 0.835488 -0.452237 -0.194859 0.835488 -0.5138 -0.066236 0.835488 -0.545502 0.066236 0.835488 -0.545502 0.194859 0.835488 -0.5138 0.312157 0.835488 -0.452237 0.411313 0.835488 -0.364392 0.486566 0.835488 -0.25537 0.533541 0.835488 -0.131506 0.549509 0.835488 9.60792e-008 0.448799 0.893633 0 0.435758 0.893633 0.107405 0.397392 0.893633 0.208567 0.335931 0.893633 0.297609 0.254947 0.893633 0.369354 0.159146 0.893633 0.419634 0.0540968 0.893633 0.445527 -0.0540968 0.893633 0.445527 -0.159146 0.893633 0.419634 -0.254947 0.893633 0.369354 -0.335931 0.893633 0.297609 -0.397392 0.893633 0.208567 -0.435758 0.893633 0.107405 -0.448799 0.893633 -3.92353e-008 -0.435758 0.893633 -0.107405 -0.397392 0.893633 -0.208567 -0.335931 0.893633 -0.297609 -0.254947 0.893633 -0.369355 -0.159146 0.893633 -0.419634 -0.0540968 0.893633 -0.445527 0.0540968 0.893633 -0.445527 0.159146 0.893633 -0.419634 0.254947 0.893633 -0.369354 0.335931 0.893633 -0.297609 0.397392 0.893633 -0.208567 0.435758 0.893633 -0.107405 0.448799 0.893633 7.84705e-008 0.34202 0.939693 0 0.332082 0.939693 0.0818508 0.302844 0.939693 0.158945 0.256006 0.939693 0.226801 0.19429 0.939693 0.281477 0.121282 0.939693 0.319795 0.041226 0.939693 0.339527 -0.041226 0.939693 0.339527 -0.121282 0.939693 0.319795 -0.19429 0.939693 0.281477 -0.256006 0.939693 0.226801 -0.302844 0.939693 0.158945 -0.332082 0.939693 0.0818508 -0.34202 0.939693 -2.99004e-008 -0.332082 0.939693 -0.0818509 -0.302844 0.939693 -0.158945 -0.256006 0.939693 -0.226801 -0.19429 0.939693 -0.281477 -0.121282 0.939693 -0.319795 -0.041226 0.939693 -0.339527 0.041226 0.939693 -0.339527 0.121282 0.939693 -0.319795 0.19429 0.939693 -0.281477 0.256006 0.939693 -0.226801 0.302844 0.939693 -0.158945 0.332082 0.939693 -0.0818508 0.34202 0.939693 5.98007e-008 0.230616 0.973045 0 0.223915 0.973045 0.05519 0.2042 0.973045 0.107173 0.172618 0.973045 0.152927 0.131005 0.973045 0.189793 0.0817775 0.973045 0.21563 0.0277977 0.973045 0.228934 -0.0277977 0.973045 0.228934 -0.0817775 0.973045 0.21563 -0.131005 0.973045 0.189793 -0.172618 0.973045 0.152927 -0.2042 0.973045 0.107173 -0.223915 0.973045 0.05519 -0.230616 0.973045 -2.01611e-008 -0.223915 0.973045 -0.05519 -0.2042 0.973045 -0.107173 -0.172618 0.973045 -0.152927 -0.131005 0.973045 -0.189793 -0.0817775 0.973045 -0.21563 -0.0277977 0.973045 -0.228934 0.0277977 0.973045 -0.228934 0.0817775 0.973045 -0.21563 0.131005 0.973045 -0.189793 0.172618 0.973045 -0.152927 0.2042 0.973045 -0.107173 0.223915 0.973045 -0.05519 0.230616 0.973045 4.03222e-008 0.116093 0.993238 0 0.112719 0.993238 0.0277828 0.102795 0.993238 0.0539509 0.0868966 0.993238 0.0769837 0.0659481 0.993238 0.0955424 0.041167 0.993238 0.108549 0.0139934 0.993238 0.115246 -0.0139934 0.993238 0.115246 -0.041167 0.993238 0.108549 -0.0659481 0.993238 0.0955424 -0.0868966 0.993238 0.0769837 -0.102795 0.993239 0.0539509 -0.112719 0.993238 0.0277828 -0.116093 0.993238 -1.01491e-008 -0.112719 0.993238 -0.0277828 -0.102795 0.993238 -0.053951 -0.0868966 0.993238 -0.0769837 -0.0659481 0.993238 -0.0955424 -0.041167 0.993238 -0.108549 -0.0139934 0.993238 -0.115246 0.0139934 0.993238 -0.115246 0.041167 0.993238 -0.108549 0.0659482 0.993238 -0.0955424 0.0868966 0.993238 -0.0769837 0.102795 0.993238 -0.0539509 0.112719 0.993238 -0.0277828 0.116093 0.993238 2.02983e-008 0 1 0 0 1 0 0 1 0 0 1 0 0 1 0 0 1 0 0 1 0 0 1 0 0 1 0 0 1 0 0 1 0 0 1 0 0 1 0 0 1 0 0 1 0 0 1 0 0 1 0 0 1 0 0 1 0 0 1 0 0 1 0 0 1 0 0 1 0 0 1 0 0 1 0 0 1 0 0 1 0</float_array>
					<technique_common>
						<accessor count="756" source="#FXStream13-array" stride="3">
							<param name="X" type="float"/>
							<param name="Y" type="float"/>
							<param name="Z" type="float"/>
						</accessor>
					</technique_common>
				</source>
				<source id="FXStream12" name="FXStream">
					<float_array id="FXStream12-array" count="1512">1.01852 0 0.980057 0 0.941595 0 0.903134 0 0.864672 0 0.826211 0 0.787749 0 0.749288 0 0.710826 0 0.672365 0 0.633903 0 0.595442 0 0.55698 0 0.518519 0 0.480057 0 0.441595 0 0.403134 0 0.364672 0 0.326211 0 0.287749 0 0.249288 0 0.210826 0 0.172365 0 0.133903 0 0.0954416 0 0.0569801 0 0.0185185 0 1 0.037037 0.961538 0.037037 0.923077 0.037037 0.884615 0.037037 0.846154 0.037037 0.807692 0.037037 0.769231 0.037037 0.730769 0.037037 0.692308 0.037037 0.653846 0.037037 0.615385 0.037037 0.576923 0.037037 0.538462 0.037037 0.5 0.037037 0.461538 0.037037 0.423077 0.037037 0.384615 0.037037 0.346154 0.037037 0.307692 0.037037 0.269231 0.037037 0.230769 0.037037 0.192308 0.037037 0.153846 0.037037 0.115385 0.037037 0.0769231 0.037037 0.0384616 0.037037 0 0.037037 1 0.0740741 0.961538 0.0740741 0.923077 0.0740741 0.884615 0.0740741 0.846154 0.0740741 0.807692 0.0740741 0.769231 0.0740741 0.730769 0.0740741 0.692308 0.0740741 0.653846 0.0740741 0.615385 0.0740741 0.576923 0.0740741 0.538462 0.0740741 0.5 0.0740741 0.461538 0.0740741 0.423077 0.0740741 0.384615 0.0740741 0.346154 0.0740741 0.307692 0.0740741 0.269231 0.0740741 0.230769 0.0740741 0.192308 0.0740741 0.153846 0.0740741 0.115385 0.0740741 0.0769231 0.0740741 0.0384616 0.0740741 0 0.0740741 1 0.111111 0.961538 0.111111 0.923077 0.111111 0.884615 0.111111 0.846154 0.111111 0.807692 0.111111 0.769231 0.111111 0.730769 0.111111 0.692308 0.111111 0.653846 0.111111 0.615385 0.111111 0.576923 0.111111 0.538462 0.111111 0.5 0.111111 0.461538 0.111111 0.423077 0.111111 0.384615 0.111111 0.346154 0.111111 0.307692 0.111111 0.269231 0.111111 0.230769 0.111111 0.192308 0.111111 0.153846 0.111111 0.115385 0.111111 0.0769231 0.111111 0.0384616 0.111111 0 0.111111 1 0.148148 0.961538 0.148148 0.923077 0.148148 0.884615 0.148148 0.846154 0.148148 0.807692 0.148148 0.769231 0.148148 0.730769 0.148148 0.692308 0.148148 0.653846 0.148148 0.615385 0.148148 0.576923 0.148148 0.538462 0.148148 0.5 0.148148 0.461538 0.148148 0.423077 0.148148 0.384615 0.148148 0.346154 0.148148 0.307692 0.148148 0.269231 0.148148 0.230769 0.148148 0.192308 0.148148 0.153846 0.148148 0.115385 0.148148 0.0769231 0.148148 0.0384616 0.148148 0 0.148148 1 0.185185 0.961538 0.185185 0.923077 0.185185 0.884615 0.185185 0.846154 0.185185 0.807692 0.185185 0.769231 0.185185 0.730769 0.185185 0.692308 0.185185 0.653846 0.185185 0.615385 0.185185 0.576923 0.185185 0.538462 0.185185 0.5 0.185185 0.461538 0.185185 0.423077 0.185185 0.384615 0.185185 0.346154 0.185185 0.307692 0.185185 0.269231 0.185185 0.230769 0.185185 0.192308 0.185185 0.153846 0.185185 0.115385 0.185185 0.0769231 0.185185 0.0384616 0.185185 0 0.185185 1 0.222222 0.961538 0.222222 0.923077 0.222222 0.884615 0.222222 0.846154 0.222222 0.807692 0.222222 0.769231 0.222222 0.730769 0.222222 0.692308 0.222222 0.653846 0.222222 0.615385 0.222222 0.576923 0.222222 0.538462 0.222222 0.5 0.222222 0.461538 0.222222 0.423077 0.222222 0.384615 0.222222 0.346154 0.222222 0.307692 0.222222 0.269231 0.222222 0.230769 0.222222 0.192308 0.222222 0.153846 0.222222 0.115385 0.222222 0.0769231 0.222222 0.0384616 0.222222 0 0.222222 1 0.259259 0.961538 0.259259 0.923077 0.259259 0.884615 0.259259 0.846154 0.259259 0.807692 0.259259 0.769231 0.259259 0.730769 0.259259 0.692308 0.259259 0.653846 0.259259 0.615385 0.259259 0.576923 0.259259 0.538462 0.259259 0.5 0.259259 0.461538 0.259259 0.423077 0.259259 0.384615 0.259259 0.346154 0.259259 0.307692 0.259259 0.269231 0.259259 0.230769 0.259259 0.192308 0.259259 0.153846 0.259259 0.115385 0.259259 0.0769231 0.259259 0.0384616 0.259259 0 0.259259 1 0.296296 0.961538 0.296296 0.923077 0.296296 0.884615 0.296296 0.846154 0.296296 0.807692 0.296296 0.769231 0.296296 0.730769 0.296296 0.692308 0.296296 0.653846 0.296296 0.615385 0.296296 0.576923 0.296296 0.538462 0.296296 0.5 0.296296 0.461538 0.296296 0.423077 0.296296 0.384615 0.296296 0.346154 0.296296 0.307692 0.296296 0.269231 0.296296 0.230769 0.296296 0.192308 0.296296 0.153846 0.296296 0.115385 0.296296 0.0769231 0.296296 0.0384616 0.296296 0 0.296296 1 0.333333 0.961538 0.333333 0.923077 0.333333 0.884615 0.333333 0.846154 0.333333 0.807692 0.333333 0.769231 0.333333 0.730769 0.333333 0.692308 0.333333 0.653846 0.333333 0.615385 0.333333 0.576923 0.333333 0.538462 0.333333 0.5 0.333333 0.461538 0.333333 0.423077 0.333333 0.384615 0.333333 0.346154 0.333333 0.307692 0.333333 0.269231 0.333333 0.230769 0.333333 0.192308 0.333333 0.153846 0.333333 0.115385 0.333333 0.0769231 0.333333 0.0384616 0.333333 0 0.333333 1 0.37037 0.961538 0.37037 0.923077 0.37037 0.884615 0.37037 0.846154 0.37037 0.807692 0.37037 0.769231 0.37037 0.730769 0.37037 0.692308 0.37037 0.653846 0.37037 0.615385 0.37037 0.576923 0.37037 0.538462 0.37037 0.5 0.37037 0.461538 0.37037 0.423077 0.37037 0.384615 0.37037 0.346154 0.37037 0.307692 0.37037 0.269231 0.37037 0.230769 0.37037 0.192308 0.37037 0.153846 0.37037 0.115385 0.37037 0.0769231 0.37037 0.0384616 0.37037 0 0.37037 1 0.407407 0.961538 0.407407 0.923077 0.407407 0.884615 0.407407 0.846154 0.407407 0.807692 0.407407 0.769231 0.407407 0.730769 0.407407 0.692308 0.407407 0.653846 0.407407 0.615385 0.407407 0.576923 0.407407 0.538462 0.407407 0.5 0.407407 0.461538 0.407407 0.423077 0.407407 0.384615 0.407407 0.346154 0.407407 0.307692 0.407407 0.269231 0.407407 0.230769 0.407407 0.192308 0.407407 0.153846 0.407407 0.115385 0.407407 0.0769231 0.407407 0.0384616 0.407407 0 0.407407 1 0.444444 0.961538 0.444444 0.923077 0.444444 0.884615 0.444444 0.846154 0.444444 0.807692 0.444444 0.769231 0.444444 0.730769 0.444444 0.692308 0.444444 0.653846 0.444444 0.615385 0.444444 0.576923 0.444444 0.538462 0.444444 0.5 0.444444 0.461538 0.444444 0.423077 0.444444 0.384615 0.444444 0.346154 0.444444 0.307692 0.444444 0.269231 0.444444 0.230769 0.444444 0.192308 0.444444 0.153846 0.444444 0.115385 0.444444 0.0769231 0.444444 0.0384616 0.444444 0 0.444444 1 0.481481 0.961538 0.481481 0.923077 0.481481 0.884615 0.481481 0.846154 0.481481 0.807692 0.481481 0.769231 0.481481 0.730769 0.481481 0.692308 0.481481 0.653846 0.481481 0.615385 0.481481 0.576923 0.481481 0.538462 0.481481 0.5 0.481481 0.461538 0.481481 0.423077 0.481481 0.384615 0.481481 0.346154 0.481481 0.307692 0.481481 0.269231 0.481481 0.230769 0.481481 0.192308 0.481481 0.153846 0.481481 0.115385 0.481481 0.0769231 0.481481 0.0384616 0.481481 0 0.481481 1 0.518519 0.961538 0.518519 0.923077 0.518519 0.884615 0.518519 0.846154 0.518519 0.807692 0.518519 0.769231 0.518519 0.730769 0.518519 0.692308 0.518519 0.653846 0.518519 0.615385 0.518519 0.576923 0.518519 0.538462 0.518519 0.5 0.518519 0.461538 0.518519 0.423077 0.518519 0.384615 0.518519 0.346154 0.518519 0.307692 0.518519 0.269231 0.518519 0.230769 0.518519 0.192308 0.518519 0.153846 0.518519 0.115385 0.518519 0.0769231 0.518519 0.0384616 0.518519 0 0.518519 1 0.555556 0.961538 0.555556 0.923077 0.555556 0.884615 0.555556 0.846154 0.555556 0.807692 0.555556 0.769231 0.555556 0.730769 0.555556 0.692308 0.555556 0.653846 0.555556 0.615385 0.555556 0.576923 0.555556 0.538462 0.555556 0.5 0.555556 0.461538 0.555556 0.423077 0.555556 0.384615 0.555556 0.346154 0.555556 0.307692 0.555556 0.269231 0.555556 0.230769 0.555556 0.192308 0.555556 0.153846 0.555556 0.115385 0.555556 0.0769231 0.555556 0.0384616 0.555556 0 0.555556 1 0.592593 0.961538 0.592593 0.923077 0.592593 0.884615 0.592593 0.846154 0.592593 0.807692 0.592593 0.769231 0.592593 0.730769 0.592593 0.692308 0.592593 0.653846 0.592593 0.615385 0.592593 0.576923 0.592593 0.538462 0.592593 0.5 0.592593 0.461538 0.592593 0.423077 0.592593 0.384615 0.592593 0.346154 0.592593 0.307692 0.592593 0.269231 0.592593 0.230769 0.592593 0.192308 0.592593 0.153846 0.592593 0.115385 0.592593 0.0769231 0.592593 0.0384616 0.592593 0 0.592593 1 0.62963 0.961538 0.62963 0.923077 0.62963 0.884615 0.62963 0.846154 0.62963 0.807692 0.62963 0.769231 0.62963 0.730769 0.62963 0.692308 0.62963 0.653846 0.62963 0.615385 0.62963 0.576923 0.62963 0.538462 0.62963 0.5 0.62963 0.461538 0.62963 0.423077 0.62963 0.384615 0.62963 0.346154 0.62963 0.307692 0.62963 0.269231 0.62963 0.230769 0.62963 0.192308 0.62963 0.153846 0.62963 0.115385 0.62963 0.0769231 0.62963 0.0384616 0.62963 0 0.62963 1 0.666667 0.961538 0.666667 0.923077 0.666667 0.884615 0.666667 0.846154 0.666667 0.807692 0.666667 0.769231 0.666667 0.730769 0.666667 0.692308 0.666667 0.653846 0.666667 0.615385 0.666667 0.576923 0.666667 0.538462 0.666667 0.5 0.666667 0.461538 0.666667 0.423077 0.666667 0.384615 0.666667 0.346154 0.666667 0.307692 0.666667 0.269231 0.666667 0.230769 0.666667 0.192308 0.666667 0.153846 0.666667 0.115385 0.666667 0.0769231 0.666667 0.0384616 0.666667 0 0.666667 1 0.703704 0.961538 0.703704 0.923077 0.703704 0.884615 0.703704 0.846154 0.703704 0.807692 0.703704 0.769231 0.703704 0.730769 0.703704 0.692308 0.703704 0.653846 0.703704 0.615385 0.703704 0.576923 0.703704 0.538462 0.703704 0.5 0.703704 0.461538 0.703704 0.423077 0.703704 0.384615 0.703704 0.346154 0.703704 0.307692 0.703704 0.269231 0.703704 0.230769 0.703704 0.192308 0.703704 0.153846 0.703704 0.115385 0.703704 0.0769231 0.703704 0.0384616 0.703704 0 0.703704 1 0.740741 0.961538 0.740741 0.923077 0.740741 0.884615 0.740741 0.846154 0.740741 0.807692 0.740741 0.769231 0.740741 0.730769 0.740741 0.692308 0.740741 0.653846 0.740741 0.615385 0.740741 0.576923 0.740741 0.538462 0.740741 0.5 0.740741 0.461538 0.740741 0.423077 0.740741 0.384615 0.740741 0.346154 0.740741 0.307692 0.740741 0.269231 0.740741 0.230769 0.740741 0.192308 0.740741 0.153846 0.740741 0.115385 0.740741 0.0769231 0.740741 0.0384616 0.740741 0 0.740741 1 0.777778 0.961538 0.777778 0.923077 0.777778 0.884615 0.777778 0.846154 0.777778 0.807692 0.777778 0.769231 0.777778 0.730769 0.777778 0.692308 0.777778 0.653846 0.777778 0.615385 0.777778 0.576923 0.777778 0.538462 0.777778 0.5 0.777778 0.461538 0.777778 0.423077 0.777778 0.384615 0.777778 0.346154 0.777778 0.307692 0.777778 0.269231 0.777778 0.230769 0.777778 0.192308 0.777778 0.153846 0.777778 0.115385 0.777778 0.0769231 0.777778 0.0384616 0.777778 0 0.777778 1 0.814815 0.961538 0.814815 0.923077 0.814815 0.884615 0.814815 0.846154 0.814815 0.807692 0.814815 0.769231 0.814815 0.730769 0.814815 0.692308 0.814815 0.653846 0.814815 0.615385 0.814815 0.576923 0.814815 0.538462 0.814815 0.5 0.814815 0.461538 0.814815 0.423077 0.814815 0.384615 0.814815 0.346154 0.814815 0.307692 0.814815 0.269231 0.814815 0.230769 0.814815 0.192308 0.814815 0.153846 0.814815 0.115385 0.814815 0.0769231 0.814815 0.0384616 0.814815 0 0.814815 1 0.851852 0.961538 0.851852 0.923077 0.851852 0.884615 0.851852 0.846154 0.851852 0.807692 0.851852 0.769231 0.851852 0.730769 0.851852 0.692308 0.851852 0.653846 0.851852 0.615385 0.851852 0.576923 0.851852 0.538462 0.851852 0.5 0.851852 0.461538 0.851852 0.423077 0.851852 0.384615 0.851852 0.346154 0.851852 0.307692 0.851852 0.269231 0.851852 0.230769 0.851852 0.192308 0.851852 0.153846 0.851852 0.115385 0.851852 0.0769231 0.851852 0.0384616 0.851852 0 0.851852 1 0.888889 0.961538 0.888889 0.923077 0.888889 0.884615 0.888889 0.846154 0.888889 0.807692 0.888889 0.769231 0.888889 0.730769 0.888889 0.692308 0.888889 0.653846 0.888889 0.615385 0.888889 0.576923 0.888889 0.538462 0.888889 0.5 0.888889 0.461538 0.888889 0.423077 0.888889 0.384615 0.888889 0.346154 0.888889 0.307692 0.888889 0.269231 0.888889 0.230769 0.888889 0.192308 0.888889 0.153846 0.888889 0.115385 0.888889 0.0769231 0.888889 0.0384616 0.888889 0 0.888889 1 0.925926 0.961538 0.925926 0.923077 0.925926 0.884615 0.925926 0.846154 0.925926 0.807692 0.925926 0.769231 0.925926 0.730769 0.925926 0.692308 0.925926 0.653846 0.925926 0.615385 0.925926 0.576923 0.925926 0.538462 0.925926 0.5 0.925926 0.461538 0.925926 0.423077 0.925926 0.384615 0.925926 0.346154 0.925926 0.307692 0.925926 0.269231 0.925926 0.230769 0.925926 0.192308 0.925926 0.153846 0.925926 0.115385 0.925926 0.0769231 0.925926 0.0384616 0.925926 0 0.925926 1 0.962963 0.961538 0.962963 0.923077 0.962963 0.884615 0.962963 0.846154 0.962963 0.807692 0.962963 0.769231 0.962963 0.730769 0.962963 0.692308 0.962963 0.653846 0.962963 0.615385 0.962963 0.576923 0.962963 0.538462 0.962963 0.5 0.962963 0.461538 0.962963 0.423077 0.962963 0.384615 0.962963 0.346154 0.962963 0.307692 0.962963 0.269231 0.962963 0.230769 0.962963 0.192308 0.962963 0.153846 0.962963 0.115385 0.962963 0.0769231 0.962963 0.0384616 0.962963 0 0.962963 0.981481 1 0.94302 1 0.904558 1 0.866097 1 0.827635 1 0.789174 1 0.750712 1 0.712251 1 0.673789 1 0.635328 1 0.596866 1 0.558405 1 0.519943 1 0.481481 1 0.44302 1 0.404558 1 0.366097 1 0.327635 1 0.289174 1 0.250712 1 0.212251 1 0.173789 1 0.135328 1 0.0968661 1 0.0584046 1 0.0199431 1 -0.0185186 1</float_array>
					<technique_common>
						<accessor count="756" source="#FXStream12-array" stride="2">
							<param name="S" type="float"/>
							<param name="T" type="float"/>
						</accessor>
					</technique_common>
				</source>
				<vertices id="Sphere1-Vertex-0">
					<input semantic="POSITION" source="#FXStream11"/>
					<input semantic="NORMAL" source="#FXStream13"/>
					<input semantic="TEXCOORD" source="#FXStream12"/>
				</vertices>
				<polygons count="702" material="SphereMaterial">
					<input offset="0" semantic="VERTEX" source="#Sphere1-Vertex-0"/>
					<p>54 55 28 27</p>
					<p>55 56 29 28</p>
					<p>56 57 30 29</p>
					<p>57 58 31 30</p>
					<p>58 59 32 31</p>
					<p>59 60 33 32</p>
					<p>60 61 34 33</p>
					<p>61 62 35 34</p>
					<p>62 63 36 35</p>
					<p>63 64 37 36</p>
					<p>64 65 38 37</p>
					<p>65 66 39 38</p>
					<p>66 67 40 39</p>
					<p>67 68 41 40</p>
					<p>68 69 42 41</p>
					<p>69 70 43 42</p>
					<p>70 71 44 43</p>
					<p>71 72 45 44</p>
					<p>72 73 46 45</p>
					<p>73 74 47 46</p>
					<p>74 75 48 47</p>
					<p>75 76 49 48</p>
					<p>76 77 50 49</p>
					<p>77 78 51 50</p>
					<p>78 79 52 51</p>
					<p>79 80 53 52</p>
					<p>81 82 55 54</p>
					<p>82 83 56 55</p>
					<p>83 84 57 56</p>
					<p>84 85 58 57</p>
					<p>85 86 59 58</p>
					<p>86 87 60 59</p>
					<p>87 88 61 60</p>
					<p>88 89 62 61</p>
					<p>89 90 63 62</p>
					<p>90 91 64 63</p>
					<p>91 92 65 64</p>
					<p>92 93 66 65</p>
					<p>93 94 67 66</p>
					<p>94 95 68 67</p>
					<p>95 96 69 68</p>
					<p>96 97 70 69</p>
					<p>97 98 71 70</p>
					<p>98 99 72 71</p>
					<p>99 100 73 72</p>
					<p>100 101 74 73</p>
					<p>101 102 75 74</p>
					<p>102 103 76 75</p>
					<p>103 104 77 76</p>
					<p>104 105 78 77</p>
					<p>105 106 79 78</p>
					<p>106 107 80 79</p>
					<p>108 109 82 81</p>
					<p>109 110 83 82</p>
					<p>110 111 84 83</p>
					<p>111 112 85 84</p>
					<p>112 113 86 85</p>
					<p>113 114 87 86</p>
					<p>114 115 88 87</p>
					<p>115 116 89 88</p>
					<p>116 117 90 89</p>
					<p>117 118 91 90</p>
					<p>118 119 92 91</p>
					<p>119 120 93 92</p>
					<p>120 121 94 93</p>
					<p>121 122 95 94</p>
					<p>122 123 96 95</p>
					<p>123 124 97 96</p>
					<p>124 125 98 97</p>
					<p>125 126 99 98</p>
					<p>126 127 100 99</p>
					<p>127 128 101 100</p>
					<p>128 129 102 101</p>
					<p>129 130 103 102</p>
					<p>130 131 104 103</p>
					<p>131 132 105 104</p>
					<p>132 133 106 105</p>
					<p>133 134 107 106</p>
					<p>135 136 109 108</p>
					<p>136 137 110 109</p>
					<p>137 138 111 110</p>
					<p>138 139 112 111</p>
					<p>139 140 113 112</p>
					<p>140 141 114 113</p>
					<p>141 142 115 114</p>
					<p>142 143 116 115</p>
					<p>143 144 117 116</p>
					<p>144 145 118 117</p>
					<p>145 146 119 118</p>
					<p>146 147 120 119</p>
					<p>147 148 121 120</p>
					<p>148 149 122 121</p>
					<p>149 150 123 122</p>
					<p>150 151 124 123</p>
					<p>151 152 125 124</p>
					<p>152 153 126 125</p>
					<p>153 154 127 126</p>
					<p>154 155 128 127</p>
					<p>155 156 129 128</p>
					<p>156 157 130 129</p>
					<p>157 158 131 130</p>
					<p>158 159 132 131</p>
					<p>159 160 133 132</p>
					<p>160 161 134 133</p>
					<p>162 163 136 135</p>
					<p>163 164 137 136</p>
					<p>164 165 138 137</p>
					<p>165 166 139 138</p>
					<p>166 167 140 139</p>
					<p>167 168 141 140</p>
					<p>168 169 142 141</p>
					<p>169 170 143 142</p>
					<p>170 171 144 143</p>
					<p>171 172 145 144</p>
					<p>172 173 146 145</p>
					<p>173 174 147 146</p>
					<p>174 175 148 147</p>
					<p>175 176 149 148</p>
					<p>176 177 150 149</p>
					<p>177 178 151 150</p>
					<p>178 179 152 151</p>
					<p>179 180 153 152</p>
					<p>180 181 154 153</p>
					<p>181 182 155 154</p>
					<p>182 183 156 155</p>
					<p>183 184 157 156</p>
					<p>184 185 158 157</p>
					<p>185 186 159 158</p>
					<p>186 187 160 159</p>
					<p>187 188 161 160</p>
					<p>189 190 163 162</p>
					<p>190 191 164 163</p>
					<p>191 192 165 164</p>
					<p>192 193 166 165</p>
					<p>193 194 167 166</p>
					<p>194 195 168 167</p>
					<p>195 196 169 168</p>
					<p>196 197 170 169</p>
					<p>197 198 171 170</p>
					<p>198 199 172 171</p>
					<p>199 200 173 172</p>
					<p>200 201 174 173</p>
					<p>201 202 175 174</p>
					<p>202 203 176 175</p>
					<p>203 204 177 176</p>
					<p>204 205 178 177</p>
					<p>205 206 179 178</p>
					<p>206 207 180 179</p>
					<p>207 208 181 180</p>
					<p>208 209 182 181</p>
					<p>209 210 183 182</p>
					<p>210 211 184 183</p>
					<p>211 212 185 184</p>
					<p>212 213 186 185</p>
					<p>213 214 187 186</p>
					<p>214 215 188 187</p>
					<p>216 217 190 189</p>
					<p>217 218 191 190</p>
					<p>218 219 192 191</p>
					<p>219 220 193 192</p>
					<p>220 221 194 193</p>
					<p>221 222 195 194</p>
					<p>222 223 196 195</p>
					<p>223 224 197 196</p>
					<p>224 225 198 197</p>
					<p>225 226 199 198</p>
					<p>226 227 200 199</p>
					<p>227 228 201 200</p>
					<p>228 229 202 201</p>
					<p>229 230 203 202</p>
					<p>230 231 204 203</p>
					<p>231 232 205 204</p>
					<p>232 233 206 205</p>
					<p>233 234 207 206</p>
					<p>234 235 208 207</p>
					<p>235 236 209 208</p>
					<p>236 237 210 209</p>
					<p>237 238 211 210</p>
					<p>238 239 212 211</p>
					<p>239 240 213 212</p>
					<p>240 241 214 213</p>
					<p>241 242 215 214</p>
					<p>243 244 217 216</p>
					<p>244 245 218 217</p>
					<p>245 246 219 218</p>
					<p>246 247 220 219</p>
					<p>247 248 221 220</p>
					<p>248 249 222 221</p>
					<p>249 250 223 222</p>
					<p>250 251 224 223</p>
					<p>251 252 225 224</p>
					<p>252 253 226 225</p>
					<p>253 254 227 226</p>
					<p>254 255 228 227</p>
					<p>255 256 229 228</p>
					<p>256 257 230 229</p>
					<p>257 258 231 230</p>
					<p>258 259 232 231</p>
					<p>259 260 233 232</p>
					<p>260 261 234 233</p>
					<p>261 262 235 234</p>
					<p>262 263 236 235</p>
					<p>263 264 237 236</p>
					<p>264 265 238 237</p>
					<p>265 266 239 238</p>
					<p>266 267 240 239</p>
					<p>267 268 241 240</p>
					<p>268 269 242 241</p>
					<p>270 271 244 243</p>
					<p>271 272 245 244</p>
					<p>272 273 246 245</p>
					<p>273 274 247 246</p>
					<p>274 275 248 247</p>
					<p>275 276 249 248</p>
					<p>276 277 250 249</p>
					<p>277 278 251 250</p>
					<p>278 279 252 251</p>
					<p>279 280 253 252</p>
					<p>280 281 254 253</p>
					<p>281 282 255 254</p>
					<p>282 283 256 255</p>
					<p>283 284 257 256</p>
					<p>284 285 258 257</p>
					<p>285 286 259 258</p>
					<p>286 287 260 259</p>
					<p>287 288 261 260</p>
					<p>288 289 262 261</p>
					<p>289 290 263 262</p>
					<p>290 291 264 263</p>
					<p>291 292 265 264</p>
					<p>292 293 266 265</p>
					<p>293 294 267 266</p>
					<p>294 295 268 267</p>
					<p>295 296 269 268</p>
					<p>297 298 271 270</p>
					<p>298 299 272 271</p>
					<p>299 300 273 272</p>
					<p>300 301 274 273</p>
					<p>301 302 275 274</p>
					<p>302 303 276 275</p>
					<p>303 304 277 276</p>
					<p>304 305 278 277</p>
					<p>305 306 279 278</p>
					<p>306 307 280 279</p>
					<p>307 308 281 280</p>
					<p>308 309 282 281</p>
					<p>309 310 283 282</p>
					<p>310 311 284 283</p>
					<p>311 312 285 284</p>
					<p>312 313 286 285</p>
					<p>313 314 287 286</p>
					<p>314 315 288 287</p>
					<p>315 316 289 288</p>
					<p>316 317 290 289</p>
					<p>317 318 291 290</p>
					<p>318 319 292 291</p>
					<p>319 320 293 292</p>
					<p>320 321 294 293</p>
					<p>321 322 295 294</p>
					<p>322 323 296 295</p>
					<p>324 325 298 297</p>
					<p>325 326 299 298</p>
					<p>326 327 300 299</p>
					<p>327 328 301 300</p>
					<p>328 329 302 301</p>
					<p>329 330 303 302</p>
					<p>330 331 304 303</p>
					<p>331 332 305 304</p>
					<p>332 333 306 305</p>
					<p>333 334 307 306</p>
					<p>334 335 308 307</p>
					<p>335 336 309 308</p>
					<p>336 337 310 309</p>
					<p>337 338 311 310</p>
					<p>338 339 312 311</p>
					<p>339 340 313 312</p>
					<p>340 341 314 313</p>
					<p>341 342 315 314</p>
					<p>342 343 316 315</p>
					<p>343 344 317 316</p>
					<p>344 345 318 317</p>
					<p>345 346 319 318</p>
					<p>346 347 320 319</p>
					<p>347 348 321 320</p>
					<p>348 349 322 321</p>
					<p>349 350 323 322</p>
					<p>351 352 325 324</p>
					<p>352 353 326 325</p>
					<p>353 354 327 326</p>
					<p>354 355 328 327</p>
					<p>355 356 329 328</p>
					<p>356 357 330 329</p>
					<p>357 358 331 330</p>
					<p>358 359 332 331</p>
					<p>359 360 333 332</p>
					<p>360 361 334 333</p>
					<p>361 362 335 334</p>
					<p>362 363 336 335</p>
					<p>363 364 337 336</p>
					<p>364 365 338 337</p>
					<p>365 366 339 338</p>
					<p>366 367 340 339</p>
					<p>367 368 341 340</p>
					<p>368 369 342 341</p>
					<p>369 370 343 342</p>
					<p>370 371 344 343</p>
					<p>371 372 345 344</p>
					<p>372 373 346 345</p>
					<p>373 374 347 346</p>
					<p>374 375 348 347</p>
					<p>375 376 349 348</p>
					<p>376 377 350 349</p>
					<p>378 379 352 351</p>
					<p>379 380 353 352</p>
					<p>380 381 354 353</p>
					<p>381 382 355 354</p>
					<p>382 383 356 355</p>
					<p>383 384 357 356</p>
					<p>384 385 358 357</p>
					<p>385 386 359 358</p>
					<p>386 387 360 359</p>
					<p>387 388 361 360</p>
					<p>388 389 362 361</p>
					<p>389 390 363 362</p>
					<p>390 391 364 363</p>
					<p>391 392 365 364</p>
					<p>392 393 366 365</p>
					<p>393 394 367 366</p>
					<p>394 395 368 367</p>
					<p>395 396 369 368</p>
					<p>396 397 370 369</p>
					<p>397 398 371 370</p>
					<p>398 399 372 371</p>
					<p>399 400 373 372</p>
					<p>400 401 374 373</p>
					<p>401 402 375 374</p>
					<p>402 403 376 375</p>
					<p>403 404 377 376</p>
					<p>405 406 379 378</p>
					<p>406 407 380 379</p>
					<p>407 408 381 380</p>
					<p>408 409 382 381</p>
					<p>409 410 383 382</p>
					<p>410 411 384 383</p>
					<p>411 412 385 384</p>
					<p>412 413 386 385</p>
					<p>413 414 387 386</p>
					<p>414 415 388 387</p>
					<p>415 416 389 388</p>
					<p>416 417 390 389</p>
					<p>417 418 391 390</p>
					<p>418 419 392 391</p>
					<p>419 420 393 392</p>
					<p>420 421 394 393</p>
					<p>421 422 395 394</p>
					<p>422 423 396 395</p>
					<p>423 424 397 396</p>
					<p>424 425 398 397</p>
					<p>425 426 399 398</p>
					<p>426 427 400 399</p>
					<p>427 428 401 400</p>
					<p>428 429 402 401</p>
					<p>429 430 403 402</p>
					<p>430 431 404 403</p>
					<p>432 433 406 405</p>
					<p>433 434 407 406</p>
					<p>434 435 408 407</p>
					<p>435 436 409 408</p>
					<p>436 437 410 409</p>
					<p>437 438 411 410</p>
					<p>438 439 412 411</p>
					<p>439 440 413 412</p>
					<p>440 441 414 413</p>
					<p>441 442 415 414</p>
					<p>442 443 416 415</p>
					<p>443 444 417 416</p>
					<p>444 445 418 417</p>
					<p>445 446 419 418</p>
					<p>446 447 420 419</p>
					<p>447 448 421 420</p>
					<p>448 449 422 421</p>
					<p>449 450 423 422</p>
					<p>450 451 424 423</p>
					<p>451 452 425 424</p>
					<p>452 453 426 425</p>
					<p>453 454 427 426</p>
					<p>454 455 428 427</p>
					<p>455 456 429 428</p>
					<p>456 457 430 429</p>
					<p>457 458 431 430</p>
					<p>459 460 433 432</p>
					<p>460 461 434 433</p>
					<p>461 462 435 434</p>
					<p>462 463 436 435</p>
					<p>463 464 437 436</p>
					<p>464 465 438 437</p>
					<p>465 466 439 438</p>
					<p>466 467 440 439</p>
					<p>467 468 441 440</p>
					<p>468 469 442 441</p>
					<p>469 470 443 442</p>
					<p>470 471 444 443</p>
					<p>471 472 445 444</p>
					<p>472 473 446 445</p>
					<p>473 474 447 446</p>
					<p>474 475 448 447</p>
					<p>475 476 449 448</p>
					<p>476 477 450 449</p>
					<p>477 478 451 450</p>
					<p>478 479 452 451</p>
					<p>479 480 453 452</p>
					<p>480 481 454 453</p>
					<p>481 482 455 454</p>
					<p>482 483 456 455</p>
					<p>483 484 457 456</p>
					<p>484 485 458 457</p>
					<p>486 487 460 459</p>
					<p>487 488 461 460</p>
					<p>488 489 462 461</p>
					<p>489 490 463 462</p>
					<p>490 491 464 463</p>
					<p>491 492 465 464</p>
					<p>492 493 466 465</p>
					<p>493 494 467 466</p>
					<p>494 495 468 467</p>
					<p>495 496 469 468</p>
					<p>496 497 470 469</p>
					<p>497 498 471 470</p>
					<p>498 499 472 471</p>
					<p>499 500 473 472</p>
					<p>500 501 474 473</p>
					<p>501 502 475 474</p>
					<p>502 503 476 475</p>
					<p>503 504 477 476</p>
					<p>504 505 478 477</p>
					<p>505 506 479 478</p>
					<p>506 507 480 479</p>
					<p>507 508 481 480</p>
					<p>508 509 482 481</p>
					<p>509 510 483 482</p>
					<p>510 511 484 483</p>
					<p>511 512 485 484</p>
					<p>513 514 487 486</p>
					<p>514 515 488 487</p>
					<p>515 516 489 488</p>
					<p>516 517 490 489</p>
					<p>517 518 491 490</p>
					<p>518 519 492 491</p>
					<p>519 520 493 492</p>
					<p>520 521 494 493</p>
					<p>521 522 495 494</p>
					<p>522 523 496 495</p>
					<p>523 524 497 496</p>
					<p>524 525 498 497</p>
					<p>525 526 499 498</p>
					<p>526 527 500 499</p>
					<p>527 528 501 500</p>
					<p>528 529 502 501</p>
					<p>529 530 503 502</p>
					<p>530 531 504 503</p>
					<p>531 532 505 504</p>
					<p>532 533 506 505</p>
					<p>533 534 507 506</p>
					<p>534 535 508 507</p>
					<p>535 536 509 508</p>
					<p>536 537 510 509</p>
					<p>537 538 511 510</p>
					<p>538 539 512 511</p>
					<p>540 541 514 513</p>
					<p>541 542 515 514</p>
					<p>542 543 516 515</p>
					<p>543 544 517 516</p>
					<p>544 545 518 517</p>
					<p>545 546 519 518</p>
					<p>546 547 520 519</p>
					<p>547 548 521 520</p>
					<p>548 549 522 521</p>
					<p>549 550 523 522</p>
					<p>550 551 524 523</p>
					<p>551 552 525 524</p>
					<p>552 553 526 525</p>
					<p>553 554 527 526</p>
					<p>554 555 528 527</p>
					<p>555 556 529 528</p>
					<p>556 557 530 529</p>
					<p>557 558 531 530</p>
					<p>558 559 532 531</p>
					<p>559 560 533 532</p>
					<p>560 561 534 533</p>
					<p>561 562 535 534</p>
					<p>562 563 536 535</p>
					<p>563 564 537 536</p>
					<p>564 565 538 537</p>
					<p>565 566 539 538</p>
					<p>567 568 541 540</p>
					<p>568 569 542 541</p>
					<p>569 570 543 542</p>
					<p>570 571 544 543</p>
					<p>571 572 545 544</p>
					<p>572 573 546 545</p>
					<p>573 574 547 546</p>
					<p>574 575 548 547</p>
					<p>575 576 549 548</p>
					<p>576 577 550 549</p>
					<p>577 578 551 550</p>
					<p>578 579 552 551</p>
					<p>579 580 553 552</p>
					<p>580 581 554 553</p>
					<p>581 582 555 554</p>
					<p>582 583 556 555</p>
					<p>583 584 557 556</p>
					<p>584 585 558 557</p>
					<p>585 586 559 558</p>
					<p>586 587 560 559</p>
					<p>587 588 561 560</p>
					<p>588 589 562 561</p>
					<p>589 590 563 562</p>
					<p>590 591 564 563</p>
					<p>591 592 565 564</p>
					<p>592 593 566 565</p>
					<p>594 595 568 567</p>
					<p>595 596 569 568</p>
					<p>596 597 570 569</p>
					<p>597 598 571 570</p>
					<p>598 599 572 571</p>
					<p>599 600 573 572</p>
					<p>600 601 574 573</p>
					<p>601 602 575 574</p>
					<p>602 603 576 575</p>
					<p>603 604 577 576</p>
					<p>604 605 578 577</p>
					<p>605 606 579 578</p>
					<p>606 607 580 579</p>
					<p>607 608 581 580</p>
					<p>608 609 582 581</p>
					<p>609 610 583 582</p>
					<p>610 611 584 583</p>
					<p>611 612 585 584</p>
					<p>612 613 586 585</p>
					<p>613 614 587 586</p>
					<p>614 615 588 587</p>
					<p>615 616 589 588</p>
					<p>616 617 590 589</p>
					<p>617 618 591 590</p>
					<p>618 619 592 591</p>
					<p>619 620 593 592</p>
					<p>621 622 595 594</p>
					<p>622 623 596 595</p>
					<p>623 624 597 596</p>
					<p>624 625 598 597</p>
					<p>625 626 599 598</p>
					<p>626 627 600 599</p>
					<p>627 628 601 600</p>
					<p>628 629 602 601</p>
					<p>629 630 603 602</p>
					<p>630 631 604 603</p>
					<p>631 632 605 604</p>
					<p>632 633 606 605</p>
					<p>633 634 607 606</p>
					<p>634 635 608 607</p>
					<p>635 636 609 608</p>
					<p>636 637 610 609</p>
					<p>637 638 611 610</p>
					<p>638 639 612 611</p>
					<p>639 640 613 612</p>
					<p>640 641 614 613</p>
					<p>641 642 615 614</p>
					<p>642 643 616 615</p>
					<p>643 644 617 616</p>
					<p>644 645 618 617</p>
					<p>645 646 619 618</p>
					<p>646 647 620 619</p>
					<p>648 649 622 621</p>
					<p>649 650 623 622</p>
					<p>650 651 624 623</p>
					<p>651 652 625 624</p>
					<p>652 653 626 625</p>
					<p>653 654 627 626</p>
					<p>654 655 628 627</p>
					<p>655 656 629 628</p>
					<p>656 657 630 629</p>
					<p>657 658 631 630</p>
					<p>658 659 632 631</p>
					<p>659 660 633 632</p>
					<p>660 661 634 633</p>
					<p>661 662 635 634</p>
					<p>662 663 636 635</p>
					<p>663 664 637 636</p>
					<p>664 665 638 637</p>
					<p>665 666 639 638</p>
					<p>666 667 640 639</p>
					<p>667 668 641 640</p>
					<p>668 669 642 641</p>
					<p>669 670 643 642</p>
					<p>670 671 644 643</p>
					<p>671 672 645 644</p>
					<p>672 673 646 645</p>
					<p>673 674 647 646</p>
					<p>675 676 649 648</p>
					<p>676 677 650 649</p>
					<p>677 678 651 650</p>
					<p>678 679 652 651</p>
					<p>679 680 653 652</p>
					<p>680 681 654 653</p>
					<p>681 682 655 654</p>
					<p>682 683 656 655</p>
					<p>683 684 657 656</p>
					<p>684 685 658 657</p>
					<p>685 686 659 658</p>
					<p>686 687 660 659</p>
					<p>687 688 661 660</p>
					<p>688 689 662 661</p>
					<p>689 690 663 662</p>
					<p>690 691 664 663</p>
					<p>691 692 665 664</p>
					<p>692 693 666 665</p>
					<p>693 694 667 666</p>
					<p>694 695 668 667</p>
					<p>695 696 669 668</p>
					<p>696 697 670 669</p>
					<p>697 698 671 670</p>
					<p>698 699 672 671</p>
					<p>699 700 673 672</p>
					<p>700 701 674 673</p>
					<p>702 703 676 675</p>
					<p>703 704 677 676</p>
					<p>704 705 678 677</p>
					<p>705 706 679 678</p>
					<p>706 707 680 679</p>
					<p>707 708 681 680</p>
					<p>708 709 682 681</p>
					<p>709 710 683 682</p>
					<p>710 711 684 683</p>
					<p>711 712 685 684</p>
					<p>712 713 686 685</p>
					<p>713 714 687 686</p>
					<p>714 715 688 687</p>
					<p>715 716 689 688</p>
					<p>716 717 690 689</p>
					<p>717 718 691 690</p>
					<p>718 719 692 691</p>
					<p>719 720 693 692</p>
					<p>720 721 694 693</p>
					<p>721 722 695 694</p>
					<p>722 723 696 695</p>
					<p>723 724 697 696</p>
					<p>724 725 698 697</p>
					<p>725 726 699 698</p>
					<p>726 727 700 699</p>
					<p>727 728 701 700</p>
					<p>27 28 0</p>
					<p>28 29 1</p>
					<p>29 30 2</p>
					<p>30 31 3</p>
					<p>31 32 4</p>
					<p>32 33 5</p>
					<p>33 34 6</p>
					<p>34 35 7</p>
					<p>35 36 8</p>
					<p>36 37 9</p>
					<p>37 38 10</p>
					<p>38 39 11</p>
					<p>39 40 12</p>
					<p>40 41 13</p>
					<p>41 42 14</p>
					<p>42 43 15</p>
					<p>43 44 16</p>
					<p>44 45 17</p>
					<p>45 46 18</p>
					<p>46 47 19</p>
					<p>47 48 20</p>
					<p>48 49 21</p>
					<p>49 50 22</p>
					<p>50 51 23</p>
					<p>51 52 24</p>
					<p>52 53 25</p>
					<p>703 702 729</p>
					<p>704 703 730</p>
					<p>705 704 731</p>
					<p>706 705 732</p>
					<p>707 706 733</p>
					<p>708 707 734</p>
					<p>709 708 735</p>
					<p>710 709 736</p>
					<p>711 710 737</p>
					<p>712 711 738</p>
					<p>713 712 739</p>
					<p>714 713 740</p>
					<p>715 714 741</p>
					<p>716 715 742</p>
					<p>717 716 743</p>
					<p>718 717 744</p>
					<p>719 718 745</p>
					<p>720 719 746</p>
					<p>721 720 747</p>
					<p>722 721 748</p>
					<p>723 722 749</p>
					<p>724 723 750</p>
					<p>725 724 751</p>
					<p>726 725 752</p>
					<p>727 726 753</p>
					<p>728 727 754</p>
				</polygons>
			</mesh>
		</geometry>
	</library_geometries>
	<library_visual_scenes>
		<visual_scene id="Scene" name="Scene">
			<node id="Node1" name="Node1" layer="">
				<matrix sid="">1 0 0 0 0 1 0 0 0 0 1 0 0 0 0 1</matrix>
				<matrix sid="FXComposer2DiffMatrix">0.730969 0 -0.682411 -0.399621 0 1 0 -0.0733626 0.682411 0 0.730969 0.310918 0 0 0 1</matrix>
				<instance_geometry url="#Sphere1" sid="GeometryInstance1" name="Sphere">
					<bind_material>
						<technique_common>
							<instance_material symbol="SphereMaterial" target="#Material1"/>
						</technique_common>
					</bind_material>
				</instance_geometry>
			</node>
			<extra type="evaluatescene_enables">
				<technique profile="NVIDIA_FXCOMPOSER"/>
			</extra>
		</visual_scene>
	</library_visual_scenes>
	<library_lights/>
	<library_images>
		<image id="default_color1" name="default_color1">
			<init_from>../../../../../program%20files%20(x86)/nvidia%20corporation/fx%20composer%202.5/media/textures/default_color.dds</init_from>
		</image>
	</library_images>
	<scene>
		<instance_visual_scene url="#Scene"/>
	</scene>
</COLLADA>
