# Blender3D v249 OBJ File: 
# www.blender3d.org
v 0.437500 0.164063 0.765625
v -0.437500 0.164063 0.765625
v 0.500000 0.093750 0.687500
v -0.500000 0.093750 0.687500
v 0.546875 0.054688 0.578125
v -0.546875 0.054688 0.578125
v 0.351563 -0.023438 0.617188
v -0.351563 -0.023438 0.617188
v 0.351563 0.031250 0.718750
v -0.351563 0.031250 0.718750
v 0.351563 0.132813 0.781250
v -0.351563 0.132813 0.781250
v 0.273438 0.164063 0.796875
v -0.273438 0.164063 0.796875
v 0.203125 0.093750 0.742188
v -0.203125 0.093750 0.742188
v 0.156250 0.054688 0.648438
v -0.156250 0.054688 0.648438
v 0.078125 0.242188 0.656250
v -0.078125 0.242188 0.656250
v 0.140625 0.242188 0.742188
v -0.140625 0.242188 0.742188
v 0.242188 0.242188 0.796875
v -0.242188 0.242188 0.796875
v 0.273438 0.328125 0.796875
v -0.273438 0.328125 0.796875
v 0.203125 0.390625 0.742188
v -0.203125 0.390625 0.742188
v 0.156250 0.437500 0.648438
v -0.156250 0.437500 0.648438
v 0.351563 0.515625 0.617188
v -0.351563 0.515625 0.617188
v 0.351563 0.453125 0.718750
v -0.351563 0.453125 0.718750
v 0.351563 0.359375 0.781250
v -0.351563 0.359375 0.781250
v 0.437500 0.328125 0.765625
v -0.437500 0.328125 0.765625
v 0.500000 0.390625 0.687500
v -0.500000 0.390625 0.687500
v 0.546875 0.437500 0.578125
v -0.546875 0.437500 0.578125
v 0.625000 0.242188 0.562500
v -0.625000 0.242188 0.562500
v 0.562500 0.242188 0.671875
v -0.562500 0.242188 0.671875
v 0.468750 0.242188 0.757813
v -0.468750 0.242188 0.757813
v 0.476563 0.242188 0.773438
v -0.476563 0.242188 0.773438
v 0.445313 0.335938 0.781250
v -0.445313 0.335938 0.781250
v 0.351563 0.375000 0.804688
v -0.351563 0.375000 0.804688
v 0.265625 0.335938 0.820313
v -0.265625 0.335938 0.820313
v 0.226563 0.242188 0.820313
v -0.226563 0.242188 0.820313
v 0.265625 0.156250 0.820313
v -0.265625 0.156250 0.820313
v 0.351563 0.242188 0.828125
v -0.351563 0.242188 0.828125
v 0.351563 0.117188 0.804688
v -0.351563 0.117188 0.804688
v 0.445313 0.156250 0.781250
v -0.445313 0.156250 0.781250
v 0.000000 0.429688 0.742188
v 0.000000 0.351563 0.820313
v 0.000000 -0.679688 0.734375
v 0.000000 -0.320313 0.781250
v 0.000000 -0.187500 0.796875
v 0.000000 -0.773438 0.718750
v 0.000000 0.406250 0.601563
v 0.000000 0.570313 0.570313
v 0.000000 0.898438 -0.546875
v 0.000000 0.562500 -0.851563
v 0.000000 0.070313 -0.828125
v 0.000000 -0.382813 -0.351563
v 0.203125 -0.187500 0.562500
v -0.203125 -0.187500 0.562500
v 0.312500 -0.437500 0.570313
v -0.312500 -0.437500 0.570313
v 0.351563 -0.695313 0.570313
v -0.351563 -0.695313 0.570313
v 0.367188 -0.890625 0.531250
v -0.367188 -0.890625 0.531250
v 0.328125 -0.945313 0.523438
v -0.328125 -0.945313 0.523438
v 0.179688 -0.968750 0.554688
v -0.179688 -0.968750 0.554688
v 0.000000 -0.984375 0.578125
v 0.437500 -0.140625 0.531250
v -0.437500 -0.140625 0.531250
v 0.632813 -0.039063 0.539063
v -0.632813 -0.039063 0.539063
v 0.828125 0.148438 0.445313
v -0.828125 0.148438 0.445313
v 0.859375 0.429688 0.593750
v -0.859375 0.429688 0.593750
v 0.710938 0.484375 0.625000
v -0.710938 0.484375 0.625000
v 0.492188 0.601563 0.687500
v -0.492188 0.601563 0.687500
v 0.320313 0.757813 0.734375
v -0.320313 0.757813 0.734375
v 0.156250 0.718750 0.757813
v -0.156250 0.718750 0.757813
v 0.062500 0.492188 0.750000
v -0.062500 0.492188 0.750000
v 0.164063 0.414063 0.773438
v -0.164063 0.414063 0.773438
v 0.125000 0.304688 0.765625
v -0.125000 0.304688 0.765625
v 0.203125 0.093750 0.742188
v -0.203125 0.093750 0.742188
v 0.375000 0.015625 0.703125
v -0.375000 0.015625 0.703125
v 0.492188 0.062500 0.671875
v -0.492188 0.062500 0.671875
v 0.625000 0.187500 0.648438
v -0.625000 0.187500 0.648438
v 0.640625 0.296875 0.648438
v -0.640625 0.296875 0.648438
v 0.601563 0.375000 0.664063
v -0.601563 0.375000 0.664063
v 0.429688 0.437500 0.718750
v -0.429688 0.437500 0.718750
v 0.250000 0.468750 0.757813
v -0.250000 0.468750 0.757813
v 0.000000 -0.765625 0.734375
v 0.109375 -0.718750 0.734375
v -0.109375 -0.718750 0.734375
v 0.117188 -0.835938 0.710938
v -0.117188 -0.835938 0.710938
v 0.062500 -0.882813 0.695313
v -0.062500 -0.882813 0.695313
v 0.000000 -0.890625 0.687500
v 0.000000 -0.195313 0.750000
v 0.000000 -0.140625 0.742188
v 0.101563 -0.148438 0.742188
v -0.101563 -0.148438 0.742188
v 0.125000 -0.226563 0.750000
v -0.125000 -0.226563 0.750000
v 0.085938 -0.289063 0.742188
v -0.085938 -0.289063 0.742188
v 0.398438 -0.046875 0.671875
v -0.398438 -0.046875 0.671875
v 0.617188 0.054688 0.625000
v -0.617188 0.054688 0.625000
v 0.726563 0.203125 0.601563
v -0.726563 0.203125 0.601563
v 0.742188 0.375000 0.656250
v -0.742188 0.375000 0.656250
v 0.687500 0.414063 0.726563
v -0.687500 0.414063 0.726563
v 0.437500 0.546875 0.796875
v -0.437500 0.546875 0.796875
v 0.312500 0.640625 0.835938
v -0.312500 0.640625 0.835938
v 0.203125 0.617188 0.851563
v -0.203125 0.617188 0.851563
v 0.101563 0.429688 0.843750
v -0.101563 0.429688 0.843750
v 0.125000 -0.101563 0.812500
v -0.125000 -0.101563 0.812500
v 0.210938 -0.445313 0.710938
v -0.210938 -0.445313 0.710938
v 0.250000 -0.703125 0.687500
v -0.250000 -0.703125 0.687500
v 0.265625 -0.820313 0.664063
v -0.265625 -0.820313 0.664063
v 0.234375 -0.914063 0.632813
v -0.234375 -0.914063 0.632813
v 0.164063 -0.929688 0.632813
v -0.164063 -0.929688 0.632813
v 0.000000 -0.945313 0.640625
v 0.000000 0.046875 0.726563
v 0.000000 0.210938 0.765625
v 0.328125 0.476563 0.742188
v -0.328125 0.476563 0.742188
v 0.164063 0.140625 0.750000
v -0.164063 0.140625 0.750000
v 0.132813 0.210938 0.757813
v -0.132813 0.210938 0.757813
v 0.117188 -0.687500 0.734375
v -0.117188 -0.687500 0.734375
v 0.078125 -0.445313 0.750000
v -0.078125 -0.445313 0.750000
v 0.000000 -0.445313 0.750000
v 0.000000 -0.328125 0.742188
v 0.093750 -0.273438 0.781250
v -0.093750 -0.273438 0.781250
v 0.132813 -0.226563 0.796875
v -0.132813 -0.226563 0.796875
v 0.109375 -0.132813 0.781250
v -0.109375 -0.132813 0.781250
v 0.039063 -0.125000 0.781250
v -0.039063 -0.125000 0.781250
v 0.000000 -0.203125 0.828125
v 0.046875 -0.148438 0.812500
v -0.046875 -0.148438 0.812500
v 0.093750 -0.156250 0.812500
v -0.093750 -0.156250 0.812500
v 0.109375 -0.226563 0.828125
v -0.109375 -0.226563 0.828125
v 0.078125 -0.250000 0.804688
v -0.078125 -0.250000 0.804688
v 0.000000 -0.289063 0.804688
v 0.257813 -0.312500 0.554688
v -0.257813 -0.312500 0.554688
v 0.164063 -0.242188 0.710938
v -0.164063 -0.242188 0.710938
v 0.179688 -0.312500 0.710938
v -0.179688 -0.312500 0.710938
v 0.234375 -0.250000 0.554688
v -0.234375 -0.250000 0.554688
v 0.000000 -0.875000 0.687500
v 0.046875 -0.867188 0.687500
v -0.046875 -0.867188 0.687500
v 0.093750 -0.820313 0.710938
v -0.093750 -0.820313 0.710938
v 0.093750 -0.742188 0.726563
v -0.093750 -0.742188 0.726563
v 0.000000 -0.781250 0.656250
v 0.093750 -0.750000 0.664063
v -0.093750 -0.750000 0.664063
v 0.093750 -0.812500 0.640625
v -0.093750 -0.812500 0.640625
v 0.046875 -0.851563 0.632813
v -0.046875 -0.851563 0.632813
v 0.000000 -0.859375 0.632813
v 0.171875 0.218750 0.781250
v -0.171875 0.218750 0.781250
v 0.187500 0.156250 0.773438
v -0.187500 0.156250 0.773438
v 0.335938 0.429688 0.757813
v -0.335938 0.429688 0.757813
v 0.273438 0.421875 0.773438
v -0.273438 0.421875 0.773438
v 0.421875 0.398438 0.773438
v -0.421875 0.398438 0.773438
v 0.562500 0.351563 0.695313
v -0.562500 0.351563 0.695313
v 0.585938 0.289063 0.687500
v -0.585938 0.289063 0.687500
v 0.578125 0.195313 0.679688
v -0.578125 0.195313 0.679688
v 0.476563 0.101563 0.718750
v -0.476563 0.101563 0.718750
v 0.375000 0.062500 0.742188
v -0.375000 0.062500 0.742188
v 0.226563 0.109375 0.781250
v -0.226563 0.109375 0.781250
v 0.179688 0.296875 0.781250
v -0.179688 0.296875 0.781250
v 0.210938 0.375000 0.781250
v -0.210938 0.375000 0.781250
v 0.234375 0.359375 0.757813
v -0.234375 0.359375 0.757813
v 0.195313 0.296875 0.757813
v -0.195313 0.296875 0.757813
v 0.242188 0.125000 0.757813
v -0.242188 0.125000 0.757813
v 0.375000 0.085938 0.726563
v -0.375000 0.085938 0.726563
v 0.460938 0.117188 0.703125
v -0.460938 0.117188 0.703125
v 0.546875 0.210938 0.671875
v -0.546875 0.210938 0.671875
v 0.554688 0.281250 0.671875
v -0.554688 0.281250 0.671875
v 0.531250 0.335938 0.679688
v -0.531250 0.335938 0.679688
v 0.414063 0.390625 0.750000
v -0.414063 0.390625 0.750000
v 0.281250 0.398438 0.765625
v -0.281250 0.398438 0.765625
v 0.335938 0.406250 0.750000
v -0.335938 0.406250 0.750000
v 0.203125 0.171875 0.750000
v -0.203125 0.171875 0.750000
v 0.195313 0.226563 0.750000
v -0.195313 0.226563 0.750000
v 0.109375 0.460938 0.609375
v -0.109375 0.460938 0.609375
v 0.195313 0.664063 0.617188
v -0.195313 0.664063 0.617188
v 0.335938 0.687500 0.593750
v -0.335938 0.687500 0.593750
v 0.484375 0.554688 0.554688
v -0.484375 0.554688 0.554688
v 0.679688 0.453125 0.492188
v -0.679688 0.453125 0.492188
v 0.796875 0.406250 0.460938
v -0.796875 0.406250 0.460938
v 0.773438 0.164063 0.375000
v -0.773438 0.164063 0.375000
v 0.601563 0.000000 0.414063
v -0.601563 0.000000 0.414063
v 0.437500 -0.093750 0.468750
v -0.437500 -0.093750 0.468750
v 0.000000 0.898438 0.289063
v 0.000000 0.984375 -0.078125
v 0.000000 -0.195313 -0.671875
v 0.000000 -0.460938 0.187500
v 0.000000 -0.976563 0.460938
v 0.000000 -0.804688 0.343750
v 0.000000 -0.570313 0.320313
v 0.000000 -0.484375 0.281250
v 0.851563 0.234375 0.054688
v -0.851563 0.234375 0.054688
v 0.859375 0.320313 -0.046875
v -0.859375 0.320313 -0.046875
v 0.773438 0.265625 -0.437500
v -0.773438 0.265625 -0.437500
v 0.460938 0.437500 -0.703125
v -0.460938 0.437500 -0.703125
v 0.734375 -0.046875 0.070313
v -0.734375 -0.046875 0.070313
v 0.593750 -0.125000 -0.164063
v -0.593750 -0.125000 -0.164063
v 0.640625 -0.007813 -0.429688
v -0.640625 -0.007813 -0.429688
v 0.335938 0.054688 -0.664063
v -0.335938 0.054688 -0.664063
v 0.234375 -0.351563 0.406250
v -0.234375 -0.351563 0.406250
v 0.179688 -0.414063 0.257813
v -0.179688 -0.414063 0.257813
v 0.289063 -0.710938 0.382813
v -0.289063 -0.710938 0.382813
v 0.250000 -0.500000 0.390625
v -0.250000 -0.500000 0.390625
v 0.328125 -0.914063 0.398438
v -0.328125 -0.914063 0.398438
v 0.140625 -0.757813 0.367188
v -0.140625 -0.757813 0.367188
v 0.125000 -0.539063 0.359375
v -0.125000 -0.539063 0.359375
v 0.164063 -0.945313 0.437500
v -0.164063 -0.945313 0.437500
v 0.218750 -0.281250 0.429688
v -0.218750 -0.281250 0.429688
v 0.210938 -0.226563 0.468750
v -0.210938 -0.226563 0.468750
v 0.203125 -0.171875 0.500000
v -0.203125 -0.171875 0.500000
v 0.210938 -0.390625 0.164063
v -0.210938 -0.390625 0.164063
v 0.296875 -0.312500 -0.265625
v -0.296875 -0.312500 -0.265625
v 0.343750 -0.148438 -0.539063
v -0.343750 -0.148438 -0.539063
v 0.453125 0.867188 -0.382813
v -0.453125 0.867188 -0.382813
v 0.453125 0.929688 -0.070313
v -0.453125 0.929688 -0.070313
v 0.453125 0.851563 0.234375
v -0.453125 0.851563 0.234375
v 0.460938 0.523438 0.429688
v -0.460938 0.523438 0.429688
v 0.726563 0.406250 0.335938
v -0.726563 0.406250 0.335938
v 0.632813 0.453125 0.281250
v -0.632813 0.453125 0.281250
v 0.640625 0.703125 0.054688
v -0.640625 0.703125 0.054688
v 0.796875 0.562500 0.125000
v -0.796875 0.562500 0.125000
v 0.796875 0.617188 -0.117188
v -0.796875 0.617188 -0.117188
v 0.640625 0.750000 -0.195313
v -0.640625 0.750000 -0.195313
v 0.640625 0.679688 -0.445313
v -0.640625 0.679688 -0.445313
v 0.796875 0.539063 -0.359375
v -0.796875 0.539063 -0.359375
v 0.617188 0.328125 -0.585938
v -0.617188 0.328125 -0.585938
v 0.484375 0.023438 -0.546875
v -0.484375 0.023438 -0.546875
v 0.820313 0.328125 -0.203125
v -0.820313 0.328125 -0.203125
v 0.406250 -0.171875 0.148438
v -0.406250 -0.171875 0.148438
v 0.429688 -0.195313 -0.210938
v -0.429688 -0.195313 -0.210938
v 0.890625 0.406250 -0.234375
v -0.890625 0.406250 -0.234375
v 0.773438 -0.140625 -0.125000
v -0.773438 -0.140625 -0.125000
v 1.039063 -0.101563 -0.328125
v -1.039063 -0.101563 -0.328125
v 1.281250 0.054688 -0.429688
v -1.281250 0.054688 -0.429688
v 1.351563 0.320313 -0.421875
v -1.351563 0.320313 -0.421875
v 1.234375 0.507813 -0.421875
v -1.234375 0.507813 -0.421875
v 1.023438 0.476563 -0.312500
v -1.023438 0.476563 -0.312500
v 1.015625 0.414063 -0.289063
v -1.015625 0.414063 -0.289063
v 1.187500 0.437500 -0.390625
v -1.187500 0.437500 -0.390625
v 1.265625 0.289063 -0.406250
v -1.265625 0.289063 -0.406250
v 1.210938 0.078125 -0.406250
v -1.210938 0.078125 -0.406250
v 1.031250 -0.039063 -0.304688
v -1.031250 -0.039063 -0.304688
v 0.828125 -0.070313 -0.132813
v -0.828125 -0.070313 -0.132813
v 0.921875 0.359375 -0.218750
v -0.921875 0.359375 -0.218750
v 0.945313 0.304688 -0.289063
v -0.945313 0.304688 -0.289063
v 0.882813 -0.023438 -0.210938
v -0.882813 -0.023438 -0.210938
v 1.039063 0.000000 -0.367188
v -1.039063 0.000000 -0.367188
v 1.187500 0.093750 -0.445313
v -1.187500 0.093750 -0.445313
v 1.234375 0.250000 -0.445313
v -1.234375 0.250000 -0.445313
v 1.171875 0.359375 -0.437500
v -1.171875 0.359375 -0.437500
v 1.023438 0.343750 -0.359375
v -1.023438 0.343750 -0.359375
v 0.843750 0.289063 -0.210938
v -0.843750 0.289063 -0.210938
v 0.835938 0.171875 -0.273438
v -0.835938 0.171875 -0.273438
v 0.757813 0.093750 -0.273438
v -0.757813 0.093750 -0.273438
v 0.820313 0.085938 -0.273438
v -0.820313 0.085938 -0.273438
v 0.843750 0.015625 -0.273438
v -0.843750 0.015625 -0.273438
v 0.812500 -0.015625 -0.273438
v -0.812500 -0.015625 -0.273438
v 0.726563 0.000000 -0.070313
v -0.726563 0.000000 -0.070313
v 0.718750 -0.023438 -0.171875
v -0.718750 -0.023438 -0.171875
v 0.718750 0.039063 -0.187500
v -0.718750 0.039063 -0.187500
v 0.796875 0.203125 -0.210938
v -0.796875 0.203125 -0.210938
v 0.890625 0.242188 -0.265625
v -0.890625 0.242188 -0.265625
v 0.890625 0.234375 -0.320313
v -0.890625 0.234375 -0.320313
v 0.812500 -0.015625 -0.320313
v -0.812500 -0.015625 -0.320313
v 0.851563 0.015625 -0.320313
v -0.851563 0.015625 -0.320313
v 0.828125 0.078125 -0.320313
v -0.828125 0.078125 -0.320313
v 0.765625 0.093750 -0.320313
v -0.765625 0.093750 -0.320313
v 0.843750 0.171875 -0.320313
v -0.843750 0.171875 -0.320313
v 1.039063 0.328125 -0.414063
v -1.039063 0.328125 -0.414063
v 1.187500 0.343750 -0.484375
v -1.187500 0.343750 -0.484375
v 1.257813 0.242188 -0.492188
v -1.257813 0.242188 -0.492188
v 1.210938 0.085938 -0.484375
v -1.210938 0.085938 -0.484375
v 1.046875 0.000000 -0.421875
v -1.046875 0.000000 -0.421875
v 0.882813 -0.015625 -0.265625
v -0.882813 -0.015625 -0.265625
v 0.953125 0.289063 -0.343750
v -0.953125 0.289063 -0.343750
v 0.890625 0.109375 -0.328125
v -0.890625 0.109375 -0.328125
v 0.937500 0.062500 -0.335938
v -0.937500 0.062500 -0.335938
v 1.000000 0.125000 -0.367188
v -1.000000 0.125000 -0.367188
v 0.960938 0.171875 -0.351563
v -0.960938 0.171875 -0.351563
v 1.015625 0.234375 -0.375000
v -1.015625 0.234375 -0.375000
v 1.054688 0.187500 -0.382813
v -1.054688 0.187500 -0.382813
v 1.109375 0.210938 -0.390625
v -1.109375 0.210938 -0.390625
v 1.085938 0.273438 -0.390625
v -1.085938 0.273438 -0.390625
v 1.023438 0.437500 -0.484375
v -1.023438 0.437500 -0.484375
v 1.250000 0.468750 -0.546875
v -1.250000 0.468750 -0.546875
v 1.367188 0.296875 -0.500000
v -1.367188 0.296875 -0.500000
v 1.312500 0.054688 -0.531250
v -1.312500 0.054688 -0.531250
v 1.039063 -0.085938 -0.492188
v -1.039063 -0.085938 -0.492188
v 0.789063 -0.125000 -0.328125
v -0.789063 -0.125000 -0.328125
v 0.859375 0.382813 -0.382813
v -0.859375 0.382813 -0.382813
vn 0.400039 -0.062344 0.914375
vn -0.400039 -0.062344 0.914375
vn 0.306938 -0.175393 0.935429
vn -0.306938 -0.175393 0.935429
vn 0.094512 -0.183464 0.978473
vn -0.094512 -0.183464 0.978473
vn -0.062353 -0.028342 0.997652
vn 0.062353 -0.028342 0.997652
vn -0.062357 0.025982 0.997716
vn 0.062357 0.025982 0.997716
vn 0.099561 0.172922 0.979891
vn -0.099561 0.172922 0.979891
vn 0.303571 0.165584 0.938310
vn -0.303571 0.165584 0.938310
vn 0.400163 0.057166 0.914659
vn -0.400163 0.057166 0.914659
vn 0.135293 -0.347895 0.927720
vn -0.135293 -0.347895 0.927720
vn -0.161572 0.184654 0.969432
vn 0.161572 0.184654 0.969432
vn 0.732489 -0.636817 0.240675
vn -0.732489 -0.636817 0.240675
vn 0.263732 -0.449896 0.853252
vn -0.263732 -0.449896 0.853252
vn 0.497205 -0.440774 -0.747333
vn -0.497205 -0.440774 -0.747333
vn 0.997202 -0.018131 -0.072524
vn -0.997202 -0.018131 -0.072524
vn 0.297964 0.580246 0.757979
vn -0.297964 0.580246 0.757979
vn 0.404624 0.026581 -0.914097
vn -0.404624 0.026581 -0.914097
vn 0.360377 -0.828294 -0.429020
vn 0.068684 -0.994282 -0.081767
vn -0.360377 -0.828294 -0.429020
vn -0.068684 -0.994282 -0.081767
vn -0.684353 -0.171088 -0.708794
vn -0.419982 -0.229081 -0.878144
vn 0.684353 -0.171088 -0.708794
vn 0.419982 -0.229081 -0.878144
vn 0.733011 0.678579 0.047174
vn 0.807309 0.590114 0.004098
vn -0.807309 0.590114 0.004098
vn -0.733011 0.678579 0.047174
vn 0.255561 -0.074948 -0.963883
vn 0.146646 0.010386 -0.989134
vn -0.255561 -0.074948 -0.963883
vn -0.146646 0.010386 -0.989134
vn 0.547026 -0.014395 -0.836992
vn 0.525631 -0.002993 -0.850708
vn -0.525631 -0.002993 -0.850708
vn -0.547026 -0.014395 -0.836992
vn 0.419582 0.885145 -0.201169
vn 0.484098 0.874267 -0.036127
vn -0.484098 0.874267 -0.036127
vn -0.419582 0.885145 -0.201169
vn 0.214568 0.924293 -0.315663
vn 0.251071 0.943898 -0.214522
vn -0.251071 0.943898 -0.214522
vn -0.214568 0.924293 -0.315663
vn -0.826663 0.562687 -0.003473
vn -0.846495 0.529059 -0.059519
vn 0.846495 0.529059 -0.059519
vn 0.826663 0.562687 -0.003473
vn -0.926415 -0.245971 0.285051
vn -0.930889 -0.254130 0.262417
vn 0.930889 -0.254130 0.262417
vn 0.926415 -0.245971 0.285051
vn -0.516067 -0.852690 -0.081209
vn -0.468784 -0.871457 0.144241
vn 0.516067 -0.852690 -0.081209
vn 0.468784 -0.871457 0.144241
vn -0.093117 -0.993245 -0.069241
vn -0.092924 -0.991188 -0.094399
vn 0.093117 -0.993245 -0.069241
vn 0.092924 -0.991188 -0.094399
vn -0.577089 0.216409 0.787487
vn -0.500196 0.283348 0.818240
vn 0.577089 0.216409 0.787487
vn 0.500196 0.283348 0.818240
vn -0.297527 -0.406239 0.863972
vn -0.578610 -0.133351 0.804629
vn 0.578610 -0.133351 0.804629
vn 0.297527 -0.406239 0.863972
vn -0.472320 -0.198589 0.858764
vn -0.438819 -0.200755 0.875862
vn 0.438819 -0.200755 0.875862
vn 0.472320 -0.198589 0.858764
vn -0.557086 -0.148556 0.817060
vn -0.669312 0.180199 0.720798
vn 0.557086 -0.148556 0.817060
vn 0.669312 0.180199 0.720798
vn 0.298142 0.745356 0.596285
vn 0.487049 0.608811 0.626205
vn -0.487049 0.608811 0.626205
vn -0.298142 0.745356 0.596285
vn -0.135079 -0.022513 0.990579
vn 0.000000 0.000000 1.000000
vn 0.135079 -0.022513 0.990579
vn -0.256989 0.072278 0.963708
vn -0.252982 -0.189737 0.948683
vn 0.252982 -0.189737 0.948683
vn 0.256989 0.072278 0.963708
vn -0.424421 -0.032032 0.904898
vn -0.378665 -0.036410 0.924817
vn 0.378665 -0.036410 0.924817
vn 0.424421 -0.032032 0.904898
vn -0.567881 0.191574 0.800507
vn 0.009916 0.386708 0.922149
vn 0.567881 0.191574 0.800507
vn -0.009916 0.386708 0.922149
vn -0.122027 0.045760 0.991471
vn -0.210358 0.012374 0.977546
vn 0.210358 0.012374 0.977546
vn 0.122027 0.045760 0.991471
vn -0.322800 -0.046114 0.945343
vn -0.300945 0.092599 0.949135
vn 0.322800 -0.046114 0.945343
vn 0.300945 0.092599 0.949135
vn -0.413449 0.041345 0.909588
vn -0.246106 0.085190 0.965492
vn 0.246106 0.085190 0.965492
vn 0.413449 0.041345 0.909588
vn -0.173777 0.009654 0.984738
vn -0.104604 0.039227 0.993740
vn 0.104604 0.039227 0.993740
vn 0.173777 0.009654 0.984738
vn 0.109559 0.993857 -0.015651
vn 0.007071 0.989925 0.141418
vn -0.007071 0.989925 0.141418
vn -0.109559 0.993857 -0.015651
vn 0.543305 0.698536 -0.465690
vn 0.562140 0.823134 -0.080306
vn -0.562140 0.823134 -0.080306
vn -0.543305 0.698536 -0.465690
vn 0.853766 0.232845 -0.465690
vn 0.809617 0.242885 -0.534347
vn -0.809617 0.242885 -0.534347
vn -0.853766 0.232845 -0.465690
vn 0.865125 -0.485314 -0.126604
vn 0.792930 -0.525187 -0.308934
vn -0.865125 -0.485314 -0.126604
vn -0.792930 -0.525187 -0.308934
vn -0.271445 -0.902154 0.335314
vn -0.275241 -0.880771 0.385337
vn 0.271445 -0.902154 0.335314
vn 0.275241 -0.880771 0.385337
vn -0.626572 -0.721149 0.295553
vn -0.619724 -0.689882 0.374173
vn 0.626572 -0.721149 0.295553
vn 0.619724 -0.689882 0.374173
vn 0.015712 0.989827 0.141404
vn 0.000000 1.000000 0.000000
vn -0.015712 0.989827 0.141404
vn -0.707107 -0.707107 0.000000
vn -0.621336 -0.776671 0.103556
vn 0.707107 -0.707107 0.000000
vn 0.621336 -0.776671 0.103556
vn -0.925132 0.346925 0.154189
vn -0.943456 0.314485 0.104828
vn 0.943456 0.314485 0.104828
vn 0.925132 0.346925 0.154189
vn -0.240772 0.963087 -0.120386
vn -0.124008 0.992066 0.020668
vn 0.124008 0.992066 0.020668
vn 0.240772 0.963087 -0.120386
vn -0.702247 -0.702247 0.117041
vn 0.702247 -0.702247 0.117041
vn -0.792982 -0.594737 0.132164
vn -0.781499 -0.617636 0.088234
vn 0.781499 -0.617636 0.088234
vn 0.792982 -0.594737 0.132164
vn -0.766105 -0.636256 0.090894
vn -0.689496 -0.664423 0.288335
vn 0.766105 -0.636256 0.090894
vn 0.689496 -0.664423 0.288335
vn -0.871673 -0.444553 -0.206296
vn -0.922712 -0.376548 -0.082547
vn 0.922712 -0.376548 -0.082547
vn 0.871673 -0.444553 -0.206296
vn -0.171249 -0.093409 0.980790
vn -0.955108 -0.163648 -0.246959
vn 0.955108 -0.163648 -0.246959
vn 0.171249 -0.093409 0.980790
vn -0.613754 -0.257113 0.746458
vn -0.559681 -0.553321 0.616922
vn 0.559681 -0.553321 0.616922
vn 0.613754 -0.257113 0.746458
vn -0.581515 -0.521653 0.624274
vn -0.572384 -0.312209 0.758223
vn 0.572384 -0.312209 0.758223
vn 0.581515 -0.521653 0.624274
vn -0.900782 -0.407496 0.150130
vn -0.553372 -0.553372 0.622543
vn 0.553372 -0.553372 0.622543
vn 0.900782 -0.407496 0.150130
vn -0.531271 0.584398 0.613376
vn 0.531271 0.584398 0.613376
vn -0.717741 0.168880 0.675521
vn -0.447955 -0.447955 0.773740
vn 0.447955 -0.447955 0.773740
vn 0.717741 0.168880 0.675521
vn 0.233516 0.897193 0.374854
vn -0.273408 0.906367 0.322097
vn -0.233516 0.897193 0.374854
vn 0.273408 0.906367 0.322097
vn -0.178174 -0.089087 0.979958
vn -0.039984 0.339864 0.939624
vn 0.178174 -0.089087 0.979958
vn 0.039984 0.339864 0.939624
vn -0.904560 -0.386856 -0.179205
vn -0.904186 -0.357840 -0.233235
vn 0.904560 -0.386856 -0.179205
vn 0.904186 -0.357840 -0.233235
vn 0.217521 0.273296 0.937013
vn 0.178808 0.292337 0.939450
vn -0.178808 0.292337 0.939450
vn -0.217521 0.273296 0.937013
vn -0.630202 -0.765768 0.128239
vn -0.750717 -0.613086 -0.246068
vn 0.750717 -0.613086 -0.246068
vn 0.630202 -0.765768 0.128239
vn -0.688802 -0.442802 0.574002
vn -0.710358 -0.456659 0.535588
vn 0.688802 -0.442802 0.574002
vn 0.710358 -0.456659 0.535588
vn -0.438976 -0.525204 0.729014
vn -0.466310 -0.599079 0.650891
vn 0.466310 -0.599079 0.650891
vn 0.438976 -0.525204 0.729014
vn 0.524176 -0.354827 0.774168
vn 0.525673 -0.357905 0.771733
vn -0.525673 -0.357905 0.771733
vn -0.524176 -0.354827 0.774168
vn 0.788502 0.236551 0.567722
vn 0.857614 0.222344 0.463747
vn -0.857614 0.222344 0.463747
vn -0.788502 0.236551 0.567722
vn 0.265483 0.829636 0.491144
vn 0.267527 0.831765 0.486412
vn -0.265483 0.829636 0.491144
vn -0.267527 0.831765 0.486412
vn -0.407491 0.750641 0.520087
vn -0.484318 0.558018 0.673834
vn 0.407491 0.750641 0.520087
vn 0.484318 0.558018 0.673834
vn -0.650897 -0.193884 0.733990
vn -0.595688 -0.384986 0.704941
vn 0.650897 -0.193884 0.733990
vn 0.595688 -0.384986 0.704941
vn -0.584705 -0.219755 0.780915
vn -0.339755 0.082365 0.936900
vn 0.339755 0.082365 0.936900
vn 0.584705 -0.219755 0.780915
vn -0.292478 -0.075828 0.953261
vn -0.207614 -0.083622 0.974630
vn 0.207614 -0.083622 0.974630
vn 0.292478 -0.075828 0.953261
vn -0.181659 -0.007898 0.983330
vn -0.318838 0.199274 0.926624
vn 0.318838 0.199274 0.926624
vn 0.181659 -0.007898 0.983330
vn -0.464866 0.259346 0.846545
vn -0.446708 0.097464 0.889355
vn 0.464866 0.259346 0.846545
vn 0.446708 0.097464 0.889355
vn -0.324443 0.486664 0.811107
vn -0.369098 0.285529 0.884443
vn 0.369098 0.285529 0.884443
vn 0.324443 0.486664 0.811107
vn -0.736521 -0.615372 -0.280809
vn -0.697341 -0.661021 -0.277068
vn 0.697341 -0.661021 -0.277068
vn 0.736521 -0.615372 -0.280809
vn -0.214362 -0.834108 -0.508244
vn -0.446259 -0.845188 -0.294125
vn 0.446259 -0.845188 -0.294125
vn 0.214362 -0.834108 -0.508244
vn -0.539638 -0.334289 -0.772685
vn -0.469354 -0.239970 -0.849777
vn 0.469354 -0.239970 -0.849777
vn 0.539638 -0.334289 -0.772685
vn -0.523608 -0.328992 -0.785875
vn -0.588064 -0.307010 -0.748282
vn 0.588064 -0.307010 -0.748282
vn 0.523608 -0.328992 -0.785875
vn -0.307017 -0.523735 0.794633
vn -0.632788 -0.764224 0.124661
vn 0.307017 -0.523735 0.794633
vn 0.632788 -0.764224 0.124661
vn -0.528122 -0.835411 0.152235
vn -0.398590 -0.875437 0.273378
vn 0.528122 -0.835411 0.152235
vn 0.398590 -0.875437 0.273378
vn -0.372004 -0.924373 0.084546
vn -0.372268 -0.924250 0.084723
vn 0.372268 -0.924250 0.084723
vn 0.372004 -0.924373 0.084546
vn -0.637407 -0.765079 0.091466
vn -0.746645 -0.664612 0.028490
vn 0.746645 -0.664612 0.028490
vn 0.637407 -0.765079 0.091466
vn -0.995589 0.089286 -0.028802
vn -0.981655 -0.030360 -0.188235
vn 0.981655 -0.030360 -0.188235
vn 0.995589 0.089286 -0.028802
vn -0.961281 0.147200 -0.232960
vn -0.974975 0.216855 0.048967
vn 0.961281 0.147200 -0.232960
vn 0.974975 0.216855 0.048967
vn -0.975807 0.124056 0.180033
vn -0.927613 0.076242 0.365680
vn 0.975807 0.124056 0.180033
vn 0.927613 0.076242 0.365680
vn -0.933951 0.225489 0.277291
vn -0.868096 0.089260 -0.488304
vn 0.868096 0.089260 -0.488304
vn 0.933951 0.225489 0.277291
vn 0.263846 0.946247 -0.187091
vn -0.292531 0.567427 0.769709
vn -0.263846 0.946247 -0.187091
vn 0.292531 0.567427 0.769709
vn 0.178174 0.089087 -0.979958
vn 0.170233 0.109686 -0.979280
vn -0.170233 0.109686 -0.979280
vn -0.178174 0.089087 -0.979958
vn -0.154817 0.508036 0.847308
vn -0.285430 0.623718 0.727671
vn 0.285430 0.623718 0.727671
vn 0.154817 0.508036 0.847308
vn -0.323790 0.943389 -0.071953
vn -0.366927 0.883961 -0.289789
vn 0.366927 0.883961 -0.289789
vn 0.323790 0.943389 -0.071953
vn -0.688531 0.382966 0.615842
vn -0.779118 0.407418 0.476430
vn 0.688531 0.382966 0.615842
vn 0.779118 0.407418 0.476430
vn -0.708828 0.683278 0.175199
vn -0.728932 0.672860 0.126161
vn 0.708828 0.683278 0.175199
vn 0.728932 0.672860 0.126161
vn -0.628942 0.762354 -0.152471
vn -0.657395 0.725402 -0.204019
vn 0.628942 0.762354 -0.152471
vn 0.657395 0.725402 -0.204019
vn -0.317910 0.570368 -0.757373
vn -0.682297 0.231849 -0.693338
vn 0.317910 0.570368 -0.757373
vn 0.682297 0.231849 -0.693338
vn -0.630409 0.251702 -0.734323
vn -0.710443 0.136367 -0.690417
vn 0.710443 0.136367 -0.690417
vn 0.630409 0.251702 -0.734323
vn -0.693451 0.685709 -0.221197
vn -0.712453 0.675511 -0.189988
vn 0.693451 0.685709 -0.221197
vn 0.712453 0.675511 -0.189988
vn -0.614433 0.769593 0.173779
vn -0.596552 0.788828 0.147905
vn 0.614433 0.769593 0.173779
vn 0.596552 0.788828 0.147905
vn -0.045220 0.795467 0.604308
vn -0.256133 0.644711 0.720238
vn 0.045220 0.795467 0.604308
vn 0.256133 0.644711 0.720238
vn -0.323051 0.928772 -0.181716
vn -0.495100 0.861841 -0.110022
vn 0.323051 0.928772 -0.181716
vn 0.495100 0.861841 -0.110022
vn -0.313998 0.571101 -0.758452
vn -0.387799 0.619241 -0.682753
vn 0.313998 0.571101 -0.758452
vn 0.387799 0.619241 -0.682753
vn -0.120835 0.973396 -0.194679
vn -0.131962 0.975005 -0.178751
vn 0.120835 0.973396 -0.194679
vn 0.131962 0.975005 -0.178751
vn -0.111918 0.962578 0.246815
vn -0.127188 0.965780 0.226034
vn 0.127188 0.965780 0.226034
vn 0.111918 0.962578 0.246815
vn -0.418903 -0.226512 -0.879325
vn -0.295027 -0.045448 -0.954408
vn 0.295027 -0.045448 -0.954408
vn 0.418903 -0.226512 -0.879325
vn -0.686895 -0.635774 0.352088
vn -0.916562 -0.374043 0.141445
vn 0.686895 -0.635774 0.352088
vn 0.916562 -0.374043 0.141445
vn -0.864191 -0.473705 0.169638
vn -0.830482 0.333323 -0.446313
vn 0.830482 0.333323 -0.446313
vn 0.864191 -0.473705 0.169638
vn -0.299629 -0.944285 -0.136195
vn -0.328655 -0.916251 -0.229063
vn 0.299629 -0.944285 -0.136195
vn 0.328655 -0.916251 -0.229063
vn -0.261968 -0.957375 -0.121675
vn -0.299535 -0.944221 -0.136844
vn 0.261968 -0.957375 -0.121675
vn 0.299535 -0.944221 -0.136844
vn -0.326270 -0.834200 -0.444588
vn -0.298594 -0.823644 -0.482133
vn 0.298594 -0.823644 -0.482133
vn 0.326270 -0.834200 -0.444588
vn -0.372685 -0.475901 -0.796633
vn -0.369277 -0.471184 -0.801012
vn 0.369277 -0.471184 -0.801012
vn 0.372685 -0.475901 -0.796633
vn -0.183497 -0.786416 -0.589812
vn -0.159617 -0.957704 -0.239426
vn 0.159617 -0.957704 -0.239426
vn 0.183497 -0.786416 -0.589812
vn -0.950148 0.245544 -0.192165
vn -0.894509 0.433701 0.108425
vn 0.894509 0.433701 0.108425
vn 0.950148 0.245544 -0.192165
vn -0.933713 0.281311 -0.221458
vn -0.900405 0.364177 -0.238005
vn 0.900405 0.364177 -0.238005
vn 0.933713 0.281311 -0.221458
vn -0.945694 0.267261 -0.185027
vn -0.917286 0.343982 -0.200656
vn 0.917286 0.343982 -0.200656
vn 0.945694 0.267261 -0.185027
vn -0.919260 0.139282 -0.368188
vn -0.920213 0.135518 -0.367211
vn 0.919260 0.139282 -0.368188
vn 0.920213 0.135518 -0.367211
vn -0.370576 -0.677954 -0.634864
vn -0.909376 0.137065 -0.392745
vn 0.909376 0.137065 -0.392745
vn 0.370576 -0.677954 -0.634864
vn 0.149683 -0.363517 -0.919484
vn -0.121066 -0.052967 -0.991230
vn 0.121066 -0.052967 -0.991230
vn -0.149683 -0.363517 -0.919484
vn -0.113195 -0.027386 -0.993195
vn -0.219221 0.076621 -0.972662
vn 0.113195 -0.027386 -0.993195
vn 0.219221 0.076621 -0.972662
vn -0.935848 0.139584 -0.323581
vn -0.927816 0.183840 -0.324592
vn 0.935848 0.139584 -0.323581
vn 0.927816 0.183840 -0.324592
vn -0.815044 -0.562099 -0.140525
vn -0.939565 0.157293 -0.304100
vn 0.815044 -0.562099 -0.140525
vn 0.939565 0.157293 -0.304100
vn -0.109450 -0.971782 -0.208950
vn -0.126029 -0.962407 -0.240602
vn 0.109450 -0.971782 -0.208950
vn 0.126029 -0.962407 -0.240602
vn -0.077851 -0.994757 -0.066317
vn -0.153296 -0.964861 -0.213412
vn 0.077851 -0.994757 -0.066317
vn 0.153296 -0.964861 -0.213412
vn -0.256245 -0.311155 -0.915162
vn 0.010730 -0.563304 -0.826180
vn -0.010730 -0.563304 -0.826180
vn 0.256245 -0.311155 -0.915162
vn -0.301108 -0.012546 -0.953508
vn -0.195180 -0.097590 -0.975900
vn 0.195180 -0.097590 -0.975900
vn 0.301108 -0.012546 -0.953508
vn -0.164909 -0.664414 -0.728944
vn -0.361678 -0.385790 -0.848738
vn 0.361678 -0.385790 -0.848738
vn 0.164909 -0.664414 -0.728944
vn -0.402739 -0.732252 -0.549189
vn -0.369484 -0.856639 -0.360071
vn 0.402739 -0.732252 -0.549189
vn 0.369484 -0.856639 -0.360071
vn -0.544157 -0.752414 -0.371169
vn -0.510781 -0.664871 -0.545023
vn 0.544157 -0.752414 -0.371169
vn 0.510781 -0.664871 -0.545023
vn -0.796447 0.132300 -0.590059
vn -0.887283 0.134291 -0.441243
vn 0.887283 0.134291 -0.441243
vn 0.796447 0.132300 -0.590059
vn -0.276049 0.915865 -0.291529
vn -0.290082 0.914097 -0.283336
vn 0.276049 0.915865 -0.291529
vn 0.290082 0.914097 -0.283336
vn -0.365308 0.883310 -0.293792
vn -0.371427 0.868458 -0.328363
vn 0.371427 0.868458 -0.328363
vn 0.365308 0.883310 -0.293792
vn -0.591352 0.748894 -0.299101
vn -0.593246 0.744466 -0.306317
vn 0.593246 0.744466 -0.306317
vn 0.591352 0.748894 -0.299101
vn 0.219716 0.862587 -0.455706
vn 0.266352 0.871042 -0.412725
vn -0.266352 0.871042 -0.412725
vn -0.219716 0.862587 -0.455706
vn 0.850680 0.365049 -0.378263
vn 0.851538 0.374383 -0.367042
vn -0.850680 0.365049 -0.378263
vn -0.851538 0.374383 -0.367042
vn 0.635707 0.681115 -0.363261
vn 0.433796 0.888752 -0.148125
vn -0.635707 0.681115 -0.363261
vn -0.433796 0.888752 -0.148125
vn -0.786796 0.121046 0.605228
vn -0.781404 0.111629 0.613960
vn 0.786796 0.121046 0.605228
vn 0.781404 0.111629 0.613960
vn -0.806970 -0.080697 0.585053
vn -0.830474 -0.061517 0.553650
vn 0.806970 -0.080697 0.585053
vn 0.830474 -0.061517 0.553650
vn -0.789474 -0.315789 0.526316
vn -0.542520 -0.339075 0.768570
vn 0.789474 -0.315789 0.526316
vn 0.542520 -0.339075 0.768570
vn -0.498784 0.529958 0.685828
vn 0.498784 0.529958 0.685828
vn -0.337822 0.522089 0.783134
vn -0.377792 0.634152 0.674629
vn 0.377792 0.634152 0.674629
vn 0.337822 0.522089 0.783134
vn 0.048679 0.681509 0.730189
vn 0.021330 0.554574 0.831861
vn -0.021330 0.554574 0.831861
vn -0.048679 0.681509 0.730189
vn 0.024676 0.407159 0.913024
vn 0.279713 0.524463 0.804176
vn -0.024676 0.407159 0.913024
vn -0.279713 0.524463 0.804176
vn 0.456759 0.050751 0.888142
vn 0.269181 -0.057682 0.961361
vn -0.269181 -0.057682 0.961361
vn -0.456759 0.050751 0.888142
vn 0.335624 -0.239732 0.910980
vn 0.370673 -0.285133 0.883912
vn -0.335624 -0.239732 0.910980
vn -0.370673 -0.285133 0.883912
vn 0.201574 -0.907083 0.369552
vn -0.082339 -0.782218 0.617540
vn 0.082339 -0.782218 0.617540
vn -0.201574 -0.907083 0.369552
vn 0.063119 -0.315597 0.946792
vn 0.376595 -0.833888 0.403494
vn -0.376595 -0.833888 0.403494
vn -0.063119 -0.315597 0.946792
vn -0.262705 -0.225176 0.938233
vn -0.301511 -0.301511 0.904534
vn 0.262705 -0.225176 0.938233
vn 0.301511 -0.301511 0.904534
vn -0.447549 -0.469927 0.760834
vn -0.082903 -0.290159 0.953381
vn 0.447549 -0.469927 0.760834
vn 0.082903 -0.290159 0.953381
vn -0.030080 0.230612 0.972581
vn 0.087030 0.275594 0.957326
vn 0.030080 0.230612 0.972581
vn -0.087030 0.275594 0.957326
vn -0.145172 0.377446 0.914582
vn -0.188144 0.338659 0.921906
vn 0.145172 0.377446 0.914582
vn 0.188144 0.338659 0.921906
vn -0.335769 0.347761 0.875398
vn -0.179587 0.788189 0.588648
vn 0.335769 0.347761 0.875398
vn 0.179587 0.788189 0.588648
vn -0.521382 0.657395 0.544051
vn -0.408248 0.408248 0.816497
vn 0.408248 0.408248 0.816497
vn 0.521382 0.657395 0.544051
vn -0.577350 0.115470 0.808290
vn -0.565685 0.119664 0.815892
vn 0.565685 0.119664 0.815892
vn 0.577350 0.115470 0.808290
vn -0.587096 -0.083871 0.805161
vn -0.537784 -0.114422 0.835282
vn 0.587096 -0.083871 0.805161
vn 0.537784 -0.114422 0.835282
vn -0.476654 -0.355712 0.803909
vn -0.654659 -0.458936 0.600666
vn 0.476654 -0.355712 0.803909
vn 0.654659 -0.458936 0.600666
vn -0.424182 -0.621123 0.658996
vn -0.389976 -0.589498 0.707398
vn 0.424182 -0.621123 0.658996
vn 0.389976 -0.589498 0.707398
vn 0.115617 -0.635891 0.763070
vn 0.159944 -0.879690 0.447842
vn -0.115617 -0.635891 0.763070
vn -0.159944 -0.879690 0.447842
vn 0.668410 -0.459532 0.584858
vn 0.433224 -0.487377 0.758143
vn -0.433224 -0.487377 0.758143
vn -0.668410 -0.459532 0.584858
vn 0.259500 0.103800 0.960149
vn 0.171716 -0.009038 0.985105
vn -0.171716 -0.009038 0.985105
vn -0.259500 0.103800 0.960149
vn 0.494480 -0.113024 0.861809
vn 0.271039 0.027104 0.962187
vn -0.494480 -0.113024 0.861809
vn -0.271039 0.027104 0.962187
vn 0.548821 -0.329293 0.768350
vn 0.468122 -0.223885 0.854832
vn -0.548821 -0.329293 0.768350
vn -0.468122 -0.223885 0.854832
vn -0.047836 -0.287019 0.956730
vn -0.021652 -0.303133 0.952702
vn 0.047836 -0.287019 0.956730
vn 0.021652 -0.303133 0.952702
vn -0.305141 -0.944953 0.118119
vn 0.305141 -0.944953 0.118119
vn 1.000000 0.000000 0.000000
vn -1.000000 0.000000 0.000000
vn 0.723842 0.685745 0.076194
vn 0.646344 0.733687 0.209625
vn -0.723842 0.685745 0.076194
vn -0.646344 0.733687 0.209625
vn 0.158235 0.949410 0.271260
vn -0.158235 0.949410 0.271260
vn 0.156174 0.312348 0.937043
vn -0.156174 0.312348 0.937043
vn 0.121942 -0.182913 0.975537
vn 0.447214 0.000000 0.894427
vn -0.121942 -0.182913 0.975537
vn -0.447214 0.000000 0.894427
vn 0.175113 -0.204298 0.963119
vn 0.129641 -0.194461 0.972306
vn -0.175113 -0.204298 0.963119
vn -0.129641 -0.194461 0.972306
vn -0.252426 -0.865462 0.432731
vn -0.178331 -0.416107 0.891657
vn 0.178331 -0.416107 0.891657
vn 0.252426 -0.865462 0.432731
vn -0.958645 0.066419 0.276745
vn -0.850547 0.379804 0.363756
vn 0.958645 0.066419 0.276745
vn 0.850547 0.379804 0.363756
vn -0.897301 0.199400 0.393815
vn -0.847998 0.317999 0.423999
vn 0.847998 0.317999 0.423999
vn 0.897301 0.199400 0.393815
vn -0.875254 0.205942 0.437627
vn -0.735695 0.390999 0.553058
vn 0.735695 0.390999 0.553058
vn 0.875254 0.205942 0.437627
vn -0.281546 0.066246 0.957258
vn -0.323072 0.031139 0.945862
vn 0.323072 0.031139 0.945862
vn 0.281546 0.066246 0.957258
vn -0.331914 0.073759 0.940422
vn -0.545986 -0.431042 0.718403
vn 0.545986 -0.431042 0.718403
vn 0.331914 0.073759 0.940422
vn -0.732467 0.281718 0.619780
vn 0.577350 -0.577350 0.577350
vn 0.732467 0.281718 0.619780
vn -0.577350 -0.577350 0.577350
vn 0.063119 -0.820553 0.568075
vn 0.505913 0.071634 0.859605
vn -0.063119 -0.820553 0.568075
vn -0.505913 0.071634 0.859605
vn -0.130435 -0.260870 0.956522
vn 0.130435 -0.608696 0.782609
vn 0.130435 -0.260870 0.956522
vn -0.130435 -0.608696 0.782609
vn -0.037450 0.224702 0.973708
vn -0.050217 0.234344 0.970856
vn 0.050217 0.234344 0.970856
vn 0.037450 0.224702 0.973708
vn -0.411597 -0.857493 0.308697
vn -0.341605 -0.540874 0.768610
vn 0.411597 -0.857493 0.308697
vn 0.341605 -0.540874 0.768610
vn -0.763885 0.297067 0.572914
vn -0.753250 0.286952 0.591839
vn 0.753250 0.286952 0.591839
vn 0.763885 0.297067 0.572914
vn -0.134763 0.808581 0.572745
vn -0.086206 0.775855 0.624994
vn 0.134763 0.808581 0.572745
vn 0.086206 0.775855 0.624994
vn 0.666667 0.666667 0.333333
vn 0.632643 0.535313 0.559645
vn -0.666667 0.666667 0.333333
vn -0.632643 0.535313 0.559645
vn -0.287348 -0.574696 0.766261
vn 0.287348 -0.574696 0.766261
vn -0.431934 -0.863868 0.259161
vn -0.407110 -0.895642 0.179128
vn 0.407110 -0.895642 0.179128
vn 0.431934 -0.863868 0.259161
vn 0.690456 0.549227 0.470766
vn -0.690456 0.549227 0.470766
vn -0.101829 0.916461 -0.386950
vn -0.069264 0.900436 -0.429439
vn 0.069264 0.900436 -0.429439
vn 0.101829 0.916461 -0.386950
vn -0.963518 0.214115 -0.160586
vn -0.925624 0.249207 -0.284808
vn 0.925624 0.249207 -0.284808
vn 0.963518 0.214115 -0.160586
vn -0.782609 -0.608696 -0.130435
vn -0.844653 -0.533465 0.044455
vn 0.782609 -0.608696 -0.130435
vn 0.844653 -0.533465 0.044455
vn 0.000000 -0.066519 0.997785
vn 0.004339 -0.065079 0.997871
vn -0.004339 -0.065079 0.997871
vn 0.000000 0.066519 0.997785
vn 0.023219 0.051082 0.998425
vn -0.023219 0.051082 0.998425
vn -0.327251 -0.143172 0.934028
vn -0.323263 -0.080816 0.942852
vn 0.327251 -0.143172 0.934028
vn 0.323263 -0.080816 0.942852
vn -0.282128 -0.016382 0.959237
vn -0.328839 -0.035967 0.943701
vn 0.282128 -0.016382 0.959237
vn 0.328839 -0.035967 0.943701
vn -0.314270 -0.392837 0.864242
vn -0.312808 -0.166179 0.935166
vn 0.312808 -0.166179 0.935166
vn 0.314270 -0.392837 0.864242
vn -0.240428 -0.547641 0.801426
vn -0.132164 -0.594737 0.792982
vn 0.240428 -0.547641 0.801426
vn 0.132164 -0.594737 0.792982
vn 0.013557 -0.650732 0.759187
vn -0.100823 -0.710344 0.696596
vn -0.013557 -0.650732 0.759187
vn 0.100823 -0.710344 0.696596
vn -0.058512 -0.084517 0.994703
vn 0.006618 -0.231615 0.972785
vn -0.006618 -0.231615 0.972785
vn 0.058512 -0.084517 0.994703
vn -0.262316 -0.349754 0.899368
vn -0.058543 -0.078057 0.995229
vn 0.262316 -0.349754 0.899368
vn 0.058543 -0.078057 0.995229
vn -0.185396 -0.495579 0.848545
vn -0.681885 -0.291451 0.670887
vn 0.681885 -0.291451 0.670887
vn 0.185396 -0.495579 0.848545
vn 0.031654 -0.189927 0.981288
vn 0.159824 0.390339 0.906693
vn -0.031654 -0.189927 0.981288
vn -0.159824 0.390339 0.906693
vn -0.428411 0.149446 0.891140
vn 0.000000 -0.447214 0.894427
vn 0.428411 0.149446 0.891140
vn -0.322277 -0.276237 0.905445
vn -0.357888 -0.306761 0.881938
vn 0.357888 -0.306761 0.881938
vn 0.322277 -0.276237 0.905445
vn -0.434968 -0.181237 0.882018
vn -0.335168 -0.182819 0.924251
vn 0.335168 -0.182819 0.924251
vn 0.434968 -0.181237 0.882018
vn -0.168675 -0.312751 0.934738
vn -0.425985 -0.060855 0.902681
vn 0.425985 -0.060855 0.902681
vn 0.168675 -0.312751 0.934738
vn -0.027886 -0.864453 0.501940
vn -0.054668 -0.169470 0.984018
vn 0.054668 -0.169470 0.984018
vn 0.027886 -0.864453 0.501940
vn 0.077015 -0.575863 0.813910
vn 0.089902 -0.784316 0.613813
vn -0.089902 -0.784316 0.613813
vn -0.077015 -0.575863 0.813910
vn 0.107348 -0.500959 0.858787
vn 0.034841 -0.579236 0.814415
vn -0.034841 -0.579236 0.814415
vn -0.107348 -0.500959 0.858787
vn -0.218075 -0.468458 0.856148
vn -0.222645 -0.469360 0.854476
vn 0.218075 -0.468458 0.856148
vn 0.222645 -0.469360 0.854476
vn -0.536408 -0.323041 0.779686
vn -0.507023 -0.628103 0.590266
vn 0.507023 -0.628103 0.590266
vn 0.536408 -0.323041 0.779686
vn 0.577350 0.577350 0.577350
vn 0.601317 0.526152 0.601317
vn -0.601317 0.526152 0.601317
vn -0.577350 0.577350 0.577350
vn 0.738633 0.376802 0.558965
vn 0.710353 0.271548 0.649354
vn -0.710353 0.271548 0.649354
vn -0.738633 0.376802 0.558965
vn 0.037139 0.668503 0.742781
vn 0.048593 0.656005 0.753191
vn -0.048593 0.656005 0.753191
vn -0.037139 0.668503 0.742781
vn -0.615457 0.492366 0.615457
vn -0.597716 0.556494 0.577105
vn 0.615457 0.492366 0.615457
vn 0.597716 0.556494 0.577105
vn -0.504141 0.644831 0.574486
vn -0.509058 0.648239 0.566256
vn 0.509058 0.648239 0.566256
vn 0.504141 0.644831 0.574486
vn -0.822669 0.360622 0.439508
vn -0.312694 0.342474 0.885965
vn 0.312694 0.342474 0.885965
vn 0.822669 0.360622 0.439508
vn -0.553707 -0.297771 0.777651
vn -0.702848 -0.391536 0.593889
vn 0.702848 -0.391536 0.593889
vn 0.553707 -0.297771 0.777651
vn -0.687191 -0.419138 0.593373
vn -0.694731 -0.419675 0.584142
vn 0.687191 -0.419138 0.593373
vn 0.694731 -0.419675 0.584142
vn -0.417744 -0.575126 0.703364
vn -0.355697 -0.729019 0.584817
vn 0.355697 -0.729019 0.584817
vn 0.417744 -0.575126 0.703364
vn -0.233373 -0.777910 0.583432
vn -0.374655 -0.834539 0.403953
vn 0.233373 -0.777910 0.583432
vn 0.374655 -0.834539 0.403953
vn -0.806929 0.068934 0.586612
vn -0.747085 0.113195 0.655020
vn 0.806929 0.068934 0.586612
vn 0.747085 0.113195 0.655020
vn -0.756336 -0.029855 0.653501
vn -0.776303 -0.063330 0.627171
vn 0.756336 -0.029855 0.653501
vn 0.776303 -0.063330 0.627171
vn -0.595880 -0.425628 0.681005
vn -0.578793 -0.504905 0.640367
vn 0.595880 -0.425628 0.681005
vn 0.578793 -0.504905 0.640367
vn -0.191556 -0.862004 0.469313
vn -0.230289 -0.865570 0.444697
vn 0.230289 -0.865570 0.444697
vn 0.191556 -0.862004 0.469313
vn -0.105409 -0.843274 0.527046
vn -0.136692 -0.874826 0.464752
vn 0.136692 -0.874826 0.464752
vn 0.105409 -0.843274 0.527046
vn -0.829740 -0.373383 -0.414870
vn -0.768350 -0.329293 -0.548821
vn 0.829740 -0.373383 -0.414870
vn 0.768350 -0.329293 -0.548821
vn -0.207390 -0.829561 -0.518476
vn -0.203653 -0.814613 -0.543075
vn 0.207390 -0.829561 -0.518476
vn 0.203653 -0.814613 -0.543075
vn 0.405616 -0.760530 -0.507020
vn 0.438063 -0.798820 -0.412294
vn -0.405616 -0.760530 -0.507020
vn -0.438063 -0.798820 -0.412294
vn 0.851943 -0.340777 -0.397573
vn 0.778250 -0.353750 -0.518833
vn -0.851943 -0.340777 -0.397573
vn -0.778250 -0.353750 -0.518833
vn 0.786146 0.327561 -0.524097
vn 0.864242 0.314270 -0.392837
vn -0.864242 0.314270 -0.392837
vn -0.786146 0.327561 -0.524097
vn 0.438063 0.798820 -0.412294
vn 0.405616 0.760530 -0.507020
vn -0.405616 0.760530 -0.507020
vn -0.438063 0.798820 -0.412294
vn -0.203653 0.814613 -0.543075
vn -0.207390 0.829561 -0.518476
vn 0.207390 0.829561 -0.518476
vn 0.203653 0.814613 -0.543075
vn -0.781572 0.305832 -0.543702
vn -0.839964 0.343622 -0.419982
vn 0.839964 0.343622 -0.419982
vn 0.781572 0.305832 -0.543702
vn -0.661707 0.202628 0.721862
vn -0.688799 0.186793 0.700474
vn 0.688799 0.186793 0.700474
vn 0.661707 0.202628 0.721862
vn -0.829869 0.294011 0.474211
vn -0.825075 0.296789 0.480799
vn 0.825075 0.296789 0.480799
vn 0.829869 0.294011 0.474211
vn -0.405914 0.764074 0.501423
vn -0.424567 0.771089 0.474516
vn 0.424567 0.771089 0.474516
vn 0.405914 0.764074 0.501423
vn -0.386060 0.544620 0.744544
vn -0.332862 0.523069 0.784603
vn 0.332862 0.523069 0.784603
vn 0.386060 0.544620 0.744544
vn 0.101652 0.551827 0.827740
vn 0.082138 0.602344 0.793999
vn -0.082138 0.602344 0.793999
vn -0.101652 0.551827 0.827740
vn 0.248737 0.824892 0.507626
vn 0.255987 0.807343 0.531665
vn -0.255987 0.807343 0.531665
vn -0.248737 0.824892 0.507626
vn 0.768350 0.329293 0.548821
vn 0.765568 0.322344 0.556777
vn -0.765568 0.322344 0.556777
vn -0.768350 0.329293 0.548821
vn 0.498343 0.181216 0.847830
vn 0.464927 0.195759 0.863436
vn -0.498343 0.181216 0.847830
vn -0.464927 0.195759 0.863436
vn 0.464927 -0.195759 0.863436
vn 0.476731 -0.190693 0.858116
vn -0.476731 -0.190693 0.858116
vn -0.464927 -0.195759 0.863436
vn 0.760570 -0.339952 0.553142
vn 0.782420 -0.329440 0.528477
vn -0.782420 -0.329440 0.528477
vn -0.760570 -0.339952 0.553142
vn 0.273789 -0.831508 0.483356
vn 0.266350 -0.848665 0.456974
vn -0.273789 -0.831508 0.483356
vn -0.266350 -0.848665 0.456974
vn 0.064930 -0.571380 0.818113
vn 0.085882 -0.522161 0.848512
vn -0.064930 -0.571380 0.818113
vn -0.085882 -0.522161 0.848512
vn -0.326498 -0.495376 0.804986
vn -0.379067 -0.516315 0.767937
vn 0.326498 -0.495376 0.804986
vn 0.379067 -0.516315 0.767937
vn -0.425758 -0.796683 0.428983
vn -0.407625 -0.790545 0.457034
vn 0.425758 -0.796683 0.428983
vn 0.407625 -0.790545 0.457034
vn -0.832580 -0.301659 0.464556
vn -0.826834 -0.305141 0.472477
vn 0.832580 -0.301659 0.464556
vn 0.826834 -0.305141 0.472477
vn -0.671345 -0.197092 0.714459
vn -0.661707 -0.202628 0.721862
vn 0.671345 -0.197092 0.714459
vn 0.661707 -0.202628 0.721862
usemtl (null)
s off
f 61//1 65//1 49//1
f 50//2 66//2 62//2
f 63//3 65//3 61//3
f 62//4 66//4 64//4
f 61//5 59//5 63//5
f 64//6 60//6 62//6
f 61//7 57//7 59//7
f 60//8 58//8 62//8
f 61//9 55//9 57//9
f 58//10 56//10 62//10
f 61//11 53//11 55//11
f 56//12 54//12 62//12
f 61//13 51//13 53//13
f 54//14 52//14 62//14
f 61//15 49//15 51//15
f 52//16 50//16 62//16
f 225//17 229//17 227//17
f 228//18 230//18 226//18
f 73//19 284//19 74//19
f 74//20 285//20 73//20
f 342//21 348//21 384//21
f 385//22 349//22 343//22
f 300//23 346//23 344//23
f 345//24 347//24 301//24
f 324//25 380//25 352//25
f 353//26 381//26 325//26
f 442//27 444//27 446//27
f 447//28 445//28 443//28
f 464//29 492//29 466//29
f 467//30 493//30 465//30
f 496//31 498//31 500//31
f 501//32 499//32 497//32
f 505//33 323//33 321//33
f 505//34 321//34 391//34
f 320//35 322//35 504//35
f 320//36 504//36 390//36
f 505//37 507//37 315//37
f 505//38 315//38 323//38
f 314//39 506//39 504//39
f 314//40 504//40 322//40
f 389//41 383//41 507//41
f 383//42 315//42 507//42
f 314//43 382//43 506//43
f 382//44 388//44 506//44
f 501//45 497//45 495//45
f 501//46 495//46 503//46
f 494//47 496//47 500//47
f 494//48 500//48 502//48
f 505//49 503//49 507//49
f 503//50 495//50 507//50
f 494//51 502//51 506//51
f 502//52 504//52 506//52
f 495//53 401//53 507//53
f 401//54 389//54 507//54
f 388//55 400//55 506//55
f 400//56 494//56 506//56
f 497//57 399//57 495//57
f 399//58 401//58 495//58
f 400//59 398//59 494//59
f 398//60 496//60 494//60
f 499//61 397//61 497//61
f 397//62 399//62 497//62
f 398//63 396//63 496//63
f 396//64 498//64 496//64
f 501//65 395//65 499//65
f 395//66 397//66 499//66
f 396//67 394//67 498//67
f 394//68 500//68 498//68
f 503//69 393//69 395//69
f 503//70 395//70 501//70
f 394//71 392//71 502//71
f 394//72 502//72 500//72
f 505//73 391//73 393//73
f 505//74 393//74 503//74
f 392//75 390//75 504//75
f 392//76 504//76 502//76
f 491//77 493//77 467//77
f 491//78 467//78 469//78
f 466//79 492//79 490//79
f 466//80 490//80 468//80
f 489//81 491//81 471//81
f 491//82 469//82 471//82
f 468//83 490//83 470//83
f 490//84 488//84 470//84
f 483//85 489//85 473//85
f 489//86 471//86 473//86
f 470//87 488//87 472//87
f 488//88 482//88 472//88
f 481//89 483//89 473//89
f 481//90 473//90 475//90
f 472//91 482//91 480//91
f 472//92 480//92 474//92
f 481//93 475//93 457//93
f 475//94 455//94 457//94
f 454//95 474//95 456//95
f 474//96 480//96 456//96
f 463//97 479//97 459//97
f 463//98 459//98 461//98
f 458//99 478//99 462//99
f 458//98 462//98 460//98
f 479//100 463//100 485//100
f 463//101 453//101 485//101
f 452//102 462//102 484//102
f 462//103 478//103 484//103
f 487//104 485//104 477//104
f 485//105 453//105 477//105
f 452//106 484//106 476//106
f 484//107 486//107 476//107
f 487//108 477//108 465//108
f 487//109 465//109 493//109
f 464//110 476//110 486//110
f 464//111 486//111 492//111
f 491//112 489//112 493//112
f 489//113 487//113 493//113
f 486//114 488//114 492//114
f 488//115 490//115 492//115
f 489//116 483//116 485//116
f 489//117 485//117 487//117
f 484//118 482//118 488//118
f 484//119 488//119 486//119
f 483//120 481//120 485//120
f 481//121 479//121 485//121
f 478//122 480//122 484//122
f 480//123 482//123 484//123
f 481//124 457//124 479//124
f 457//125 459//125 479//125
f 458//126 456//126 478//126
f 456//127 480//127 478//127
f 473//128 421//128 475//128
f 421//129 419//129 475//129
f 418//130 420//130 474//130
f 420//131 472//131 474//131
f 471//132 423//132 473//132
f 423//133 421//133 473//133
f 420//134 422//134 472//134
f 422//135 470//135 472//135
f 469//136 425//136 471//136
f 425//137 423//137 471//137
f 422//138 424//138 470//138
f 424//139 468//139 470//139
f 467//140 427//140 425//140
f 467//141 425//141 469//141
f 424//142 426//142 466//142
f 424//143 466//143 468//143
f 465//144 429//144 427//144
f 465//145 427//145 467//145
f 426//146 428//146 464//146
f 426//147 464//147 466//147
f 477//148 417//148 429//148
f 477//149 429//149 465//149
f 428//150 416//150 476//150
f 428//151 476//151 464//151
f 475//152 419//152 441//152
f 475//153 441//153 455//153
f 440//154 418//154 474//154
f 440//153 474//153 454//153
f 455//155 441//155 439//155
f 455//156 439//156 457//156
f 438//157 440//157 454//157
f 438//158 454//158 456//158
f 457//159 439//159 459//159
f 439//160 437//160 459//160
f 436//161 438//161 458//161
f 438//162 456//162 458//162
f 459//163 437//163 461//163
f 437//164 435//164 461//164
f 434//165 436//165 460//165
f 436//166 458//166 460//166
f 461//167 435//167 433//167
f 461//167 433//167 463//167
f 432//168 434//168 460//168
f 432//168 460//168 462//168
f 463//169 433//169 453//169
f 433//170 451//170 453//170
f 450//171 432//171 452//171
f 432//172 462//172 452//172
f 453//173 451//173 417//173
f 453//174 417//174 477//174
f 416//175 450//175 452//175
f 416//176 452//176 476//176
f 447//177 443//177 449//177
f 443//178 313//178 449//178
f 312//179 442//179 448//179
f 442//180 446//180 448//180
f 431//181 449//181 383//181
f 449//182 313//182 383//182
f 312//183 448//183 382//183
f 448//184 430//184 382//184
f 451//185 431//185 417//185
f 431//186 415//186 417//186
f 414//187 430//187 416//187
f 430//188 450//188 416//188
f 433//189 449//189 451//189
f 449//190 431//190 451//190
f 430//191 448//191 450//191
f 448//192 432//192 450//192
f 447//193 449//193 435//193
f 449//194 433//194 435//194
f 432//195 448//195 434//195
f 448//196 446//196 434//196
f 439//197 447//197 435//197
f 439//98 435//98 437//98
f 434//198 446//198 438//198
f 434//98 438//98 436//98
f 445//199 447//199 441//199
f 447//200 439//200 441//200
f 438//201 446//201 440//201
f 446//202 444//202 440//202
f 441//203 419//203 413//203
f 441//204 413//204 445//204
f 412//205 418//205 440//205
f 412//206 440//206 444//206
f 415//207 431//207 383//207
f 415//208 383//208 389//208
f 382//209 430//209 414//209
f 382//210 414//210 388//210
f 443//211 319//211 311//211
f 443//212 311//212 313//212
f 310//213 318//213 442//213
f 310//214 442//214 312//214
f 413//215 391//215 445//215
f 391//216 321//216 445//216
f 320//217 390//217 444//217
f 390//218 412//218 444//218
f 445//219 321//219 443//219
f 321//220 319//220 443//220
f 318//221 320//221 442//221
f 320//222 444//222 442//222
f 417//223 415//223 403//223
f 417//224 403//224 429//224
f 402//225 414//225 416//225
f 402//226 416//226 428//226
f 427//227 429//227 405//227
f 429//228 403//228 405//228
f 402//229 428//229 404//229
f 428//230 426//230 404//230
f 425//231 427//231 407//231
f 427//232 405//232 407//232
f 404//233 426//233 406//233
f 426//234 424//234 406//234
f 423//235 425//235 409//235
f 425//236 407//236 409//236
f 406//237 424//237 408//237
f 424//238 422//238 408//238
f 421//239 423//239 409//239
f 421//240 409//240 411//240
f 408//241 422//241 420//241
f 408//242 420//242 410//242
f 419//243 421//243 411//243
f 419//244 411//244 413//244
f 410//245 420//245 418//245
f 410//246 418//246 412//246
f 413//247 411//247 393//247
f 413//248 393//248 391//248
f 392//249 410//249 412//249
f 392//250 412//250 390//250
f 411//251 409//251 393//251
f 409//252 395//252 393//252
f 394//253 408//253 392//253
f 408//254 410//254 392//254
f 409//255 407//255 395//255
f 407//256 397//256 395//256
f 396//257 406//257 394//257
f 406//258 408//258 394//258
f 407//259 405//259 397//259
f 405//260 399//260 397//260
f 398//261 404//261 396//261
f 404//262 406//262 396//262
f 405//263 403//263 401//263
f 405//264 401//264 399//264
f 400//265 402//265 404//265
f 400//266 404//266 398//266
f 415//267 389//267 403//267
f 389//268 401//268 403//268
f 400//269 388//269 402//269
f 388//270 414//270 402//270
f 381//271 353//271 387//271
f 353//272 351//272 387//272
f 350//273 352//273 386//273
f 352//274 380//274 386//274
f 381//275 387//275 323//275
f 387//276 321//276 323//276
f 320//277 386//277 322//277
f 386//278 380//278 322//278
f 381//279 379//279 325//279
f 379//280 317//280 325//280
f 316//281 378//281 324//281
f 378//282 380//282 324//282
f 381//283 323//283 379//283
f 323//284 315//284 379//284
f 314//285 322//285 378//285
f 322//286 380//286 378//286
f 343//287 345//287 301//287
f 343//288 301//288 385//288
f 300//289 344//289 342//289
f 300//290 342//290 384//290
f 385//291 301//291 299//291
f 385//292 299//292 319//292
f 298//293 300//293 384//293
f 298//294 384//294 318//294
f 387//295 385//295 321//295
f 385//296 319//296 321//296
f 318//297 384//297 320//297
f 384//298 386//298 320//298
f 387//299 351//299 385//299
f 351//300 349//300 385//300
f 348//301 350//301 384//301
f 350//302 386//302 384//302
f 371//303 377//303 383//303
f 377//304 315//304 383//304
f 314//305 376//305 382//305
f 376//306 370//306 382//306
f 371//307 383//307 313//307
f 371//308 313//308 369//308
f 312//309 382//309 370//309
f 312//310 370//310 368//310
f 369//311 313//311 311//311
f 369//312 311//312 363//312
f 310//313 312//313 368//313
f 310//314 368//314 362//314
f 311//315 297//315 363//315
f 297//316 295//316 363//316
f 294//317 296//317 362//317
f 296//318 310//318 362//318
f 361//319 291//319 285//319
f 361//320 285//320 74//320
f 284//321 290//321 360//321
f 284//322 360//322 74//322
f 289//323 287//323 291//323
f 287//324 285//324 291//324
f 284//325 286//325 290//325
f 286//326 288//326 290//326
f 359//327 361//327 302//327
f 361//328 74//328 302//328
f 74//329 360//329 302//329
f 360//330 358//330 302//330
f 365//331 293//331 361//331
f 293//332 291//332 361//332
f 290//333 292//333 360//333
f 292//334 364//334 360//334
f 365//335 361//335 359//335
f 365//336 359//336 367//336
f 358//337 360//337 364//337
f 358//338 364//338 366//338
f 367//339 359//339 357//339
f 367//340 357//340 373//340
f 356//341 358//341 366//341
f 356//342 366//342 372//342
f 373//343 357//343 355//343
f 373//344 355//344 375//344
f 354//345 356//345 372//345
f 354//346 372//346 374//346
f 375//347 355//347 317//347
f 375//348 317//348 379//348
f 316//349 354//349 374//349
f 316//350 374//350 378//350
f 375//351 379//351 377//351
f 379//352 315//352 377//352
f 314//353 378//353 376//353
f 378//354 374//354 376//354
f 377//355 371//355 373//355
f 377//356 373//356 375//356
f 372//357 370//357 376//357
f 372//358 376//358 374//358
f 371//359 369//359 367//359
f 371//360 367//360 373//360
f 366//361 368//361 370//361
f 366//362 370//362 372//362
f 369//363 363//363 365//363
f 369//364 365//364 367//364
f 364//365 362//365 368//365
f 364//366 368//366 366//366
f 363//367 295//367 293//367
f 363//368 293//368 365//368
f 292//369 294//369 362//369
f 292//370 362//370 364//370
f 317//371 355//371 75//371
f 317//372 75//372 76//372
f 75//373 354//373 316//373
f 75//374 316//374 76//374
f 355//375 357//375 303//375
f 355//376 303//376 75//376
f 303//377 356//377 354//377
f 303//378 354//378 75//378
f 357//379 359//379 303//379
f 359//380 302//380 303//380
f 302//381 358//381 303//381
f 358//382 356//382 303//382
f 325//383 317//383 77//383
f 317//384 76//384 77//384
f 76//385 316//385 77//385
f 316//386 324//386 77//386
f 319//387 299//387 297//387
f 319//388 297//388 311//388
f 296//389 298//389 318//389
f 296//390 318//390 310//390
f 349//391 329//391 343//391
f 329//392 327//392 343//392
f 326//393 328//393 342//393
f 328//394 348//394 342//394
f 329//395 349//395 305//395
f 329//396 305//396 309//396
f 305//397 348//397 328//397
f 305//398 328//398 309//398
f 349//399 351//399 78//399
f 349//400 78//400 305//400
f 78//401 350//401 348//401
f 78//402 348//402 305//402
f 351//403 353//403 78//403
f 353//404 304//404 78//404
f 304//405 352//405 78//405
f 352//406 350//406 78//406
f 353//407 325//407 304//407
f 325//408 77//408 304//408
f 77//409 324//409 304//409
f 324//410 352//410 304//410
f 301//411 347//411 93//411
f 347//412 80//412 93//412
f 79//413 346//413 92//413
f 346//414 300//414 92//414
f 345//415 216//415 347//415
f 216//416 80//416 347//416
f 79//417 215//417 346//417
f 215//418 344//418 346//418
f 343//419 327//419 210//419
f 327//420 82//420 210//420
f 81//421 326//421 209//421
f 326//422 342//422 209//422
f 345//423 343//423 216//423
f 343//424 210//424 216//424
f 209//425 342//425 215//425
f 342//426 344//426 215//426
f 333//427 84//427 82//427
f 333//428 82//428 327//428
f 81//429 83//429 332//429
f 81//430 332//430 326//430
f 339//431 333//431 329//431
f 333//432 327//432 329//432
f 326//433 332//433 328//433
f 332//434 338//434 328//434
f 341//435 335//435 337//435
f 335//436 331//436 337//436
f 330//437 334//437 336//437
f 334//438 340//438 336//438
f 339//439 337//439 331//439
f 339//440 331//440 333//440
f 330//441 336//441 338//441
f 330//442 338//442 332//442
f 331//443 86//443 84//443
f 331//444 84//444 333//444
f 83//445 85//445 330//445
f 83//446 330//446 332//446
f 335//447 88//447 86//447
f 335//448 86//448 331//448
f 85//449 87//449 334//449
f 85//450 334//450 330//450
f 341//451 90//451 88//451
f 341//452 88//452 335//452
f 87//453 89//453 340//453
f 87//454 340//454 334//454
f 306//455 91//455 90//455
f 306//456 90//456 341//456
f 89//457 91//457 306//457
f 89//458 306//458 340//458
f 337//459 307//459 341//459
f 307//460 306//460 341//460
f 306//461 307//461 340//461
f 307//462 336//462 340//462
f 339//463 308//463 337//463
f 308//464 307//464 337//464
f 307//465 308//465 336//465
f 308//466 338//466 336//466
f 329//467 309//467 339//467
f 309//468 308//468 339//468
f 308//469 309//469 338//469
f 309//470 328//470 338//470
f 301//471 93//471 95//471
f 301//472 95//472 299//472
f 94//473 92//473 300//473
f 94//474 300//474 298//474
f 299//475 95//475 97//475
f 299//476 97//476 297//476
f 96//477 94//477 298//477
f 96//478 298//478 296//478
f 297//479 97//479 295//479
f 97//480 99//480 295//480
f 98//481 96//481 294//481
f 96//482 296//482 294//482
f 295//483 99//483 101//483
f 295//484 101//484 293//484
f 100//485 98//485 294//485
f 100//486 294//486 292//486
f 293//487 101//487 291//487
f 101//488 103//488 291//488
f 102//489 100//489 290//489
f 100//490 292//490 290//490
f 291//491 103//491 289//491
f 103//492 105//492 289//492
f 104//493 102//493 288//493
f 102//494 290//494 288//494
f 289//495 105//495 287//495
f 105//496 107//496 287//496
f 106//497 104//497 286//497
f 104//498 288//498 286//498
f 287//499 107//499 109//499
f 287//500 109//500 285//500
f 108//501 106//501 286//501
f 108//502 286//502 284//502
f 285//503 109//503 67//503
f 285//504 67//504 73//504
f 67//505 108//505 284//505
f 67//506 284//506 73//506
f 281//507 235//507 233//507
f 281//508 233//508 283//508
f 232//509 234//509 280//509
f 232//510 280//510 282//510
f 283//511 233//511 255//511
f 283//512 255//512 261//512
f 254//513 232//513 282//513
f 254//514 282//514 260//514
f 261//515 255//515 257//515
f 261//516 257//516 259//516
f 256//517 254//517 260//517
f 256//518 260//518 258//518
f 263//519 253//519 235//519
f 263//519 235//519 281//519
f 234//520 252//520 262//520
f 234//520 262//520 280//520
f 265//521 251//521 263//521
f 251//522 253//522 263//522
f 252//523 250//523 262//523
f 250//524 264//524 262//524
f 267//525 249//525 265//525
f 249//526 251//526 265//526
f 250//527 248//527 264//527
f 248//528 266//528 264//528
f 269//529 247//529 249//529
f 269//530 249//530 267//530
f 248//531 246//531 268//531
f 248//532 268//532 266//532
f 271//533 245//533 269//533
f 245//534 247//534 269//534
f 246//535 244//535 268//535
f 244//536 270//536 268//536
f 273//537 243//537 245//537
f 273//538 245//538 271//538
f 244//539 242//539 272//539
f 244//540 272//540 270//540
f 275//541 241//541 273//541
f 241//542 243//542 273//542
f 242//543 240//543 272//543
f 240//544 274//544 272//544
f 279//545 237//545 275//545
f 237//546 241//546 275//546
f 240//547 236//547 274//547
f 236//548 278//548 274//548
f 277//549 239//549 237//549
f 277//550 237//550 279//550
f 236//551 238//551 276//551
f 236//552 276//552 278//552
f 259//553 257//553 239//553
f 259//554 239//554 277//554
f 238//555 256//555 258//555
f 238//556 258//556 276//556
f 257//557 111//557 129//557
f 257//558 129//558 239//558
f 128//559 110//559 256//559
f 128//560 256//560 238//560
f 239//561 129//561 180//561
f 239//562 180//562 237//562
f 179//563 128//563 238//563
f 179//564 238//564 236//564
f 237//565 180//565 127//565
f 237//566 127//566 241//566
f 126//567 179//567 236//567
f 126//568 236//568 240//568
f 241//569 127//569 243//569
f 127//570 125//570 243//570
f 124//571 126//571 242//571
f 126//572 240//572 242//572
f 243//573 125//573 245//573
f 125//574 123//574 245//574
f 122//575 124//575 244//575
f 124//576 242//576 244//576
f 245//577 123//577 121//577
f 245//578 121//578 247//578
f 120//579 122//579 244//579
f 120//580 244//580 246//580
f 247//581 121//581 119//581
f 247//582 119//582 249//582
f 118//583 120//583 246//583
f 118//584 246//584 248//584
f 249//585 119//585 117//585
f 249//586 117//586 251//586
f 116//587 118//587 248//587
f 116//588 248//588 250//588
f 251//589 117//589 115//589
f 251//590 115//590 253//590
f 114//591 116//591 250//591
f 114//592 250//592 252//592
f 253//593 115//593 235//593
f 115//594 182//594 235//594
f 181//595 114//595 234//595
f 114//596 252//596 234//596
f 255//597 113//597 257//597
f 113//598 111//598 257//598
f 110//599 112//599 256//599
f 112//600 254//600 256//600
f 233//601 184//601 113//601
f 233//602 113//602 255//602
f 112//603 183//603 232//603
f 112//604 232//604 254//604
f 235//605 182//605 184//605
f 235//606 184//606 233//606
f 183//607 181//607 234//607
f 183//608 234//608 232//608
f 230//609 231//609 224//609
f 230//610 224//610 226//610
f 224//611 231//611 229//611
f 224//612 229//612 225//612
f 224//613 72//613 226//613
f 72//613 223//613 226//613
f 222//614 72//614 225//614
f 72//614 224//614 225//614
f 226//615 223//615 221//615
f 226//615 221//615 228//615
f 220//616 222//616 225//616
f 220//616 225//616 227//616
f 228//617 221//617 219//617
f 228//618 219//618 230//618
f 218//619 220//619 227//619
f 218//620 227//620 229//620
f 230//621 219//621 231//621
f 219//621 217//621 231//621
f 217//622 218//622 231//622
f 218//622 229//622 231//622
f 219//623 136//623 137//623
f 219//98 137//98 217//98
f 137//624 135//624 218//624
f 137//98 218//98 217//98
f 221//625 134//625 136//625
f 221//626 136//626 219//626
f 135//627 133//627 220//627
f 135//628 220//628 218//628
f 223//629 132//629 134//629
f 223//630 134//630 221//630
f 133//631 131//631 222//631
f 133//632 222//632 220//632
f 72//633 130//633 223//633
f 130//634 132//634 223//634
f 131//635 130//635 222//635
f 130//636 72//636 222//636
f 212//637 165//637 80//637
f 212//638 80//638 216//638
f 79//639 164//639 211//639
f 79//640 211//640 215//640
f 212//641 216//641 214//641
f 216//642 210//642 214//642
f 209//643 215//643 213//643
f 215//644 211//644 213//644
f 214//645 210//645 167//645
f 210//646 82//646 167//646
f 81//647 209//647 166//647
f 209//648 213//648 166//648
f 167//649 188//649 214//649
f 188//650 145//650 214//650
f 144//651 187//651 213//651
f 187//652 166//652 213//652
f 214//653 145//653 212//653
f 145//654 143//654 212//654
f 142//655 144//655 211//655
f 144//656 213//656 211//656
f 212//657 143//657 141//657
f 212//658 141//658 165//658
f 140//659 142//659 211//659
f 140//660 211//660 164//660
f 165//661 141//661 139//661
f 165//662 139//662 177//662
f 139//663 140//663 164//663
f 139//664 164//664 177//664
f 207//665 208//665 199//665
f 207//666 199//666 205//666
f 199//667 208//667 206//667
f 199//668 206//668 204//668
f 203//669 205//669 201//669
f 205//670 199//670 201//670
f 199//671 204//671 200//671
f 204//672 202//672 200//672
f 207//673 205//673 194//673
f 207//674 194//674 192//674
f 193//675 204//675 206//675
f 193//676 206//676 191//676
f 205//677 203//677 194//677
f 203//678 196//678 194//678
f 195//679 202//679 193//679
f 202//680 204//680 193//680
f 203//681 201//681 198//681
f 203//682 198//682 196//682
f 197//683 200//683 202//683
f 197//684 202//684 195//684
f 201//685 199//685 71//685
f 201//686 71//686 198//686
f 71//687 199//687 200//687
f 71//688 200//688 197//688
f 207//689 192//689 208//689
f 192//689 70//689 208//689
f 70//690 191//690 208//690
f 191//690 206//690 208//690
f 192//691 145//691 70//691
f 145//692 190//692 70//692
f 190//693 144//693 70//693
f 144//694 191//694 70//694
f 198//695 71//695 139//695
f 71//615 138//615 139//615
f 138//616 71//616 139//616
f 71//696 197//696 139//696
f 196//697 198//697 141//697
f 198//698 139//698 141//698
f 139//699 197//699 140//699
f 197//700 195//700 140//700
f 194//701 196//701 143//701
f 196//702 141//702 143//702
f 140//703 195//703 142//703
f 195//704 193//704 142//704
f 192//705 194//705 143//705
f 192//706 143//706 145//706
f 142//707 193//707 191//707
f 142//708 191//708 144//708
f 186//98 132//98 69//98
f 132//98 130//98 69//98
f 130//98 131//98 69//98
f 131//98 185//98 69//98
f 189//709 188//709 69//709
f 188//710 186//710 69//710
f 185//711 187//711 69//711
f 187//709 189//709 69//709
f 189//712 190//712 188//712
f 190//713 145//713 188//713
f 144//714 190//714 187//714
f 190//712 189//712 187//712
f 169//715 171//715 132//715
f 169//716 132//716 186//716
f 131//717 170//717 168//717
f 131//718 168//718 185//718
f 186//719 188//719 167//719
f 186//720 167//720 169//720
f 166//721 187//721 185//721
f 166//722 185//722 168//722
f 173//723 134//723 171//723
f 134//724 132//724 171//724
f 131//725 133//725 170//725
f 133//726 172//726 170//726
f 175//727 136//727 134//727
f 175//728 134//728 173//728
f 133//729 135//729 174//729
f 133//730 174//730 172//730
f 176//731 137//731 136//731
f 176//732 136//732 175//732
f 135//733 137//733 176//733
f 135//734 176//734 174//734
f 184//735 182//735 178//735
f 182//736 177//736 178//736
f 177//737 181//737 178//737
f 181//738 183//738 178//738
f 178//739 68//739 113//739
f 178//740 113//740 184//740
f 112//741 68//741 178//741
f 112//742 178//742 183//742
f 68//743 163//743 113//743
f 163//744 111//744 113//744
f 110//745 162//745 112//745
f 162//746 68//746 112//746
f 177//747 182//747 115//747
f 177//748 115//748 165//748
f 114//749 181//749 177//749
f 114//750 177//750 164//750
f 147//751 165//751 115//751
f 147//752 115//752 117//752
f 114//753 164//753 146//753
f 114//752 146//752 116//752
f 149//754 147//754 119//754
f 147//755 117//755 119//755
f 116//756 146//756 118//756
f 146//757 148//757 118//757
f 151//758 149//758 121//758
f 149//759 119//759 121//759
f 118//760 148//760 120//760
f 148//761 150//761 120//761
f 153//762 151//762 123//762
f 151//763 121//763 123//763
f 120//764 150//764 122//764
f 150//765 152//765 122//765
f 155//766 153//766 125//766
f 153//767 123//767 125//767
f 122//768 152//768 124//768
f 152//769 154//769 124//769
f 157//770 155//770 127//770
f 155//771 125//771 127//771
f 124//772 154//772 126//772
f 154//773 156//773 126//773
f 159//774 157//774 180//774
f 157//775 127//775 180//775
f 126//776 156//776 179//776
f 156//777 158//777 179//777
f 159//778 180//778 129//778
f 159//779 129//779 161//779
f 128//780 179//780 158//780
f 128//781 158//781 160//781
f 161//782 129//782 163//782
f 129//783 111//783 163//783
f 110//784 128//784 162//784
f 128//785 160//785 162//785
f 68//786 67//786 163//786
f 67//787 109//787 163//787
f 108//788 67//788 162//788
f 67//789 68//789 162//789
f 163//790 109//790 161//790
f 109//791 107//791 161//791
f 106//792 108//792 160//792
f 108//793 162//793 160//793
f 161//794 107//794 159//794
f 107//795 105//795 159//795
f 104//796 106//796 158//796
f 106//797 160//797 158//797
f 159//798 105//798 103//798
f 159//799 103//799 157//799
f 102//800 104//800 158//800
f 102//801 158//801 156//801
f 157//802 103//802 155//802
f 103//803 101//803 155//803
f 100//804 102//804 154//804
f 102//805 156//805 154//805
f 155//806 101//806 153//806
f 101//807 99//807 153//807
f 98//808 100//808 152//808
f 100//809 154//809 152//809
f 153//810 99//810 151//810
f 99//811 97//811 151//811
f 96//812 98//812 150//812
f 98//813 152//813 150//813
f 151//814 97//814 95//814
f 151//815 95//815 149//815
f 94//816 96//816 150//816
f 94//817 150//817 148//817
f 149//818 95//818 147//818
f 95//819 93//819 147//819
f 92//820 94//820 146//820
f 94//821 148//821 146//821
f 147//822 93//822 80//822
f 147//823 80//823 165//823
f 79//824 92//824 146//824
f 79//825 146//825 164//825
f 169//826 167//826 82//826
f 169//827 82//827 84//827
f 81//828 166//828 168//828
f 81//829 168//829 83//829
f 171//830 169//830 84//830
f 171//831 84//831 86//831
f 83//832 168//832 170//832
f 83//833 170//833 85//833
f 173//834 171//834 86//834
f 173//835 86//835 88//835
f 85//836 170//836 172//836
f 85//837 172//837 87//837
f 175//838 173//838 90//838
f 173//839 88//839 90//839
f 87//840 172//840 89//840
f 172//841 174//841 89//841
f 176//842 175//842 91//842
f 175//843 90//843 91//843
f 89//844 174//844 91//844
f 174//845 176//845 91//845
f 50//846 48//846 2//846
f 50//847 2//847 66//847
f 1//848 47//848 49//848
f 1//849 49//849 65//849
f 66//850 2//850 12//850
f 66//851 12//851 64//851
f 11//852 1//852 65//852
f 11//853 65//853 63//853
f 64//854 12//854 14//854
f 64//855 14//855 60//855
f 13//856 11//856 63//856
f 13//857 63//857 59//857
f 60//858 14//858 24//858
f 60//859 24//859 58//859
f 23//860 13//860 59//860
f 23//861 59//861 57//861
f 58//862 24//862 56//862
f 24//863 26//863 56//863
f 25//864 23//864 55//864
f 23//865 57//865 55//865
f 56//866 26//866 54//866
f 26//867 36//867 54//867
f 35//868 25//868 53//868
f 25//869 55//869 53//869
f 54//870 36//870 52//870
f 36//871 38//871 52//871
f 37//872 35//872 51//872
f 35//873 53//873 51//873
f 52//874 38//874 50//874
f 38//875 48//875 50//875
f 47//876 37//876 49//876
f 37//877 51//877 49//877
f 46//878 48//878 40//878
f 48//879 38//879 40//879
f 37//880 47//880 39//880
f 47//881 45//881 39//881
f 44//882 46//882 42//882
f 46//883 40//883 42//883
f 39//884 45//884 41//884
f 45//885 43//885 41//885
f 42//886 40//886 32//886
f 40//887 34//887 32//887
f 33//888 39//888 31//888
f 39//889 41//889 31//889
f 40//890 38//890 34//890
f 38//891 36//891 34//891
f 35//892 37//892 33//892
f 37//893 39//893 33//893
f 34//894 36//894 28//894
f 36//895 26//895 28//895
f 25//896 35//896 27//896
f 35//897 33//897 27//897
f 32//898 34//898 30//898
f 34//899 28//899 30//899
f 27//900 33//900 29//900
f 33//901 31//901 29//901
f 30//902 28//902 20//902
f 28//903 22//903 20//903
f 21//904 27//904 19//904
f 27//905 29//905 19//905
f 28//906 26//906 24//906
f 28//907 24//907 22//907
f 23//908 25//908 27//908
f 23//909 27//909 21//909
f 22//910 24//910 16//910
f 24//911 14//911 16//911
f 13//912 23//912 15//912
f 23//913 21//913 15//913
f 20//914 22//914 18//914
f 22//915 16//915 18//915
f 15//916 21//916 17//916
f 21//917 19//917 17//917
f 18//918 16//918 10//918
f 18//919 10//919 8//919
f 9//920 15//920 17//920
f 9//921 17//921 7//921
f 16//922 14//922 12//922
f 16//923 12//923 10//923
f 11//924 13//924 15//924
f 11//925 15//925 9//925
f 10//926 12//926 2//926
f 10//927 2//927 4//927
f 1//928 11//928 9//928
f 1//929 9//929 3//929
f 8//930 10//930 4//930
f 8//931 4//931 6//931
f 3//932 9//932 7//932
f 3//933 7//933 5//933
f 6//934 4//934 46//934
f 6//935 46//935 44//935
f 45//936 3//936 5//936
f 45//937 5//937 43//937
f 4//938 2//938 48//938
f 4//939 48//939 46//939
f 47//940 1//940 3//940
f 47//941 3//941 45//941
